<?xml version="1.0" encoding="utf-8"?>
<svg version="1.1" id="Layer_1" xmlns="http://www.w3.org/2000/svg" xmlns:xlink="http://www.w3.org/1999/xlink" x="0px" y="0px"
	 viewBox="0 0 512 512" style="enable-background:new 0 0 512 512;" xml:space="preserve">
<style type="text/css">
	.st0{fill:#244B87;}
	.st1{fill:#6D91C7;}
	.st2{fill:#5B6266;}
	.st3{opacity:0.95;fill:#244B87;}
	.st4{opacity:0.9;fill:#244B87;}
	.st5{opacity:0.85;fill:#244B87;}
	.st6{opacity:0.8;fill:#244B87;}
	.st7{opacity:0.75;fill:#244B87;}
	.st8{opacity:0.7;fill:#244B87;}
	.st9{opacity:0.65;fill:#244B87;}
	.st10{opacity:0.6;fill:#244B87;}
	.st11{opacity:0.55;fill:#244B87;}
	.st12{opacity:0.5;fill:#244B87;}
	.st13{opacity:0.45;fill:#244B87;}
	.st14{opacity:0.43;fill:#244B87;}
	.st15{opacity:0.4;fill:#244B87;}
	.st16{opacity:0.38;fill:#244B87;}
	.st17{opacity:0.35;fill:#244B87;}
	.st18{opacity:0.33;fill:#244B87;}
	.st19{opacity:0.3;fill:#244B87;}
	.st20{opacity:0.25;fill:#244B87;}
	.st21{opacity:0.23;fill:#244B87;}
	.st22{opacity:0.2;fill:#244B87;}
	.st23{opacity:0.19;fill:#244B87;}
	.st24{opacity:0.17;fill:#244B87;}
	.st25{opacity:0.15;fill:#244B87;}
	.st26{opacity:0.13;fill:#244B87;}
	.st27{opacity:0.11;fill:#244B87;}
	.st28{opacity:9.000000e-02;fill:#244B87;}
	.st29{opacity:8.000000e-02;fill:#244B87;}
	.st30{opacity:6.000000e-02;fill:#244B87;}
	.st31{opacity:5.000000e-02;fill:#244B87;}
	.st32{opacity:3.000000e-02;fill:#244B87;}
	.st33{opacity:1.000000e-02;fill:#244B87;}
	.st34{opacity:0;fill:#244B87;}
</style>
<g id="_x3C_RISRlogo_x3E_">
	<path class="st0" d="M138.4,277.6L125.1,249h-13.7v28.6H75V167.4h53.3c15,0,26.6,3.4,34.8,10.3c8.2,6.9,12.3,16.6,12.3,29.2
		c0,8-1.5,14.9-4.5,20.8c-3,5.9-7.3,10.6-13,14.1l21.7,35.9L138.4,277.6L138.4,277.6z M111.5,221.3h16.8c4,0,7-1.2,9.2-3.5
		s3.2-5.6,3.2-9.8c0-4.1-1.1-7.3-3.2-9.5c-2.1-2.3-5.2-3.4-9.2-3.4h-16.8V221.3z M189,167.4h36.5v110.3H189V167.4z M253.6,277.9
		c-7.3-1.5-13.3-3.5-17.9-6v-32.4c5.9,3.4,12.1,5.9,18.6,7.6c6.6,1.7,12.6,2.5,18.2,2.5c3.1,0,5.4-0.3,6.8-0.9s2.1-1.6,2.1-3
		c0-1.9-1-3.5-3.1-4.8c-2.1-1.3-6.6-3.5-13.4-6.5c-10.1-4.4-17.4-9.3-21.9-14.7s-6.8-12-6.8-19.7c0-6.7,1.9-12.7,5.6-17.8
		c3.7-5.2,9-9.3,15.7-12.2c6.8-2.9,14.5-4.4,23.2-4.4c7.1,0,13.5,0.6,19,1.7c5.6,1.2,10.8,2.9,15.9,5.3v31.3
		c-9.4-5.2-18.8-7.9-28-7.9c-7.4,0-11.2,1.6-11.2,4.9c0,1.6,0.9,2.9,2.6,3.9c1.7,1,4.9,2.5,9.4,4.2l5.8,2.4
		c7.4,3.1,13.2,6.3,17.1,9.4c4,3.1,6.8,6.6,8.5,10.5c1.7,3.9,2.5,8.9,2.5,14.9c0,10.6-3.9,18.9-11.6,24.9c-7.8,6-19.5,9-35.1,9
		C268.3,280.1,261,279.4,253.6,277.9z M395.8,277.6L382.6,249h-13.7v28.6h-36.5V167.4h53.3c15,0,26.6,3.4,34.8,10.3
		c8.2,6.9,12.3,16.6,12.3,29.2c0,8-1.5,14.9-4.5,20.8s-7.3,10.6-13,14.1l21.7,35.9H395.8z M368.9,221.3h16.8c4,0,7-1.2,9.2-3.5
		s3.2-5.6,3.2-9.8c0-4.1-1.1-7.3-3.2-9.5c-2.1-2.2-5.2-3.4-9.2-3.4h-16.8V221.3z"/>
	<path class="st1" d="M147,253.5c-1.8,0-3.2,1.8-3.2,4.6c0,2.8,1.4,4.6,3.2,4.6c1.8,0,3.2-1.9,3.2-4.6
		C150.2,255.3,148.8,253.5,147,253.5z M147,261.5c-1.1,0-1.8-1.5-1.8-3.4s0.8-3.4,1.8-3.4c1.1,0,1.8,1.5,1.8,3.4
		C148.9,260,148.1,261.5,147,261.5z M404.4,267.7c-1.8,0-3.2,1.8-3.2,4.6c0,2.8,1.4,4.6,3.2,4.6s3.2-1.9,3.2-4.6
		C407.6,269.5,406.2,267.7,404.4,267.7z M404.4,275.7c-1.1,0-1.8-1.5-1.8-3.4s0.8-3.4,1.8-3.4s1.8,1.5,1.8,3.4
		C406.2,274.2,405.5,275.7,404.4,275.7z M382.5,225.1c-1.8,0-3.2,1.8-3.2,4.6s1.4,4.6,3.2,4.6s3.2-1.9,3.2-4.6
		S384.3,225.1,382.5,225.1z M382.5,233.1c-1.1,0-1.8-1.5-1.8-3.4c0-1.9,0.8-3.4,1.8-3.4c1.1,0,1.8,1.5,1.8,3.4
		C384.3,231.6,383.6,233.1,382.5,233.1z M404,234.1v-7.7h-1.5l0.7-1.3h2.1v8.9H404z M285,267.8h2.1v8.9h-1.3v-7.7h-1.5L285,267.8z
		 M388.6,239.4h2.1v8.9h-1.4v-7.7h-1.5L388.6,239.4z M404.4,253.5c-1.8,0-3.2,1.8-3.2,4.6c0,2.8,1.4,4.6,3.2,4.6s3.2-1.9,3.2-4.6
		C407.6,255.3,406.2,253.5,404.4,253.5z M404.4,261.5c-1.1,0-1.8-1.5-1.8-3.4s0.8-3.4,1.8-3.4s1.8,1.5,1.8,3.4
		C406.2,260,405.5,261.5,404.4,261.5z M404.4,210.9c-1.8,0-3.2,1.8-3.2,4.6s1.4,4.6,3.2,4.6s3.2-1.9,3.2-4.6
		S406.2,210.9,404.4,210.9z M404.4,218.9c-1.1,0-1.8-1.5-1.8-3.4s0.8-3.4,1.8-3.4s1.8,1.5,1.8,3.4S405.5,218.9,404.4,218.9z
		 M161.6,182.5c-1.8,0-3.2,1.8-3.2,4.6s1.4,4.6,3.2,4.6s3.2-1.9,3.2-4.6S163.4,182.5,161.6,182.5z M161.6,190.5
		c-1.1,0-1.8-1.5-1.8-3.4s0.8-3.4,1.8-3.4s1.8,1.5,1.8,3.4C163.5,189,162.7,190.5,161.6,190.5z M388.6,225.2h2.1v8.9h-1.4v-7.7h-1.5
		L388.6,225.2z M167.7,225.2h2.1v2.9c-0.4,0.8-0.9,1.6-1.4,2.3v-3.9h-1.5L167.7,225.2z M404.4,196.7c-1.8,0-3.2,1.8-3.2,4.6
		s1.4,4.6,3.2,4.6s3.2-1.9,3.2-4.6S406.2,196.7,404.4,196.7z M404.4,204.7c-1.1,0-1.8-1.5-1.8-3.4s0.8-3.4,1.8-3.4s1.8,1.5,1.8,3.4
		S405.5,204.7,404.4,204.7z M395.9,253.6h2.1v8.9h-1.4v-7.7h-1.5L395.9,253.6z M402.4,240.7l0.7-1.3h2.1v8.9H404v-7.7H402.4z
		 M147,267.7c-1.8,0-3.2,1.8-3.2,4.6c0,2.8,1.4,4.6,3.2,4.6c1.8,0,3.2-1.9,3.2-4.6C150.2,269.5,148.8,267.7,147,267.7z M147,275.7
		c-1.1,0-1.8-1.5-1.8-3.4s0.8-3.4,1.8-3.4c1.1,0,1.8,1.5,1.8,3.4C148.9,274.2,148.1,275.7,147,275.7z M432,203.9
		c0,0.6,0.1,1.1,0.1,1.7c-1.2-0.6-2-2.2-2-4.4c0-1.6,0.5-2.9,1.2-3.7c0.1,0.7,0.3,1.4,0.3,2c-0.1,0.5-0.2,1-0.2,1.6
		C431.3,202.3,431.6,203.3,432,203.9z M423.1,258.1c0-0.6,0.1-1.1,0.2-1.6l1.1,1.9c0.1,1.8,0.8,3.1,1.8,3.1c0,0,0,0,0.1,0l0.7,1.1
		c-0.2,0.1-0.5,0.1-0.7,0.1C424.5,262.7,423.1,260.8,423.1,258.1z M147,239.3c-1.8,0-3.2,1.8-3.2,4.6c0,2.8,1.4,4.6,3.2,4.6
		c1.8,0,3.2-1.9,3.2-4.6C150.2,241.1,148.8,239.3,147,239.3z M147,247.3c-1.1,0-1.8-1.5-1.8-3.4s0.8-3.4,1.8-3.4
		c1.1,0,1.8,1.5,1.8,3.4C148.9,245.8,148.1,247.3,147,247.3z M424.5,229.7c0,0.9,0.2,1.7,0.4,2.3c-0.3,0.4-0.5,0.7-0.8,1.1
		c-0.6-0.8-0.9-2-0.9-3.4c0-2.8,1.4-4.6,3.2-4.6c0.8,0,1.5,0.3,2,1c-0.2,0.4-0.4,0.9-0.6,1.3c-0.3-0.7-0.8-1.1-1.4-1.1
		C425.2,226.3,424.5,227.8,424.5,229.7z M146.6,220v-7.7H145l0.7-1.3h2.1v8.9H146.6z M426.3,267.7c-1.8,0-3.2,1.8-3.2,4.6
		c0,2.8,1.4,4.6,3.2,4.6s3.2-1.9,3.2-4.6C429.5,269.5,428.1,267.7,426.3,267.7z M426.3,275.7c-1.1,0-1.8-1.5-1.8-3.4
		s0.8-3.4,1.8-3.4s1.8,1.5,1.8,3.4C428.1,274.2,427.4,275.7,426.3,275.7z M411.7,225.1c-1.8,0-3.2,1.8-3.2,4.6s1.4,4.6,3.2,4.6
		s3.2-1.9,3.2-4.6S413.5,225.1,411.7,225.1z M411.7,233.1c-1.1,0-1.8-1.5-1.8-3.4c0-1.9,0.8-3.4,1.8-3.4s1.8,1.5,1.8,3.4
		C413.5,231.6,412.8,233.1,411.7,233.1z M241.6,183.4c0.7,0.8,1.2,2.1,1.2,3.7c0,2.8-1.4,4.6-3.2,4.6c-0.6,0-1.1-0.2-1.6-0.6
		c0-0.2,0.1-0.3,0.1-0.5c0.1-0.3,0.2-0.6,0.3-0.9c0.3,0.5,0.7,0.8,1.2,0.8c1.1,0,1.8-1.5,1.8-3.4c0-1-0.2-1.9-0.6-2.5
		C241.1,184.2,241.3,183.8,241.6,183.4z M418.5,183.9H417l0.7-1.3h2.1v8.9h-1.4L418.5,183.9L418.5,183.9z M404.4,182.5
		c-1.8,0-3.2,1.8-3.2,4.6s1.4,4.6,3.2,4.6s3.2-1.9,3.2-4.6S406.2,182.5,404.4,182.5z M404.4,190.5c-1.1,0-1.8-1.5-1.8-3.4
		s0.8-3.4,1.8-3.4s1.8,1.5,1.8,3.4C406.2,189,405.5,190.5,404.4,190.5z M286.3,253.5c-1.8,0-3.2,1.8-3.2,4.6c0,2.8,1.4,4.6,3.2,4.6
		s3.2-1.9,3.2-4.6C289.4,255.3,288,253.5,286.3,253.5z M286.3,261.5c-1.1,0-1.8-1.5-1.8-3.4s0.8-3.4,1.8-3.4c1.1,0,1.8,1.5,1.8,3.4
		C288.1,260,287.3,261.5,286.3,261.5z M425.8,198.1h-1.5l0.7-1.3h2.1v8.9h-1.4L425.8,198.1L425.8,198.1z M277.7,253.6h2.1v8.9h-1.4
		v-7.7H277L277.7,253.6z M425.3,183.9h-1l0.4-0.8C425,183.4,425.1,183.7,425.3,183.9z M427.2,191.6h-1.4v-7c0.5,0.7,0.9,1.4,1.4,2.1
		V191.6z M426.3,210.9c-1.8,0-3.2,1.8-3.2,4.6s1.4,4.6,3.2,4.6s3.2-1.9,3.2-4.6S428.1,210.9,426.3,210.9z M426.3,218.9
		c-1.1,0-1.8-1.5-1.8-3.4s0.8-3.4,1.8-3.4s1.8,1.5,1.8,3.4S427.4,218.9,426.3,218.9z M434.5,274.9v1.8h-1.4v-4.1L434.5,274.9z
		 M395.7,168.7c0.8,0.1,1.5,0.2,2.3,0.3v8.3h-1.4v-7.7h-1.5L395.7,168.7z M370.4,239.4h2.1v8.9h-1.4v-7.6h-1.5L370.4,239.4z
		 M320.9,243.9c0,1,0.2,1.9,0.6,2.5c0,0.6,0,1.1,0,1.7c-1.1-0.7-1.9-2.2-1.9-4.3c0-1.8,0.6-3.3,1.6-4c0.1,0.6,0.1,1.2,0.2,1.8
		C321,242.3,320.9,243,320.9,243.9z M388.6,168.5h2.1v8.9h-1.4v-7.7h-1.5L388.6,168.5z M247.6,182.5c-1.8,0-3.2,1.8-3.2,4.6
		s1.4,4.6,3.2,4.6s3.2-1.9,3.2-4.6S249.4,182.5,247.6,182.5z M247.6,190.5c-1.1,0-1.8-1.5-1.8-3.4s0.8-3.4,1.8-3.4
		c1.1,0,1.8,1.5,1.8,3.4C249.4,189,248.7,190.5,247.6,190.5z M270.4,267.8h2.1v8.9h-1.4v-7.7h-1.5L270.4,267.8z M388.6,182.7h2.1
		v8.9h-1.4v-7.7h-1.5L388.6,182.7z M388.6,253.6h2.1v8.9h-1.1l-0.3-0.6v-7.1h-1.5L388.6,253.6z M248.5,177.4h-1.4v-0.3
		c0.4-0.4,0.9-0.8,1.4-1.1V177.4z M314.2,253.6h2.1v8.9H315v-7.7h-1.5L314.2,253.6z M239.6,196.7c-1.3,0-2.3,0.9-2.8,2.5
		c0,0.3,0,0.5,0,0.8c0,1.4,0.1,2.7,0.2,4c0.6,1.2,1.5,1.9,2.6,1.9c1.8,0,3.2-1.9,3.2-4.6S241.4,196.7,239.6,196.7z M239.6,204.7
		c-1.1,0-1.8-1.5-1.8-3.4s0.8-3.4,1.8-3.4c1.1,0,1.8,1.5,1.8,3.4S240.7,204.7,239.6,204.7z M253.7,267.8h2.1v8.9h-1.4v-7.7h-1.5
		L253.7,267.8z M154.3,225.1c-1.8,0-3.2,1.8-3.2,4.6s1.4,4.6,3.2,4.6s3.2-1.9,3.2-4.6S156.1,225.1,154.3,225.1z M154.3,233.1
		c-1.1,0-1.8-1.5-1.8-3.4c0-1.9,0.8-3.4,1.8-3.4s1.8,1.5,1.8,3.4C156.2,231.6,155.4,233.1,154.3,233.1z M315.4,239.3
		c-1.8,0-3.2,1.8-3.2,4.6c0,2.8,1.4,4.6,3.2,4.6s3.2-1.9,3.2-4.6C318.6,241.1,317.2,239.3,315.4,239.3z M315.4,247.3
		c-1.1,0-1.8-1.5-1.8-3.4s0.8-3.4,1.8-3.4s1.8,1.5,1.8,3.4C317.3,245.8,316.5,247.3,315.4,247.3z M304,272.3c0,0.8-0.1,1.5-0.3,2.2
		c-0.6,0.3-1.3,0.6-1.9,0.8c0.6-0.6,0.9-1.7,0.9-3c0-1.9-0.8-3.4-1.8-3.4s-1.8,1.5-1.8,3.4c0,1.8,0.7,3.3,1.7,3.4
		c-0.5,0.2-1,0.4-1.6,0.6c-0.9-0.8-1.4-2.2-1.4-3.9c0-2.8,1.4-4.6,3.2-4.6S304,269.5,304,272.3z M395.9,182.7h2.1v8.9h-1.4v-7.7
		h-1.5L395.9,182.7z M382.5,182.5c-1.8,0-3.2,1.8-3.2,4.6s1.4,4.6,3.2,4.6s3.2-1.9,3.2-4.6S384.3,182.5,382.5,182.5z M382.5,190.5
		c-1.1,0-1.8-1.5-1.8-3.4s0.8-3.4,1.8-3.4c1.1,0,1.8,1.5,1.8,3.4C384.3,189,383.6,190.5,382.5,190.5z M168.9,196.7
		c-1.8,0-3.2,1.8-3.2,4.6s1.4,4.6,3.2,4.6c1.8,0,3.2-1.9,3.2-4.6C172.1,198.5,170.7,196.7,168.9,196.7z M168.9,204.7
		c-1.1,0-1.8-1.5-1.8-3.4s0.8-3.4,1.8-3.4s1.8,1.5,1.8,3.4S170,204.7,168.9,204.7z M255.8,177.4h-1.4v-5.3c0.4-0.2,0.9-0.5,1.4-0.7
		V177.4z M311.2,171.5c0.1,0.4,0.1,0.9,0.1,1.4c0,2.8-1.4,4.6-3.2,4.6c-1.8,0-3.2-1.9-3.2-4.6c0-1.4,0.3-2.5,0.9-3.3
		c0.4,0.1,0.9,0.3,1.3,0.4c-0.5,0.6-0.9,1.7-0.9,2.9c0,1.9,0.8,3.4,1.8,3.4s1.8-1.5,1.8-3.4c0-0.8-0.1-1.5-0.3-2
		C310.1,171.1,310.7,171.3,311.2,171.5z M167.7,211h2.1v8.9h-1.4v-7.7h-1.5L167.7,211z M370.4,225.2h2.1v8.9h-1.4v-7.7h-1.5
		L370.4,225.2z M371.2,169.7h-1.5l0.7-1.3h2.1v8.9h-1.4L371.2,169.7L371.2,169.7z M382.5,168.3c-1.8,0-3.2,1.8-3.2,4.6
		c0,2.8,1.4,4.6,3.2,4.6s3.2-1.9,3.2-4.6C385.7,170.1,384.3,168.3,382.5,168.3z M382.5,176.3c-1.1,0-1.8-1.5-1.8-3.4
		c0-1.9,0.8-3.4,1.8-3.4c1.1,0,1.8,1.5,1.8,3.4C384.3,174.8,383.6,176.3,382.5,176.3z M371.6,182.5c-1.8,0-3.2,1.8-3.2,4.6
		s1.4,4.6,3.2,4.6s3.2-1.9,3.2-4.6S373.4,182.5,371.6,182.5z M371.6,190.5c-1.1,0-1.8-1.5-1.8-3.4s0.8-3.4,1.8-3.4s1.8,1.5,1.8,3.4
		C373.5,189,372.7,190.5,371.6,190.5z M395.9,225.2h2.1v8.9h-1.4v-7.7h-1.5L395.9,225.2z M396.7,216.8c0.6-0.9,1-1.8,1.4-2.8v6h-1.4
		V216.8z M395.9,239.4h2.1v8.9h-1.4v-7.7h-1.5L395.9,239.4z M395.9,196.8h2.1v5.3c-0.3-1-0.8-1.9-1.4-2.7v-1.4h-1.1
		c0,0-0.1-0.1-0.1-0.1c-0.1-0.1-0.1-0.1-0.2-0.2L395.9,196.8z M264.4,168.3c-0.1,0-0.3,0-0.4,0c-0.2,0-0.3,0.1-0.5,0.1
		c-1.3,0.5-2.3,2.2-2.3,4.4c0,2.8,1.4,4.6,3.2,4.6s3.2-1.9,3.2-4.6C267.5,170.1,266.1,168.3,264.4,168.3z M264.4,176.3
		c-1.1,0-1.8-1.5-1.8-3.4c0-1.9,0.8-3.4,1.8-3.4s1.8,1.5,1.8,3.4C266.2,174.8,265.4,176.3,264.4,176.3z M293.8,212.1l-1.7-0.7
		c-1,0.7-1.7,2.2-1.7,4.1c0,2.8,1.4,4.6,3.2,4.6s3.2-1.9,3.2-4.6c0-0.9-0.1-1.6-0.4-2.3C295.5,212.8,294.7,212.5,293.8,212.1z
		 M293.6,218.9c-1.1,0-1.8-1.5-1.8-3.4s0.8-3.4,1.8-3.4c1.1,0,1.8,1.5,1.8,3.4C295.4,217.4,294.6,218.9,293.6,218.9z M300.4,169.7
		h-1.5l0.7-1.3h2.1h0v8.9h-1.4V169.7z M161.6,225.1c-1.8,0-3.2,1.8-3.2,4.6s1.4,4.6,3.2,4.6s3.2-1.9,3.2-4.6
		S163.4,225.1,161.6,225.1z M161.6,233.1c-1.1,0-1.8-1.5-1.8-3.4c0-1.9,0.8-3.4,1.8-3.4s1.8,1.5,1.8,3.4
		C163.5,231.6,162.7,233.1,161.6,233.1z M138.5,239.4h2.1v8.9h-1.4v-7.7h-1.5L138.5,239.4z M125.1,225.1c-1.8,0-3.2,1.8-3.2,4.6
		s1.4,4.6,3.2,4.6c1.8,0,3.2-1.9,3.2-4.6C128.3,226.9,126.9,225.1,125.1,225.1z M125.1,233.1c-1.1,0-1.8-1.5-1.8-3.4
		c0-1.9,0.8-3.4,1.8-3.4c1.1,0,1.8,1.5,1.8,3.4C127,231.6,126.2,233.1,125.1,233.1z M357,168.3c-1.8,0-3.2,1.8-3.2,4.6
		c0,2.8,1.4,4.6,3.2,4.6s3.2-1.9,3.2-4.6C360.2,170.1,358.8,168.3,357,168.3z M357,176.3c-1.1,0-1.8-1.5-1.8-3.4
		c0-1.9,0.8-3.4,1.8-3.4s1.8,1.5,1.8,3.4C358.9,174.8,358.1,176.3,357,176.3z M349.7,168.3c-1.8,0-3.2,1.8-3.2,4.6
		c0,2.8,1.4,4.6,3.2,4.6s3.2-1.9,3.2-4.6C352.9,170.1,351.5,168.3,349.7,168.3z M349.7,176.3c-1.1,0-1.8-1.5-1.8-3.4
		c0-1.9,0.8-3.4,1.8-3.4s1.8,1.5,1.8,3.4C351.6,174.8,350.8,176.3,349.7,176.3z M349.7,182.5c-1.8,0-3.2,1.8-3.2,4.6
		s1.4,4.6,3.2,4.6s3.2-1.9,3.2-4.6S351.5,182.5,349.7,182.5z M349.7,190.5c-1.1,0-1.8-1.5-1.8-3.4s0.8-3.4,1.8-3.4s1.8,1.5,1.8,3.4
		C351.6,189,350.8,190.5,349.7,190.5z M145,226.5l0.7-1.3h2.1v8.9h-1.4v-7.7H145L145,226.5z M139.3,216.6c0.6-0.9,1-1.9,1.4-2.9v6.3
		h-1.4V216.6z M138.5,225.2h2.1v8.9h-1.4v-7.7h-1.5L138.5,225.2z M342.5,253.5c-1.8,0-3.2,1.8-3.2,4.6c0,2.8,1.4,4.6,3.2,4.6
		s3.2-1.9,3.2-4.6C345.6,255.3,344.2,253.5,342.5,253.5z M342.5,261.5c-1.1,0-1.8-1.5-1.8-3.4s0.8-3.4,1.8-3.4s1.8,1.5,1.8,3.4
		C344.3,260,343.5,261.5,342.5,261.5z M348.5,267.8h2.1v8.9h-1.4v-7.7h-1.5L348.5,267.8z M348.5,253.6h2.1v8.9h-1.4v-7.7h-1.5
		L348.5,253.6z M342.5,225.1c-1.8,0-3.2,1.8-3.2,4.6s1.4,4.6,3.2,4.6s3.2-1.9,3.2-4.6C345.6,226.9,344.2,225.1,342.5,225.1z
		 M342.5,233.1c-1.1,0-1.8-1.5-1.8-3.4c0-1.9,0.8-3.4,1.8-3.4s1.8,1.5,1.8,3.4C344.3,231.6,343.5,233.1,342.5,233.1z M356.6,191.6
		v-7.7h-1.5l0.7-1.3h2.1v8.9H356.6z M114.2,168.3c-1.8,0-3.2,1.8-3.2,4.6c0,2.8,1.4,4.6,3.2,4.6c1.8,0,3.2-1.9,3.2-4.6
		C117.4,170.1,116,168.3,114.2,168.3z M114.2,176.3c-1.1,0-1.8-1.5-1.8-3.4c0-1.9,0.8-3.4,1.8-3.4s1.8,1.5,1.8,3.4
		C116,174.8,115.3,176.3,114.2,176.3z M114.2,225.1c-1.8,0-3.2,1.8-3.2,4.6s1.4,4.6,3.2,4.6c1.8,0,3.2-1.9,3.2-4.6
		S116,225.1,114.2,225.1z M114.2,233.1c-1.1,0-1.8-1.5-1.8-3.4c0-1.9,0.8-3.4,1.8-3.4s1.8,1.5,1.8,3.4
		C116,231.6,115.3,233.1,114.2,233.1z M349.7,210.9c-1.8,0-3.2,1.8-3.2,4.6s1.4,4.6,3.2,4.6s3.2-1.9,3.2-4.6
		S351.5,210.9,349.7,210.9z M349.7,218.9c-1.1,0-1.8-1.5-1.8-3.4s0.8-3.4,1.8-3.4s1.8,1.5,1.8,3.4S350.8,218.9,349.7,218.9z
		 M349.7,239.3c-1.8,0-3.2,1.8-3.2,4.6c0,2.8,1.4,4.6,3.2,4.6s3.2-1.9,3.2-4.6C352.9,241.1,351.5,239.3,349.7,239.3z M349.7,247.3
		c-1.1,0-1.8-1.5-1.8-3.4s0.8-3.4,1.8-3.4s1.8,1.5,1.8,3.4C351.6,245.8,350.8,247.3,349.7,247.3z M349.3,205.8v-7.7h-1.5l0.7-1.3
		h2.1v8.9H349.3z M349.3,234.1v-7.7h-1.5l0.7-1.3h2.1v8.9H349.3z M342.5,267.7c-1.8,0-3.2,1.8-3.2,4.6c0,2.8,1.4,4.6,3.2,4.6
		s3.2-1.9,3.2-4.6C345.6,269.5,344.2,267.7,342.5,267.7z M342.5,275.7c-1.1,0-1.8-1.5-1.8-3.4s0.8-3.4,1.8-3.4s1.8,1.5,1.8,3.4
		C344.3,274.2,343.5,275.7,342.5,275.7z M333.9,211h2.1v8.9h-1.4v-7.7h-1.5L333.9,211z M333.9,239.4h2.1v8.9h-1.4v-7.7h-1.5
		L333.9,239.4z M333.9,182.7h2.1v8.9h-1.4v-7.7h-1.5L333.9,182.7z M333.9,225.2h2.1v8.9h-1.4v-7.7h-1.5L333.9,225.2z M333.9,196.8
		h2.1v8.9h-1.4v-7.7h-1.5L333.9,196.8z M395.9,267.8h2.1v8.9h-1.4v-7.7h-1.5L395.9,267.8z M333.9,168.5h2.1v8.9h-1.4v-7.7h-1.5
		L333.9,168.5z M177.2,275.2l0.7,1.1c-0.5,0.4-1,0.6-1.7,0.6c-1.8,0-3.2-1.9-3.2-4.6c0-1.1,0.2-2.1,0.6-2.9l0.9,1.4
		c-0.1,0.4-0.2,0.9-0.2,1.5c0,1.9,0.8,3.4,1.8,3.4C176.6,275.7,176.9,275.5,177.2,275.2z M382.5,239.3c-1.8,0-3.2,1.8-3.2,4.6
		c0,2.3,0.9,3.9,2.2,4.4h1c0.1,0,0.3,0,0.4,0.1c1.5-0.3,2.7-2.1,2.7-4.6C385.7,241.1,384.3,239.3,382.5,239.3z M382.5,247.3
		c-1.1,0-1.8-1.5-1.8-3.4s0.8-3.4,1.8-3.4c1.1,0,1.8,1.5,1.8,3.4C384.3,245.8,383.6,247.3,382.5,247.3z M342.5,196.7
		c-1.8,0-3.2,1.8-3.2,4.6s1.4,4.6,3.2,4.6s3.2-1.9,3.2-4.6C345.6,198.5,344.2,196.7,342.5,196.7z M342.5,204.7
		c-1.1,0-1.8-1.5-1.8-3.4s0.8-3.4,1.8-3.4s1.8,1.5,1.8,3.4C344.3,203.2,343.5,204.7,342.5,204.7z M342.5,168.3
		c-1.8,0-3.2,1.8-3.2,4.6c0,2.8,1.4,4.6,3.2,4.6s3.2-1.9,3.2-4.6C345.6,170.1,344.2,168.3,342.5,168.3z M342.5,176.3
		c-1.1,0-1.8-1.5-1.8-3.4c0-1.9,0.8-3.4,1.8-3.4s1.8,1.5,1.8,3.4C344.3,174.8,343.5,176.3,342.5,176.3z M138.3,168.7
		c0.8,0.1,1.5,0.2,2.3,0.3v8.3h-1.4v-7.7h-1.5L138.3,168.7z M125.1,168.3c-1.8,0-3.2,1.8-3.2,4.6c0,2.8,1.4,4.6,3.2,4.6
		c1.8,0,3.2-1.9,3.2-4.6C128.3,170.1,126.9,168.3,125.1,168.3z M125.1,176.3c-1.1,0-1.8-1.5-1.8-3.4c0-1.9,0.8-3.4,1.8-3.4
		c1.1,0,1.8,1.5,1.8,3.4C127,174.8,126.2,176.3,125.1,176.3z M342,220v-7.7h-1.5l0.7-1.3h2.1v8.9H342z M131.2,253.6h2.1v8.9h-1.1
		l-0.2-0.4v-7.3h-1.5L131.2,253.6z M342.5,182.5c-1.8,0-3.2,1.8-3.2,4.6s1.4,4.6,3.2,4.6s3.2-1.9,3.2-4.6
		C345.6,184.3,344.2,182.5,342.5,182.5z M342.5,190.5c-1.1,0-1.8-1.5-1.8-3.4s0.8-3.4,1.8-3.4s1.8,1.5,1.8,3.4
		C344.3,189,343.5,190.5,342.5,190.5z M333.9,267.8h2.1v8.9h-1.4v-7.7h-1.5L333.9,267.8z M333.9,253.6h2.1v8.9h-1.4v-7.7h-1.5
		L333.9,253.6z M342.5,239.3c-1.8,0-3.2,1.8-3.2,4.6c0,2.8,1.4,4.6,3.2,4.6s3.2-1.9,3.2-4.6C345.6,241.1,344.2,239.3,342.5,239.3z
		 M342.5,247.3c-1.1,0-1.8-1.5-1.8-3.4s0.8-3.4,1.8-3.4s1.8,1.5,1.8,3.4C344.3,245.8,343.5,247.3,342.5,247.3z M138.5,253.6h2.1v8.9
		h-1.4v-7.7h-1.5L138.5,253.6z M419,253.5c-1.8,0-3.2,1.8-3.2,4.6c0,2.8,1.4,4.6,3.2,4.6s3.2-1.9,3.2-4.6
		C422.2,255.3,420.8,253.5,419,253.5z M419,261.5c-1.1,0-1.8-1.5-1.8-3.4s0.8-3.4,1.8-3.4s1.8,1.5,1.8,3.4
		C420.8,260,420.1,261.5,419,261.5z M131.2,239.4h2.1v8.9H132v-7.7h-1.5L131.2,239.4z M419,267.7c-1.8,0-3.2,1.8-3.2,4.6
		c0,2.8,1.4,4.6,3.2,4.6s3.2-1.9,3.2-4.6C422.2,269.5,420.8,267.7,419,267.7z M419,275.7c-1.1,0-1.8-1.5-1.8-3.4s0.8-3.4,1.8-3.4
		s1.8,1.5,1.8,3.4C420.8,274.2,420.1,275.7,419,275.7z M364.3,168.3c-1.8,0-3.2,1.8-3.2,4.6c0,2.8,1.4,4.6,3.2,4.6s3.2-1.9,3.2-4.6
		C367.5,170.1,366.1,168.3,364.3,168.3z M364.3,176.3c-1.1,0-1.8-1.5-1.8-3.4c0-1.9,0.8-3.4,1.8-3.4s1.8,1.5,1.8,3.4
		C366.2,174.8,365.4,176.3,364.3,176.3z M405.3,177.4H404v-7.1c0.5,0.1,0.9,0.2,1.4,0.4V177.4z M411.3,262.5v-7.7h-1.5l0.7-1.3h2.1
		v8.9H411.3z M419,196.7c-1.8,0-3.2,1.8-3.2,4.6s1.4,4.6,3.2,4.6s3.2-1.9,3.2-4.6C422.2,198.5,420.8,196.7,419,196.7z M419,204.7
		c-1.1,0-1.8-1.5-1.8-3.4s0.8-3.4,1.8-3.4s1.8,1.5,1.8,3.4C420.8,203.2,420.1,204.7,419,204.7z M131.2,225.2h2.1v8.9H132v-7.7h-1.5
		L131.2,225.2z M408.5,172.9c0-0.4,0-0.8,0.1-1.2c0.4,0.2,0.8,0.3,1.3,0.5c0,0.2,0,0.4,0,0.7c0,1.9,0.8,3.4,1.8,3.4
		c0.9,0,1.5-1,1.8-2.4c0.4,0.2,0.8,0.4,1.2,0.7c-0.4,1.8-1.6,3-3,3C409.9,177.5,408.5,175.7,408.5,172.9z M411.7,196.7
		c-1.8,0-3.2,1.8-3.2,4.6s1.4,4.6,3.2,4.6s3.2-1.9,3.2-4.6S413.5,196.7,411.7,196.7z M411.7,204.7c-1.1,0-1.8-1.5-1.8-3.4
		s0.8-3.4,1.8-3.4s1.8,1.5,1.8,3.4S412.8,204.7,411.7,204.7z M357,196.7c-1.8,0-3.2,1.8-3.2,4.6s1.4,4.6,3.2,4.6s3.2-1.9,3.2-4.6
		S358.8,196.7,357,196.7z M357,204.7c-1.1,0-1.8-1.5-1.8-3.4s0.8-3.4,1.8-3.4s1.8,1.5,1.8,3.4S358.1,204.7,357,204.7z M418.5,220
		v-7.7H417l0.7-1.3h2.1v8.9H418.5z M411.7,210.9c-1.8,0-3.2,1.8-3.2,4.6s1.4,4.6,3.2,4.6s3.2-1.9,3.2-4.6S413.5,210.9,411.7,210.9z
		 M411.7,218.9c-1.1,0-1.8-1.5-1.8-3.4s0.8-3.4,1.8-3.4s1.8,1.5,1.8,3.4S412.8,218.9,411.7,218.9z M411.3,191.6v-7.7h-1.5l0.7-1.3
		h2.1v8.9H411.3z M411.7,267.7c-1.8,0-3.2,1.8-3.2,4.6c0,2.8,1.4,4.6,3.2,4.6s3.2-1.9,3.2-4.6C414.9,269.5,413.5,267.7,411.7,267.7z
		 M411.7,275.7c-1.1,0-1.8-1.5-1.8-3.4s0.8-3.4,1.8-3.4s1.8,1.5,1.8,3.4C413.5,274.2,412.8,275.7,411.7,275.7z M147,196.7
		c-1.8,0-3.2,1.8-3.2,4.6s1.4,4.6,3.2,4.6c1.8,0,3.2-1.9,3.2-4.6C150.2,198.5,148.8,196.7,147,196.7z M147,204.7
		c-1.1,0-1.8-1.5-1.8-3.4s0.8-3.4,1.8-3.4c1.1,0,1.8,1.5,1.8,3.4S148.1,204.7,147,204.7z M411.7,239.3c-1.8,0-3.2,1.8-3.2,4.6
		c0,2.8,1.4,4.6,3.2,4.6s3.2-1.9,3.2-4.6C414.9,241.1,413.5,239.3,411.7,239.3z M411.7,247.3c-1.1,0-1.8-1.5-1.8-3.4
		s0.8-3.4,1.8-3.4s1.8,1.5,1.8,3.4C413.5,245.8,412.8,247.3,411.7,247.3z M147,182.5c-1.8,0-3.2,1.8-3.2,4.6s1.4,4.6,3.2,4.6
		c1.8,0,3.2-1.9,3.2-4.6C150.2,184.3,148.8,182.5,147,182.5z M147,190.5c-1.1,0-1.8-1.5-1.8-3.4s0.8-3.4,1.8-3.4
		c1.1,0,1.8,1.5,1.8,3.4C148.9,189,148.1,190.5,147,190.5z M417,226.5l0.7-1.3h2.1v8.9h-1.4v-7.7H417L417,226.5z M355.8,267.8h2.1
		v8.9h-1.4v-7.7h-1.5L355.8,267.8z M357,253.5c-1.8,0-3.2,1.8-3.2,4.6c0,2.8,1.4,4.6,3.2,4.6s3.2-1.9,3.2-4.6
		C360.2,255.3,358.8,253.5,357,253.5z M357,261.5c-1.1,0-1.8-1.5-1.8-3.4s0.8-3.4,1.8-3.4s1.8,1.5,1.8,3.4
		C358.9,260,358.1,261.5,357,261.5z M363.9,191.6v-7.7h-1.5l0.7-1.3h2.1v8.9H363.9z M125.1,182.5c-1.8,0-3.2,1.8-3.2,4.6
		s1.4,4.6,3.2,4.6c1.8,0,3.2-1.9,3.2-4.6C128.3,184.3,126.9,182.5,125.1,182.5z M125.1,190.5c-1.1,0-1.8-1.5-1.8-3.4
		s0.8-3.4,1.8-3.4c1.1,0,1.8,1.5,1.8,3.4C127,189,126.2,190.5,125.1,190.5z M113.7,191.6v-7.7h-1.5l0.7-1.3h2.1v8.9H113.7z
		 M356.6,234.1v-7.7h-1.5l0.7-1.3h2.1v8.9H356.6z M131.2,168.5h2.1v8.9H132v-7.7h-1.5L131.2,168.5z M364.3,196.7
		c-1.8,0-3.2,1.8-3.2,4.6s1.4,4.6,3.2,4.6s3.2-1.9,3.2-4.6C367.5,198.5,366.1,196.7,364.3,196.7z M364.3,204.7
		c-1.1,0-1.8-1.5-1.8-3.4s0.8-3.4,1.8-3.4s1.8,1.5,1.8,3.4S365.4,204.7,364.3,204.7z M355.1,240.7l0.7-1.3h2.1v8.9h-1.4v-7.7H355.1z
		 M357,210.9c-1.8,0-3.2,1.8-3.2,4.6s1.4,4.6,3.2,4.6s3.2-1.9,3.2-4.6S358.8,210.9,357,210.9z M357,218.9c-1.1,0-1.8-1.5-1.8-3.4
		s0.8-3.4,1.8-3.4s1.8,1.5,1.8,3.4S358.1,218.9,357,218.9z M362.4,226.5l0.7-1.3h2.1v8.9h-1.4v-7.7H362.4L362.4,226.5z M364.3,253.5
		c-1.8,0-3.2,1.8-3.2,4.6c0,2.8,1.4,4.6,3.2,4.6s3.2-1.9,3.2-4.6C367.5,255.3,366.1,253.5,364.3,253.5z M364.3,261.5
		c-1.1,0-1.8-1.5-1.8-3.4s0.8-3.4,1.8-3.4s1.8,1.5,1.8,3.4C366.2,260,365.4,261.5,364.3,261.5z M131.2,182.7h2.1v8.9H132v-7.7h-1.5
		L131.2,182.7z M364.3,267.7c-1.8,0-3.2,1.8-3.2,4.6c0,2.8,1.4,4.6,3.2,4.6s3.2-1.9,3.2-4.6C367.5,269.5,366.1,267.7,364.3,267.7z
		 M364.3,275.7c-1.1,0-1.8-1.5-1.8-3.4s0.8-3.4,1.8-3.4s1.8,1.5,1.8,3.4C366.2,274.2,365.4,275.7,364.3,275.7z M138.5,196.8h2.1v5.6
		c-0.3-1-0.8-2-1.4-2.8v-1.5h-1.1c0,0-0.1-0.1-0.1-0.1c0,0-0.1-0.1-0.1-0.1L138.5,196.8z M363.9,220v-7.7h-1.5l0.7-1.3h2.1v8.9
		H363.9z M364.3,239.3c-1.8,0-3.2,1.8-3.2,4.6c0,2.8,1.4,4.6,3.2,4.6s3.2-1.9,3.2-4.6C367.5,241.1,366.1,239.3,364.3,239.3z
		 M364.3,247.3c-1.1,0-1.8-1.5-1.8-3.4s0.8-3.4,1.8-3.4s1.8,1.5,1.8,3.4C366.2,245.8,365.4,247.3,364.3,247.3z M138.5,182.7h2.1v8.9
		h-1.4v-7.7h-1.5L138.5,182.7z M205.9,225.2h2.1v8.9h-1.4v-7.7h-1.5L205.9,225.2z M213.9,169.7h-1.5l0.7-1.3h2.1v8.9h-1.4V169.7
		L213.9,169.7z M205.9,267.8h2.1v8.9h-1.4v-7.7h-1.5L205.9,267.8z M214.3,182.5c-1.8,0-3.2,1.8-3.2,4.6s1.4,4.6,3.2,4.6
		s3.2-1.9,3.2-4.6S216.1,182.5,214.3,182.5z M214.3,190.5c-1.1,0-1.8-1.5-1.8-3.4s0.8-3.4,1.8-3.4c1.1,0,1.8,1.5,1.8,3.4
		C216.1,189,215.4,190.5,214.3,190.5z M205.9,253.6h2.1v8.9h-1.4v-7.7h-1.5L205.9,253.6z M106.4,248.3v-7.7h-1.5l0.7-1.3h2.1v8.9
		H106.4z M205.9,211h2.1v8.9h-1.4v-7.7h-1.5L205.9,211z M205.9,196.8h2.1v8.9h-1.4v-7.7h-1.5L205.9,196.8z M205.9,239.4h2.1v8.9
		h-1.4v-7.7h-1.5L205.9,239.4z M92.3,210.9c-1.8,0-3.2,1.8-3.2,4.6s1.4,4.6,3.2,4.6c1.8,0,3.2-1.9,3.2-4.6S94.1,210.9,92.3,210.9z
		 M92.3,218.9c-1.1,0-1.8-1.5-1.8-3.4s0.8-3.4,1.8-3.4s1.8,1.5,1.8,3.4S93.4,218.9,92.3,218.9z M205.9,182.7h2.1v8.9h-1.4v-7.7h-1.5
		L205.9,182.7z M214.3,225.1c-1.8,0-3.2,1.8-3.2,4.6s1.4,4.6,3.2,4.6s3.2-1.9,3.2-4.6S216.1,225.1,214.3,225.1z M214.3,233.1
		c-1.1,0-1.8-1.5-1.8-3.4c0-1.9,0.8-3.4,1.8-3.4c1.1,0,1.8,1.5,1.8,3.4C216.1,231.6,215.4,233.1,214.3,233.1z M214.3,239.3
		c-1.8,0-3.2,1.8-3.2,4.6c0,2.8,1.4,4.6,3.2,4.6s3.2-1.9,3.2-4.6C217.5,241.1,216.1,239.3,214.3,239.3z M214.3,247.3
		c-1.1,0-1.8-1.5-1.8-3.4s0.8-3.4,1.8-3.4c1.1,0,1.8,1.5,1.8,3.4C216.1,245.8,215.4,247.3,214.3,247.3z M213.9,262.5v-7.7h-1.5
		l0.7-1.3h2.1v8.9H213.9z M99.1,234.1v-7.7h-1.5l0.7-1.3h2.1v8.9H99.1z M98.3,253.6h2.1v8.9h-1.4v-7.7h-1.5L98.3,253.6z M98.3,267.8
		h2.1v8.9h-1.4v-7.7h-1.5L98.3,267.8z M192.9,168.3c-1.8,0-3.2,1.8-3.2,4.6c0,2.8,1.4,4.6,3.2,4.6c1.8,0,3.2-1.9,3.2-4.6
		C196,170.1,194.7,168.3,192.9,168.3z M192.9,176.3c-1.1,0-1.8-1.5-1.8-3.4c0-1.9,0.8-3.4,1.8-3.4c1.1,0,1.8,1.5,1.8,3.4
		C194.7,174.8,193.9,176.3,192.9,176.3z M99.6,239.3c-1.8,0-3.2,1.8-3.2,4.6c0,2.8,1.4,4.6,3.2,4.6c1.8,0,3.2-1.9,3.2-4.6
		C102.7,241.1,101.4,239.3,99.6,239.3z M99.6,247.3c-1.1,0-1.8-1.5-1.8-3.4s0.8-3.4,1.8-3.4s1.8,1.5,1.8,3.4
		C101.4,245.8,100.7,247.3,99.6,247.3z M214.3,210.9c-1.8,0-3.2,1.8-3.2,4.6s1.4,4.6,3.2,4.6s3.2-1.9,3.2-4.6
		S216.1,210.9,214.3,210.9z M214.3,218.9c-1.1,0-1.8-1.5-1.8-3.4s0.8-3.4,1.8-3.4c1.1,0,1.8,1.5,1.8,3.4S215.4,218.9,214.3,218.9z
		 M198.7,182.7h2.1v8.9h-1.4v-7.7H198L198.7,182.7z M192.9,253.5c-1.8,0-3.2,1.8-3.2,4.6c0,2.8,1.4,4.6,3.2,4.6
		c1.8,0,3.2-1.9,3.2-4.6C196,255.3,194.7,253.5,192.9,253.5z M192.9,261.5c-1.1,0-1.8-1.5-1.8-3.4s0.8-3.4,1.8-3.4
		c1.1,0,1.8,1.5,1.8,3.4C194.7,260,193.9,261.5,192.9,261.5z M192.9,225.1c-1.8,0-3.2,1.8-3.2,4.6s1.4,4.6,3.2,4.6
		c1.8,0,3.2-1.9,3.2-4.6S194.7,225.1,192.9,225.1z M192.9,233.1c-1.1,0-1.8-1.5-1.8-3.4c0-1.9,0.8-3.4,1.8-3.4
		c1.1,0,1.8,1.5,1.8,3.4C194.7,231.6,193.9,233.1,192.9,233.1z M192.9,239.3c-1.8,0-3.2,1.8-3.2,4.6c0,2.8,1.4,4.6,3.2,4.6
		c1.8,0,3.2-1.9,3.2-4.6C196,241.1,194.7,239.3,192.9,239.3z M192.9,247.3c-1.1,0-1.8-1.5-1.8-3.4s0.8-3.4,1.8-3.4
		c1.1,0,1.8,1.5,1.8,3.4C194.7,245.8,193.9,247.3,192.9,247.3z M106.9,253.5c-1.8,0-3.2,1.8-3.2,4.6c0,2.8,1.4,4.6,3.2,4.6
		c1.8,0,3.2-1.9,3.2-4.6C110.1,255.3,108.7,253.5,106.9,253.5z M106.9,261.5c-1.1,0-1.8-1.5-1.8-3.4s0.8-3.4,1.8-3.4
		s1.8,1.5,1.8,3.4C108.7,260,108,261.5,106.9,261.5z M105.6,267.8h2.1v8.9h-1.4v-7.7h-1.5L105.6,267.8z M192.9,196.7
		c-1.8,0-3.2,1.8-3.2,4.6s1.4,4.6,3.2,4.6c1.8,0,3.2-1.9,3.2-4.6S194.7,196.7,192.9,196.7z M192.9,204.7c-1.1,0-1.8-1.5-1.8-3.4
		s0.8-3.4,1.8-3.4c1.1,0,1.8,1.5,1.8,3.4S193.9,204.7,192.9,204.7z M192.9,210.9c-1.8,0-3.2,1.8-3.2,4.6s1.4,4.6,3.2,4.6
		c1.8,0,3.2-1.9,3.2-4.6S194.7,210.9,192.9,210.9z M192.9,218.9c-1.1,0-1.8-1.5-1.8-3.4s0.8-3.4,1.8-3.4c1.1,0,1.8,1.5,1.8,3.4
		S193.9,218.9,192.9,218.9z M106.4,169.7h-1.5l0.7-1.3h2.1v8.9h-1.4V169.7L106.4,169.7z M205.9,168.5h2.1v8.9h-1.4v-7.7h-1.5
		L205.9,168.5z M106.9,225.1c-1.8,0-3.2,1.8-3.2,4.6s1.4,4.6,3.2,4.6c1.8,0,3.2-1.9,3.2-4.6S108.7,225.1,106.9,225.1z M106.9,233.1
		c-1.1,0-1.8-1.5-1.8-3.4c0-1.9,0.8-3.4,1.8-3.4s1.8,1.5,1.8,3.4C108.7,231.6,108,233.1,106.9,233.1z M198.7,239.4h2.1v8.9h-1.4
		v-7.7H198L198.7,239.4z M198.7,253.6h2.1v8.9h-1.4v-7.7H198L198.7,253.6z M198.7,267.8h2.1v8.9h-1.4v-7.7H198L198.7,267.8z
		 M198.7,225.2h2.1v8.9h-1.4v-7.7H198L198.7,225.2z M192.9,267.7c-1.8,0-3.2,1.8-3.2,4.6c0,2.8,1.4,4.6,3.2,4.6
		c1.8,0,3.2-1.9,3.2-4.6C196,269.5,194.7,267.7,192.9,267.7z M192.9,275.7c-1.1,0-1.8-1.5-1.8-3.4s0.8-3.4,1.8-3.4
		c1.1,0,1.8,1.5,1.8,3.4C194.7,274.2,193.9,275.7,192.9,275.7z M214.3,267.7c-1.8,0-3.2,1.8-3.2,4.6c0,2.8,1.4,4.6,3.2,4.6
		s3.2-1.9,3.2-4.6C217.5,269.5,216.1,267.7,214.3,267.7z M214.3,275.7c-1.1,0-1.8-1.5-1.8-3.4s0.8-3.4,1.8-3.4
		c1.1,0,1.8,1.5,1.8,3.4C216.1,274.2,215.4,275.7,214.3,275.7z M198.7,168.5h2.1v8.9h-1.4v-7.7H198L198.7,168.5z M198.7,196.8h2.1
		v8.9h-1.4v-7.7H198L198.7,196.8z M198.7,211h2.1v8.9h-1.4v-7.7H198L198.7,211z M214.3,196.7c-1.8,0-3.2,1.8-3.2,4.6
		s1.4,4.6,3.2,4.6s3.2-1.9,3.2-4.6S216.1,196.7,214.3,196.7z M214.3,204.7c-1.1,0-1.8-1.5-1.8-3.4s0.8-3.4,1.8-3.4
		c1.1,0,1.8,1.5,1.8,3.4S215.4,204.7,214.3,204.7z M85,182.5c-1.8,0-3.2,1.8-3.2,4.6s1.4,4.6,3.2,4.6c1.8,0,3.2-1.9,3.2-4.6
		S86.8,182.5,85,182.5z M85,190.5c-1.1,0-1.8-1.5-1.8-3.4s0.8-3.4,1.8-3.4c1.1,0,1.8,1.5,1.8,3.4C86.8,189,86.1,190.5,85,190.5z
		 M83,212.3l0.7-1.3h2.1v8.9h-1.3v-7.7H83z M84.6,205.8v-7.7H83l0.7-1.3h2.1v8.9H84.6z M91,267.8h2.1v8.9h-1.4v-7.7h-1.5L91,267.8z
		 M76.5,267.8h2.1v8.9h-1.4v-7.7h-1.5L76.5,267.8z M76.5,253.6h2.1v8.9h-1.4v-7.7h-1.5L76.5,253.6z M76.5,239.4h2.1v8.9h-1.4v-7.7
		h-1.5L76.5,239.4z M84.6,169.7H83l0.7-1.3h2.1v8.9h-1.3V169.7z M76.5,225.2h2.1v8.9h-1.4v-7.7h-1.5L76.5,225.2z M85,225.1
		c-1.8,0-3.2,1.8-3.2,4.6s1.4,4.6,3.2,4.6c1.8,0,3.2-1.9,3.2-4.6S86.8,225.1,85,225.1z M85,233.1c-1.1,0-1.8-1.5-1.8-3.4
		c0-1.9,0.8-3.4,1.8-3.4c1.1,0,1.8,1.5,1.8,3.4C86.8,231.6,86.1,233.1,85,233.1z M92.3,168.3c-1.8,0-3.2,1.8-3.2,4.6
		c0,2.8,1.4,4.6,3.2,4.6c1.8,0,3.2-1.9,3.2-4.6C95.5,170.1,94.1,168.3,92.3,168.3z M92.3,176.3c-1.1,0-1.8-1.5-1.8-3.4
		c0-1.9,0.8-3.4,1.8-3.4s1.8,1.5,1.8,3.4C94.1,174.8,93.4,176.3,92.3,176.3z M92.3,182.5c-1.8,0-3.2,1.8-3.2,4.6s1.4,4.6,3.2,4.6
		c1.8,0,3.2-1.9,3.2-4.6S94.1,182.5,92.3,182.5z M92.3,190.5c-1.1,0-1.8-1.5-1.8-3.4s0.8-3.4,1.8-3.4s1.8,1.5,1.8,3.4
		C94.1,189,93.4,190.5,92.3,190.5z M221.2,191.6v-7.7h-1.5l0.7-1.3h2.1v8.9H221.2z M92.3,196.7c-1.8,0-3.2,1.8-3.2,4.6
		s1.4,4.6,3.2,4.6c1.8,0,3.2-1.9,3.2-4.6S94.1,196.7,92.3,196.7z M92.3,204.7c-1.1,0-1.8-1.5-1.8-3.4s0.8-3.4,1.8-3.4
		s1.8,1.5,1.8,3.4S93.4,204.7,92.3,204.7z M85,267.7c-1.8,0-3.2,1.8-3.2,4.6c0,2.8,1.4,4.6,3.2,4.6c1.8,0,3.2-1.9,3.2-4.6
		C88.2,269.5,86.8,267.7,85,267.7z M85,275.7c-1.1,0-1.8-1.5-1.8-3.4s0.8-3.4,1.8-3.4c1.1,0,1.8,1.5,1.8,3.4
		C86.8,274.2,86.1,275.7,85,275.7z M92.3,239.3c-1.8,0-3.2,1.8-3.2,4.6c0,2.8,1.4,4.6,3.2,4.6c1.8,0,3.2-1.9,3.2-4.6
		C95.5,241.1,94.1,239.3,92.3,239.3z M92.3,247.3c-1.1,0-1.8-1.5-1.8-3.4s0.8-3.4,1.8-3.4s1.8,1.5,1.8,3.4
		C94.1,245.8,93.4,247.3,92.3,247.3z M85,253.5c-1.8,0-3.2,1.8-3.2,4.6c0,2.8,1.4,4.6,3.2,4.6c1.8,0,3.2-1.9,3.2-4.6
		C88.2,255.3,86.8,253.5,85,253.5z M85,261.5c-1.1,0-1.8-1.5-1.8-3.4s0.8-3.4,1.8-3.4c1.1,0,1.8,1.5,1.8,3.4
		C86.8,260,86.1,261.5,85,261.5z M92.3,253.5c-1.8,0-3.2,1.8-3.2,4.6c0,2.8,1.4,4.6,3.2,4.6c1.8,0,3.2-1.9,3.2-4.6
		C95.5,255.3,94.1,253.5,92.3,253.5z M92.3,261.5c-1.1,0-1.8-1.5-1.8-3.4s0.8-3.4,1.8-3.4s1.8,1.5,1.8,3.4
		C94.1,260,93.4,261.5,92.3,261.5z M84.6,248.3v-7.7H83l0.7-1.3h2.1v8.9H84.6z M92.3,225.1c-1.8,0-3.2,1.8-3.2,4.6s1.4,4.6,3.2,4.6
		c1.8,0,3.2-1.9,3.2-4.6S94.1,225.1,92.3,225.1z M92.3,233.1c-1.1,0-1.8-1.5-1.8-3.4c0-1.9,0.8-3.4,1.8-3.4s1.8,1.5,1.8,3.4
		C94.1,231.6,93.4,233.1,92.3,233.1z M221.6,239.3c-1.8,0-3.2,1.8-3.2,4.6c0,2.8,1.4,4.6,3.2,4.6s3.2-1.9,3.2-4.6
		C224.8,241.1,223.4,239.3,221.6,239.3z M221.6,247.3c-1.1,0-1.8-1.5-1.8-3.4s0.8-3.4,1.8-3.4c1.1,0,1.8,1.5,1.8,3.4
		C223.4,245.8,222.7,247.3,221.6,247.3z M221.6,253.5c-1.8,0-3.2,1.8-3.2,4.6c0,2.8,1.4,4.6,3.2,4.6s3.2-1.9,3.2-4.6
		C224.8,255.3,223.4,253.5,221.6,253.5z M221.6,261.5c-1.1,0-1.8-1.5-1.8-3.4s0.8-3.4,1.8-3.4c1.1,0,1.8,1.5,1.8,3.4
		C223.4,260,222.7,261.5,221.6,261.5z M99.6,196.7c-1.8,0-3.2,1.8-3.2,4.6s1.4,4.6,3.2,4.6c1.8,0,3.2-1.9,3.2-4.6
		C102.7,198.5,101.4,196.7,99.6,196.7z M99.6,204.7c-1.1,0-1.8-1.5-1.8-3.4s0.8-3.4,1.8-3.4s1.8,1.5,1.8,3.4
		C101.4,203.2,100.7,204.7,99.6,204.7z M220.4,267.8h2.1v8.9h-1.4v-7.7h-1.5L220.4,267.8z M221.2,220v-7.7h-1.5l0.7-1.3h2.1v8.9
		H221.2z M221.6,225.1c-1.8,0-3.2,1.8-3.2,4.6s1.4,4.6,3.2,4.6s3.2-1.9,3.2-4.6S223.4,225.1,221.6,225.1z M221.6,233.1
		c-1.1,0-1.8-1.5-1.8-3.4c0-1.9,0.8-3.4,1.8-3.4c1.1,0,1.8,1.5,1.8,3.4C223.4,231.6,222.7,233.1,221.6,233.1z M99.6,210.9
		c-1.8,0-3.2,1.8-3.2,4.6s1.4,4.6,3.2,4.6c1.8,0,3.2-1.9,3.2-4.6C102.7,212.7,101.4,210.9,99.6,210.9z M99.6,218.9
		c-1.1,0-1.8-1.5-1.8-3.4s0.8-3.4,1.8-3.4s1.8,1.5,1.8,3.4C101.4,217.4,100.7,218.9,99.6,218.9z M221.6,196.7
		c-1.8,0-3.2,1.8-3.2,4.6s1.4,4.6,3.2,4.6s3.2-1.9,3.2-4.6S223.4,196.7,221.6,196.7z M221.6,204.7c-1.1,0-1.8-1.5-1.8-3.4
		s0.8-3.4,1.8-3.4c1.1,0,1.8,1.5,1.8,3.4S222.7,204.7,221.6,204.7z M99.6,168.3c-1.8,0-3.2,1.8-3.2,4.6c0,2.8,1.4,4.6,3.2,4.6
		c1.8,0,3.2-1.9,3.2-4.6C102.7,170.1,101.4,168.3,99.6,168.3z M99.6,176.3c-1.1,0-1.8-1.5-1.8-3.4c0-1.9,0.8-3.4,1.8-3.4
		s1.8,1.5,1.8,3.4C101.4,174.8,100.7,176.3,99.6,176.3z M221.6,168.3c-1.8,0-3.2,1.8-3.2,4.6c0,2.8,1.4,4.6,3.2,4.6s3.2-1.9,3.2-4.6
		C224.8,170.1,223.4,168.3,221.6,168.3z M221.6,176.3c-1.1,0-1.8-1.5-1.8-3.4c0-1.9,0.8-3.4,1.8-3.4c1.1,0,1.8,1.5,1.8,3.4
		C223.4,174.8,222.7,176.3,221.6,176.3z M76.5,168.5h2.1v8.9h-1.4v-7.7h-1.5L76.5,168.5z M114.2,239.3c-1.8,0-3.2,1.8-3.2,4.6
		c0,2.3,0.9,3.9,2.2,4.4h1.8c1.3-0.5,2.2-2.2,2.2-4.4C117.4,241.1,116,239.3,114.2,239.3z M114.2,247.3c-1.1,0-1.8-1.5-1.8-3.4
		s0.8-3.4,1.8-3.4s1.8,1.5,1.8,3.4C116,245.8,115.3,247.3,114.2,247.3z M76.5,182.7h2.1v8.9h-1.4v-7.7h-1.5L76.5,182.7z M76.5,196.8
		h2.1v8.9h-1.4v-7.7h-1.5L76.5,196.8z M76.5,211h2.1v8.9h-1.4v-7.7h-1.5L76.5,211z M138.5,267.8h2.1v8.9h-1.4v-7.7h-1.5L138.5,267.8
		z M125.1,239.3c-1.8,0-3.2,1.8-3.2,4.6c0,2.3,0.9,3.9,2.2,4.4h0.9c0.2,0,0.3,0,0.4,0.1c1.6-0.3,2.7-2.1,2.7-4.6
		C128.3,241.1,126.9,239.3,125.1,239.3z M125.1,247.3c-1.1,0-1.8-1.5-1.8-3.4s0.8-3.4,1.8-3.4c1.1,0,1.8,1.5,1.8,3.4
		C127,245.8,126.2,247.3,125.1,247.3z M99.6,182.5c-1.8,0-3.2,1.8-3.2,4.6s1.4,4.6,3.2,4.6c1.8,0,3.2-1.9,3.2-4.6
		C102.7,184.3,101.4,182.5,99.6,182.5z M99.6,190.5c-1.1,0-1.8-1.5-1.8-3.4s0.8-3.4,1.8-3.4s1.8,1.5,1.8,3.4
		C101.4,189,100.7,190.5,99.6,190.5z M270.4,253.6h2.1v8.9h-1.4v-7.7h-1.5L270.4,253.6z M277.7,225.2h2.1v8.9h-1.4v-7.7H277
		L277.7,225.2z M270.4,225.2h2.1v8.9h-1.4v-7.7h-1.5L270.4,225.2z M277.7,182.7h2.1v8.9h-1.4v-7.7H277L277.7,182.7z M277.7,211h2.1
		v8.9h-1.4v-7.7H277L277.7,211z M270.4,182.7h2.1v8.9h-1.4v-7.7h-1.5L270.4,182.7z M270.4,168.5h2.1v8.9h-1.4v-7.7h-1.5L270.4,168.5
		z M277.7,239.4h2.1v1.8c-0.4-0.3-0.8-0.7-1.3-1c-0.3-0.2-0.6-0.4-1-0.6L277.7,239.4z M270.4,211h2.1v8.9h-1.4v-7.7h-1.5L270.4,211z
		 M270.4,196.8h2.1v8.9h-1.4v-7.7h-1.5L270.4,196.8z M285.8,234.1v-7.7h-1.5l0.7-1.3h2.1v8.9H285.8z M311.3,200.9
		c-0.5-0.2-0.9-0.4-1.4-0.6c-0.2-1.4-0.9-2.4-1.8-2.4c-0.6,0-1,0.4-1.4,1.1c-0.4-0.2-0.8-0.3-1.2-0.4c0.6-1.2,1.5-1.9,2.6-1.9
		C309.8,196.7,311.2,198.4,311.3,200.9z M307.7,191.6v-7.7h-1.5l0.7-1.3h2.1v8.9H307.7z M312.3,201.4c0,0,0-0.1,0-0.1
		c0-2.4,1-4.1,2.4-4.5v1.4c-0.7,0.5-1.1,1.7-1.1,3.1c0,0.3,0,0.5,0,0.8C313.2,201.9,312.7,201.6,312.3,201.4z M293.6,168.3
		c-1.8,0-3.2,1.8-3.2,4.6c0,2.8,1.4,4.6,3.2,4.6s3.2-1.9,3.2-4.6C296.7,170.1,295.3,168.3,293.6,168.3z M293.6,176.3
		c-1.1,0-1.8-1.5-1.8-3.4c0-1.9,0.8-3.4,1.8-3.4c1.1,0,1.8,1.5,1.8,3.4C295.4,174.8,294.6,176.3,293.6,176.3z M154.3,253.5
		c-1.8,0-3.2,1.8-3.2,4.6c0,2.8,1.4,4.6,3.2,4.6s3.2-1.9,3.2-4.6C157.5,255.3,156.1,253.5,154.3,253.5z M154.3,261.5
		c-1.1,0-1.8-1.5-1.8-3.4s0.8-3.4,1.8-3.4s1.8,1.5,1.8,3.4C156.2,260,155.4,261.5,154.3,261.5z M284.3,240.7l0.7-1.3h2.1v8.9h-1.3
		v-7.7H284.3z M264.4,210.9c-1.8,0-3.2,1.8-3.2,4.6s1.4,4.6,3.2,4.6s3.2-1.9,3.2-4.6C267.5,212.7,266.1,210.9,264.4,210.9z
		 M264.4,218.9c-1.1,0-1.8-1.5-1.8-3.4s0.8-3.4,1.8-3.4s1.8,1.5,1.8,3.4S265.4,218.9,264.4,218.9z M286.3,210.9
		c-1.8,0-3.2,1.8-3.2,4.6s1.4,4.6,3.2,4.6s3.2-1.9,3.2-4.6C289.4,212.7,288,210.9,286.3,210.9z M286.3,218.9c-1.1,0-1.8-1.5-1.8-3.4
		s0.8-3.4,1.8-3.4c1.1,0,1.8,1.5,1.8,3.4C288.1,217.4,287.3,218.9,286.3,218.9z M293.1,191.6v-7.7h-1.5l0.7-1.3h2.1v8.9H293.1z
		 M264.4,267.7c-1.8,0-3.2,1.8-3.2,4.6c0,2.8,1.4,4.6,3.2,4.6s3.2-1.9,3.2-4.6C267.5,269.5,266.1,267.7,264.4,267.7z M264.4,275.7
		c-1.1,0-1.8-1.5-1.8-3.4s0.8-3.4,1.8-3.4s1.8,1.5,1.8,3.4C266.2,274.2,265.4,275.7,264.4,275.7z M247.6,210.9
		c-1.8,0-3.2,1.8-3.2,4.6s1.4,4.6,3.2,4.6s3.2-1.9,3.2-4.6S249.4,210.9,247.6,210.9z M247.6,218.9c-1.1,0-1.8-1.5-1.8-3.4
		s0.8-3.4,1.8-3.4c1.1,0,1.8,1.5,1.8,3.4S248.7,218.9,247.6,218.9z M255.8,229.1c-0.5-0.3-0.9-0.5-1.4-0.8v-1.8h-1.5l0.7-1.3h2.1
		L255.8,229.1L255.8,229.1z M161.2,205.8v-7.7h-1.5l0.7-1.3h2.1v8.9H161.2z M154.3,210.9c-1.8,0-3.2,1.8-3.2,4.6s1.4,4.6,3.2,4.6
		s3.2-1.9,3.2-4.6S156.1,210.9,154.3,210.9z M154.3,218.9c-1.1,0-1.8-1.5-1.8-3.4s0.8-3.4,1.8-3.4s1.8,1.5,1.8,3.4
		S155.4,218.9,154.3,218.9z M264.4,182.5c-1.8,0-3.2,1.8-3.2,4.6s1.4,4.6,3.2,4.6s3.2-1.9,3.2-4.6
		C267.5,184.3,266.1,182.5,264.4,182.5z M264.4,190.5c-1.1,0-1.8-1.5-1.8-3.4s0.8-3.4,1.8-3.4s1.8,1.5,1.8,3.4
		C266.2,189,265.4,190.5,264.4,190.5z M264.4,253.5c-1.8,0-3.2,1.8-3.2,4.6c0,2.8,1.4,4.6,3.2,4.6s3.2-1.9,3.2-4.6
		C267.5,255.3,266.1,253.5,264.4,253.5z M264.4,261.5c-1.1,0-1.8-1.5-1.8-3.4s0.8-3.4,1.8-3.4s1.8,1.5,1.8,3.4
		C266.2,260,265.4,261.5,264.4,261.5z M248.9,246.3c0.4,0.1,0.8,0.3,1.2,0.4c-0.6,1.1-1.5,1.8-2.6,1.8c-1.6,0-2.9-1.5-3.1-3.9
		c0.5,0.2,0.9,0.4,1.4,0.6c0.3,1.2,0.9,2.1,1.7,2.1C248.2,247.3,248.6,246.9,248.9,246.3z M247.6,196.7c-1.8,0-3.2,1.8-3.2,4.6
		s1.4,4.6,3.2,4.6s3.2-1.9,3.2-4.6S249.4,196.7,247.6,196.7z M247.6,204.7c-1.1,0-1.8-1.5-1.8-3.4s0.8-3.4,1.8-3.4
		c1.1,0,1.8,1.5,1.8,3.4S248.7,204.7,247.6,204.7z M246.4,253.6h2.1v8.9h-1.4v-7.7h-1.5L246.4,253.6z M312.3,187.1
		c0-2.4,1-4.1,2.4-4.5v1.4c-0.7,0.5-1.1,1.7-1.1,3.1c0,1.4,0.4,2.7,1.1,3.1v1.4C313.3,191.2,312.3,189.5,312.3,187.1z M264.4,196.7
		c-1.8,0-3.2,1.8-3.2,4.6s1.4,4.6,3.2,4.6s3.2-1.9,3.2-4.6C267.5,198.5,266.1,196.7,264.4,196.7z M264.4,204.7
		c-1.1,0-1.8-1.5-1.8-3.4s0.8-3.4,1.8-3.4s1.8,1.5,1.8,3.4S265.4,204.7,264.4,204.7z M264.4,225.1c-1.8,0-3.2,1.8-3.2,4.6
		c0,0.9,0.2,1.8,0.4,2.4c1.1,0.5,2.3,1.1,3.5,1.6c0.2,0.1,0.3,0.2,0.5,0.2c1.1-0.7,1.9-2.2,1.9-4.3
		C267.5,226.9,266.1,225.1,264.4,225.1z M264.4,233.1c-1.1,0-1.8-1.5-1.8-3.4c0-1.9,0.8-3.4,1.8-3.4s1.8,1.5,1.8,3.4
		C266.2,231.6,265.4,233.1,264.4,233.1z M242.7,215.5c0,0.9-0.1,1.7-0.4,2.4c-0.3-0.5-0.7-0.9-1-1.4c0-0.3,0.1-0.6,0.1-1
		c0-1.9-0.8-3.4-1.8-3.4c-0.2,0-0.3,0-0.5,0.1c-0.2-0.4-0.3-0.8-0.5-1.1c0.3-0.1,0.6-0.2,1-0.2C241.4,210.9,242.7,212.7,242.7,215.5
		z M154.3,267.7c-1.8,0-3.2,1.8-3.2,4.6c0,2.8,1.4,4.6,3.2,4.6s3.2-1.9,3.2-4.6C157.5,269.5,156.1,267.7,154.3,267.7z M154.3,275.7
		c-1.1,0-1.8-1.5-1.8-3.4s0.8-3.4,1.8-3.4s1.8,1.5,1.8,3.4C156.2,274.2,155.4,275.7,154.3,275.7z M155.2,191.6h-1.4v-7.7h-1.5
		l0.7-1.3h2.1V191.6z M254.9,253.5c-1.8,0-3.2,1.8-3.2,4.6c0,2.8,1.4,4.6,3.2,4.6s3.2-1.9,3.2-4.6
		C258.1,255.3,256.7,253.5,254.9,253.5z M254.9,261.5c-1.1,0-1.8-1.5-1.8-3.4s0.8-3.4,1.8-3.4c1.1,0,1.8,1.5,1.8,3.4
		C256.7,260,256,261.5,254.9,261.5z M153.9,205.8v-7.7h-1.5l0.7-1.3h2.1v8.9H153.9z M254.5,247.9c0.4,0.1,0.9,0.2,1.4,0.3v0.1h-1.4
		V247.9z M106.4,212.3h-1.5l0.7-1.3h2.1v8.9h-1.4V212.3L106.4,212.3z M106.4,183.9h-1.5l0.7-1.3h2.1v8.9h-1.4V183.9L106.4,183.9z
		 M161.6,210.9c-1.8,0-3.2,1.8-3.2,4.6s1.4,4.6,3.2,4.6s3.2-1.9,3.2-4.6S163.4,210.9,161.6,210.9z M161.6,218.9
		c-1.1,0-1.8-1.5-1.8-3.4s0.8-3.4,1.8-3.4s1.8,1.5,1.8,3.4S162.7,218.9,161.6,218.9z M238.3,267.8h2.1v5.6c-0.5-0.2-0.9-0.4-1.4-0.6
		v-3.8h-1.5L238.3,267.8z M277.7,267.8h2.1v8.9h-1.4v-7.7H277L277.7,267.8z M246.4,267.8h2.1v8.2c-0.5-0.1-0.9-0.2-1.4-0.4v-6.6
		h-1.5L246.4,267.8z M239.6,253.5c-1.8,0-3.2,1.8-3.2,4.6c0,2.8,1.4,4.6,3.2,4.6s3.2-1.9,3.2-4.6
		C242.7,255.3,241.4,253.5,239.6,253.5z M239.6,261.5c-1.1,0-1.8-1.5-1.8-3.4s0.8-3.4,1.8-3.4c1.1,0,1.8,1.5,1.8,3.4
		C241.4,260,240.7,261.5,239.6,261.5z M240.5,248.3h-1.4v-6.1c0.4,0.2,0.9,0.4,1.4,0.7V248.3z M254.5,198.1h-1.5l0.7-1.3h2.1v8.9
		h-1.4L254.5,198.1L254.5,198.1z M150,171.3c0.1,0.5,0.2,1,0.2,1.6c0,2.8-1.4,4.6-3.2,4.6s-3.2-1.9-3.2-4.6c0-1.3,0.3-2.3,0.8-3.1
		c0.4,0.1,0.9,0.2,1.3,0.3c-0.5,0.6-0.8,1.6-0.8,2.8c0,1.9,0.8,3.4,1.8,3.4s1.8-1.5,1.8-3.4c0-0.8-0.1-1.5-0.4-2.1
		C149,171,149.5,171.2,150,171.3z M254.5,183.9h-1.5l0.7-1.3h2.1v8.9h-1.4L254.5,183.9L254.5,183.9z M305.4,217.8
		c1.3,0.7,2.5,1.5,3.5,2.2c-0.2,0.1-0.5,0.1-0.7,0.1C306.9,220.1,305.9,219.2,305.4,217.8z M106.4,198.1h-1.5l0.7-1.3h2.1v8.9h-1.4
		V198.1L106.4,198.1z M314.2,225.2h0.7c0.5,0.6,1,1.1,1.4,1.7v7.2H315v-7.7h-1.5L314.2,225.2z M192.9,182.5c-1.8,0-3.2,1.8-3.2,4.6
		s1.4,4.6,3.2,4.6c1.8,0,3.2-1.9,3.2-4.6S194.7,182.5,192.9,182.5z M192.9,190.5c-1.1,0-1.8-1.5-1.8-3.4s0.8-3.4,1.8-3.4
		c1.1,0,1.8,1.5,1.8,3.4C194.7,189,193.9,190.5,192.9,190.5z M306.9,267.8h2.1v3.5c-0.4,0.3-0.9,0.6-1.4,0.9v-3.2h-1.5L306.9,267.8z
		 M293.6,267.7c-1.8,0-3.2,1.8-3.2,4.6c0,2.8,1.4,4.6,3.2,4.6s3.2-1.9,3.2-4.6C296.7,269.5,295.3,267.7,293.6,267.7z M293.6,275.7
		c-1.1,0-1.8-1.5-1.8-3.4s0.8-3.4,1.8-3.4c1.1,0,1.8,1.5,1.8,3.4C295.4,274.2,294.6,275.7,293.6,275.7z M306.9,239.4h2.1v8.9h-1.4
		v-7.7h-1.5L306.9,239.4z M306.9,253.6h2.1v8.9h-1.4v-7.7h-1.5L306.9,253.6z M306.9,225.2h2.1v8.9h-1.4v-7.7h-1.5L306.9,225.2z
		 M293.6,225.1c-1.8,0-3.2,1.8-3.2,4.6s1.4,4.6,3.2,4.6s3.2-1.9,3.2-4.6C296.7,226.9,295.3,225.1,293.6,225.1z M293.6,233.1
		c-1.1,0-1.8-1.5-1.8-3.4c0-1.9,0.8-3.4,1.8-3.4c1.1,0,1.8,1.5,1.8,3.4C295.4,231.6,294.6,233.1,293.6,233.1z M160.4,267.8h2.1v8.9
		h-1.4v-7.7h-1.5L160.4,267.8z M254.9,210.9c-1.8,0-3.2,1.8-3.2,4.6s1.4,4.6,3.2,4.6s3.2-1.9,3.2-4.6S256.7,210.9,254.9,210.9z
		 M254.9,218.9c-1.1,0-1.8-1.5-1.8-3.4s0.8-3.4,1.8-3.4c1.1,0,1.8,1.5,1.8,3.4S256,218.9,254.9,218.9z M300.8,239.3
		c-1.8,0-3.2,1.8-3.2,4.6c0,2.8,1.4,4.6,3.2,4.6s3.2-1.9,3.2-4.6C304,241.1,302.6,239.3,300.8,239.3z M300.8,247.3
		c-1.1,0-1.8-1.5-1.8-3.4s0.8-3.4,1.8-3.4s1.8,1.5,1.8,3.4C302.7,245.8,301.9,247.3,300.8,247.3z M300.8,253.5
		c-1.8,0-3.2,1.8-3.2,4.6c0,2.8,1.4,4.6,3.2,4.6s3.2-1.9,3.2-4.6C304,255.3,302.6,253.5,300.8,253.5z M300.8,261.5
		c-1.1,0-1.8-1.5-1.8-3.4s0.8-3.4,1.8-3.4s1.8,1.5,1.8,3.4C302.7,260,301.9,261.5,300.8,261.5z M165.8,258.1c0-0.6,0.1-1.1,0.2-1.5
		l1.2,1.9c0.1,1.7,0.8,3,1.8,3l0.7,1.1c-0.2,0.1-0.4,0.1-0.7,0.1C167.2,262.7,165.8,260.8,165.8,258.1z M293.6,239.3
		c-1.8,0-3.2,1.8-3.2,4.6c0,2.8,1.4,4.6,3.2,4.6s3.2-1.9,3.2-4.6C296.7,241.1,295.3,239.3,293.6,239.3z M293.6,247.3
		c-1.1,0-1.8-1.5-1.8-3.4s0.8-3.4,1.8-3.4c1.1,0,1.8,1.5,1.8,3.4C295.4,245.8,294.6,247.3,293.6,247.3z M157.2,242.2
		c-0.1-0.2-0.1-0.3-0.1-0.5c-0.5-1.5-1.6-2.4-2.8-2.4c-1.8,0-3.2,1.8-3.2,4.6s1.4,4.6,3.2,4.6s3.2-1.9,3.2-4.6
		c0-0.6-0.1-1.1-0.2-1.6L157.2,242.2z M154.3,247.3c-1.1,0-1.8-1.5-1.8-3.4s0.8-3.4,1.8-3.4s1.8,1.5,1.8,3.4
		C156.2,245.8,155.4,247.3,154.3,247.3z M293.6,253.5c-1.8,0-3.2,1.8-3.2,4.6c0,2.8,1.4,4.6,3.2,4.6s3.2-1.9,3.2-4.6
		C296.7,255.3,295.3,253.5,293.6,253.5z M293.6,261.5c-1.1,0-1.8-1.5-1.8-3.4s0.8-3.4,1.8-3.4c1.1,0,1.8,1.5,1.8,3.4
		C295.4,260,294.6,261.5,293.6,261.5z M161.6,253.5c-1.8,0-3.2,1.8-3.2,4.6c0,2.8,1.4,4.6,3.2,4.6s3.2-1.9,3.2-4.6
		C164.8,255.3,163.4,253.5,161.6,253.5z M161.6,261.5c-1.1,0-1.8-1.5-1.8-3.4s0.8-3.4,1.8-3.4s1.8,1.5,1.8,3.4
		C163.5,260,162.7,261.5,161.6,261.5z M300.4,183.9h-1.5l0.7-1.3h2.1v8.9h-1.4V183.9L300.4,183.9z M286.3,182.5
		c-1.8,0-3.2,1.8-3.2,4.6s1.4,4.6,3.2,4.6s3.2-1.9,3.2-4.6C289.4,184.3,288,182.5,286.3,182.5z M286.3,190.5c-1.1,0-1.8-1.5-1.8-3.4
		s0.8-3.4,1.8-3.4c1.1,0,1.8,1.5,1.8,3.4C288.1,189,287.3,190.5,286.3,190.5z M277.7,168.5h2.1v8.9h-1.4v-7.7H277L277.7,168.5z
		 M165.8,187.1c0-1.8,0.6-3.2,1.5-4c0.3,0.3,0.5,0.7,0.7,1c-0.6,0.6-0.9,1.7-0.9,3c0,1.9,0.8,3.4,1.8,3.4c0.8,0,1.4-0.9,1.7-2.1
		c0.3,0.5,0.5,1.1,0.8,1.7c-0.6,1-1.5,1.7-2.5,1.7C167.2,191.7,165.8,189.9,165.8,187.1z M151.2,172.9c0-0.4,0-0.8,0.1-1.1
		c0.4,0.2,0.9,0.3,1.3,0.5c0,0.2,0,0.4,0,0.6c0,1.9,0.8,3.4,1.8,3.4c0.9,0,1.5-1,1.7-2.4c0.4,0.2,0.8,0.4,1.2,0.7
		c-0.4,1.8-1.6,2.9-3,2.9C152.6,177.5,151.2,175.7,151.2,172.9z M167.7,267.8h2.1v8.9h-1.4v-7.7h-1.5L167.7,267.8z M286.3,168.3
		c-1.8,0-3.2,1.8-3.2,4.6c0,2.8,1.4,4.6,3.2,4.6s3.2-1.9,3.2-4.6C289.4,170.1,288,168.3,286.3,168.3z M286.3,176.3
		c-1.1,0-1.8-1.5-1.8-3.4c0-1.9,0.8-3.4,1.8-3.4c1.1,0,1.8,1.5,1.8,3.4C288.1,174.8,287.3,176.3,286.3,176.3z M297.7,215.5
		c0-0.6,0.1-1.1,0.2-1.6c0.4,0.2,0.8,0.4,1.2,0.6c0,0.3-0.1,0.7-0.1,1c0,1.9,0.8,3.4,1.8,3.4c0.9,0,1.6-1.1,1.8-2.6
		c0.4,0.2,0.8,0.4,1.2,0.7c-0.4,2-1.6,3.2-3,3.2C299.1,220.1,297.7,218.2,297.7,215.5z M300.8,225.1c-1.8,0-3.2,1.8-3.2,4.6
		s1.4,4.6,3.2,4.6s3.2-1.9,3.2-4.6S302.6,225.1,300.8,225.1z M300.8,233.1c-1.1,0-1.8-1.5-1.8-3.4c0-1.9,0.8-3.4,1.8-3.4
		s1.8,1.5,1.8,3.4C302.7,231.6,301.9,233.1,300.8,233.1z"/>
	<path class="st2" d="M88.5,308.1c1.7-0.6,2.9-1.5,3.8-2.8c0.9-1.3,1.3-2.9,1.3-4.8c0-2.5-0.8-4.5-2.4-5.9c-1.6-1.4-4-2.1-7-2.1H75
		v23.7h3.2v-7.4h6c0.3,0,0.8,0,1.3-0.1l4.7,7.4v0H94L88.5,308.1z M84.2,305.8h-6v-10.4h6c2,0,3.6,0.4,4.7,1.3
		c1.1,0.9,1.6,2.1,1.6,3.8c0,1.7-0.5,3-1.6,3.9C87.8,305.3,86.3,305.8,84.2,305.8z M115.5,307.4c0-2.9-0.7-5.2-2.1-6.8
		c-1.4-1.6-3.5-2.4-6.3-2.5c-1.7,0-3.3,0.4-4.6,1.2c-1.4,0.8-2.4,1.8-3.2,3.2s-1.1,2.9-1.1,4.7c0,1.8,0.4,3.3,1.1,4.7
		c0.7,1.4,1.8,2.4,3.2,3.2s2.9,1.1,4.7,1.1c1.5,0,2.9-0.3,4.1-0.8c1.2-0.5,2.3-1.3,3.2-2.2l-1.7-1.8c-0.7,0.7-1.5,1.2-2.4,1.6
		c-0.9,0.4-1.9,0.6-3,0.6c-1.6,0-2.9-0.5-4-1.4c-1.1-1-1.8-2.2-2-3.8h14.1C115.5,308.2,115.5,307.8,115.5,307.4z M112.6,306h-11.4
		c0.2-1.6,0.8-2.9,1.9-3.8c1-1,2.4-1.4,3.9-1.4c1.6,0,2.9,0.5,3.9,1.4C112,303.1,112.5,304.3,112.6,306L112.6,306z M127.8,301.1
		c-0.9-0.3-1.7-0.4-2.6-0.4c-0.9,0-1.7,0.2-2.3,0.5c-0.6,0.3-0.9,0.9-0.9,1.6c0,0.7,0.3,1.3,1,1.6c0.6,0.4,1.6,0.7,2.9,1.1
		c1.2,0.4,2.3,0.7,3,1.1c0.8,0.4,1.5,0.9,2,1.6c0.6,0.7,0.8,1.6,0.8,2.8c0,1.7-0.6,3-1.9,3.8c-1.3,0.9-2.9,1.3-4.8,1.3
		c-1.3,0-2.6-0.2-3.9-0.6c-1.3-0.4-2.3-1-3.2-1.8l1.2-2.3c0.7,0.7,1.7,1.2,2.8,1.6c1.1,0.4,2.2,0.6,3.2,0.6c1,0,1.9-0.2,2.5-0.6
		s0.9-1,0.9-1.8c0-0.8-0.3-1.4-1-1.8c-0.7-0.4-1.7-0.8-3-1.2c-1.2-0.3-2.2-0.7-2.9-1c-0.8-0.3-1.4-0.9-1.9-1.5
		c-0.5-0.7-0.8-1.6-0.8-2.6c0-1.7,0.6-2.9,1.8-3.8c1.2-0.8,2.7-1.3,4.6-1.3c1.1,0,2.1,0.2,3.2,0.5s2,0.7,2.7,1.2l-1.1,2.4
		C129.5,301.7,128.7,301.4,127.8,301.1z M152.4,307.4c0-2.9-0.7-5.2-2.1-6.8c-1.4-1.6-3.5-2.4-6.3-2.5c-1.7,0-3.3,0.4-4.6,1.2
		c-1.4,0.8-2.4,1.8-3.2,3.2s-1.1,2.9-1.1,4.7c0,1.8,0.4,3.3,1.1,4.7c0.7,1.4,1.8,2.4,3.2,3.2s2.9,1.1,4.7,1.1c1.5,0,2.9-0.3,4.1-0.8
		c1.2-0.5,2.3-1.3,3.2-2.2l-1.7-1.8c-0.7,0.7-1.5,1.2-2.4,1.6c-0.9,0.4-1.9,0.6-3,0.6c-1.6,0-2.9-0.5-4-1.4c-1.1-1-1.8-2.2-2-3.8
		h14.1C152.4,308.2,152.4,307.8,152.4,307.4z M149.5,306h-11.4c0.2-1.6,0.8-2.9,1.9-3.8c1-1,2.4-1.4,3.9-1.4c1.6,0,2.9,0.5,3.9,1.4
		C148.9,303.1,149.5,304.3,149.5,306L149.5,306z M168.4,316.1h3.1l0-11.8c0-2-0.6-3.5-1.9-4.6c-1.2-1.1-2.9-1.6-5.2-1.6
		c-1.5,0-2.8,0.2-3.9,0.6c-1.1,0.4-2.3,1-3.6,1.8l1.3,2.2c1.9-1.3,3.7-1.9,5.5-1.9c1.5,0,2.6,0.3,3.4,1c0.8,0.7,1.2,1.7,1.2,2.9v0.8
		h-5.7c-2.1,0-3.8,0.5-5,1.4c-1.2,0.9-1.8,2.2-1.8,3.8c0,1,0.3,2,0.8,2.8c0.5,0.8,1.2,1.5,2.2,2c0.9,0.5,2,0.7,3.3,0.7
		c2.8,0,4.9-0.9,6.3-2.6V316.1L168.4,316.1z M168.3,309.8c-0.2,1.2-0.8,2.1-1.8,2.8s-2.3,1.1-3.7,1c-1.2,0-2.1-0.3-2.8-0.8
		s-1-1.3-1-2.2c0-0.9,0.3-1.6,1-2c0.7-0.4,1.7-0.6,3.2-0.6h5.2V309.8z M183.5,299.2c1.1-0.7,2.4-1,3.8-1v3c-1.8-0.1-3.3,0.4-4.4,1.4
		s-1.8,2.4-1.9,4.1v9.4h-3.1v-17.9h3.1v3.8C181.6,300.8,182.4,299.8,183.5,299.2z M198.9,300.9c-1.2,0-2.2,0.3-3.1,0.8
		c-0.9,0.5-1.6,1.3-2.1,2.2c-0.5,0.9-0.8,2-0.8,3.3c0,1.2,0.3,2.3,0.8,3.3c0.5,0.9,1.2,1.7,2.1,2.2c0.9,0.5,1.9,0.8,3.1,0.8
		c1.1,0,2.2-0.2,3.1-0.6c0.9-0.4,1.7-0.9,2.3-1.7l1.8,1.8c-0.8,1-1.8,1.8-3.1,2.3c-1.3,0.5-2.7,0.8-4.2,0.8c-1.7,0-3.3-0.4-4.6-1.1
		c-1.4-0.8-2.4-1.8-3.2-3.2c-0.8-1.4-1.1-2.9-1.1-4.7s0.4-3.3,1.1-4.7c0.8-1.4,1.8-2.4,3.2-3.2c1.4-0.8,2.9-1.1,4.6-1.1
		c1.5,0,2.9,0.2,4.1,0.7c1.2,0.5,2.2,1.1,3,2l-1.7,2.2C202.6,301.6,200.9,300.9,198.9,300.9z M226.3,300c1.2,1.2,1.8,2.9,1.8,5.1
		v11.1H225v-10.2c0-1.5-0.4-2.7-1.3-3.5s-2-1.3-3.5-1.3c-1.7,0-3.1,0.6-4.1,1.8c-1,1.1-1.5,2.6-1.5,4.5v8.8h-3.1V291h3.1v11.1
		c1.2-2.6,3.5-3.9,6.8-4C223.5,298.1,225.1,298.7,226.3,300z M244.4,292.4h3.2v23.7h-3.2V292.4z M269.7,300c1.2,1.2,1.8,2.9,1.8,5.1
		v11.1h-3.1v-10.2c0-1.5-0.4-2.7-1.3-3.5s-2-1.3-3.5-1.3c-1.6,0-2.9,0.5-3.9,1.5c-1,1-1.6,2.3-1.7,3.9v9.6h-3.1v-17.9h3.1v3.8
		c1.2-2.5,3.5-3.8,6.8-3.9C266.9,298.1,268.5,298.7,269.7,300z M282.4,294.4c-0.5,0.5-0.8,1.2-0.8,2.1v2.3h4.9v2.4h-4.9v14.9h-3.1
		v-14.9h-2.3v-2.4h2.3v-1.9c0-1.3,0.3-2.4,0.8-3.3c0.6-0.9,1.3-1.6,2.2-2.1c0.9-0.5,1.9-0.7,2.9-0.7c1,0,2,0.3,3.1,0.8l-0.7,2.6
		c-0.8-0.4-1.6-0.6-2.3-0.6C283.6,293.6,283,293.9,282.4,294.4z M305.3,302.5c-0.8-1.4-1.9-2.4-3.2-3.2c-1.4-0.8-3-1.1-4.8-1.1
		c-1.8,0-3.4,0.4-4.8,1.1c-1.4,0.8-2.5,1.8-3.2,3.2c-0.8,1.4-1.2,2.9-1.2,4.7c0,1.8,0.4,3.4,1.2,4.7c0.8,1.4,1.9,2.4,3.2,3.2
		s3,1.1,4.8,1.1c1.8,0,3.4-0.4,4.8-1.1c1.4-0.8,2.5-1.8,3.2-3.2c0.8-1.4,1.2-2.9,1.2-4.7S306,303.8,305.3,302.5z M302.5,310.5
		c-0.5,1-1.2,1.7-2.1,2.2c-0.9,0.5-1.9,0.8-3.1,0.8c-1.2,0-2.2-0.3-3.1-0.8c-0.9-0.5-1.6-1.3-2.1-2.2c-0.5-1-0.8-2.1-0.8-3.3
		c0-1.2,0.3-2.3,0.8-3.3c0.5-1,1.2-1.7,2.1-2.2c0.9-0.5,2-0.8,3.1-0.8c1.1,0,2.2,0.3,3.1,0.8c0.9,0.5,1.6,1.3,2.1,2.2
		c0.5,1,0.8,2,0.8,3.3C303.3,308.4,303,309.5,302.5,310.5z M317.2,299.2c1.1-0.7,2.4-1,3.8-1v3c-1.8-0.1-3.3,0.4-4.4,1.4
		c-1.1,1-1.8,2.4-1.9,4.1v9.4h-3.1v-17.9h3.1v3.8C315.3,300.8,316.1,299.8,317.2,299.2z M353.2,300c1.2,1.2,1.8,2.9,1.8,5.1v11.1
		h-3.2v-10.2c0-1.5-0.4-2.7-1.2-3.5c-0.8-0.9-2-1.3-3.4-1.3c-1.7,0-3,0.6-4,1.8c-1,1.1-1.5,2.6-1.5,4.4v8.8h-3.2v-10.2
		c0-1.5-0.4-2.7-1.2-3.5c-0.8-0.9-2-1.3-3.4-1.3c-1.7,0-3,0.6-4,1.8c-1,1.1-1.5,2.6-1.5,4.4v8.8h-3.1v-17.9h3.1v3.8
		c1.2-2.5,3.4-3.8,6.7-3.8c1.6,0,3,0.4,4.1,1.2c1.1,0.8,1.8,1.9,2.2,3.3c1.1-3,3.4-4.5,7-4.5C350.4,298.1,352,298.7,353.2,300z
		 M372.2,316.1h3.1l0-11.8c0-2-0.6-3.5-1.9-4.6c-1.2-1.1-2.9-1.6-5.2-1.6c-1.5,0-2.8,0.2-3.9,0.6c-1.1,0.4-2.3,1-3.6,1.8l1.3,2.2
		c1.9-1.3,3.7-1.9,5.5-1.9c1.5,0,2.6,0.3,3.4,1c0.8,0.7,1.2,1.7,1.2,2.9v0.8h-5.7c-2.1,0-3.8,0.5-5,1.4c-1.2,0.9-1.8,2.2-1.8,3.8
		c0,1,0.3,2,0.8,2.8c0.5,0.8,1.2,1.5,2.2,2c0.9,0.5,2,0.7,3.3,0.7c2.8,0,4.9-0.9,6.3-2.6V316.1L372.2,316.1z M372.2,309.8
		c-0.2,1.2-0.8,2.1-1.8,2.8s-2.3,1.1-3.7,1c-1.2,0-2.1-0.3-2.8-0.8s-1-1.3-1-2.2c0-0.9,0.3-1.6,1-2c0.7-0.4,1.7-0.6,3.2-0.6h5.2
		V309.8z M391.3,314.9c-1.4,0.9-2.8,1.3-4.2,1.3s-2.6-0.4-3.5-1.3c-0.9-0.8-1.3-2.1-1.3-3.8v-9.9h-2.5v-2.4h2.5V294h3.2v4.8h5.5v2.4
		h-5.5v9.3c0,1,0.2,1.7,0.5,2.1c0.4,0.4,0.9,0.6,1.6,0.6c0.9,0,1.8-0.3,2.8-0.8L391.3,314.9z M398.8,291.7c0.4,0.4,0.6,0.9,0.6,1.5
		c0,0.6-0.2,1.1-0.6,1.5s-0.8,0.6-1.4,0.6c-0.6,0-1-0.2-1.4-0.6s-0.6-0.9-0.6-1.5c0-0.6,0.2-1.1,0.6-1.5s0.8-0.6,1.4-0.6
		C398,291.1,398.5,291.3,398.8,291.7z M395.9,298.2h3.1v17.9h-3.1V298.2z M413.3,300.9c-1.2,0-2.2,0.3-3.1,0.8
		c-0.9,0.5-1.6,1.3-2.1,2.2c-0.5,0.9-0.8,2-0.8,3.3c0,1.2,0.3,2.3,0.8,3.3c0.5,0.9,1.2,1.7,2.1,2.2c0.9,0.5,1.9,0.8,3.1,0.8
		c1.1,0,2.2-0.2,3.1-0.6c0.9-0.4,1.7-0.9,2.3-1.7l1.8,1.8c-0.8,1-1.8,1.8-3.1,2.3c-1.3,0.5-2.7,0.8-4.2,0.8c-1.7,0-3.3-0.4-4.6-1.1
		c-1.4-0.8-2.4-1.8-3.2-3.2c-0.8-1.4-1.1-2.9-1.1-4.7s0.4-3.3,1.1-4.7c0.8-1.4,1.8-2.4,3.2-3.2c1.4-0.8,2.9-1.1,4.6-1.1
		c1.5,0,2.9,0.2,4.1,0.7s2.2,1.1,3,2l-1.7,2.2C417,301.6,415.3,300.9,413.3,300.9z M432.9,301.1c-0.9-0.3-1.7-0.4-2.6-0.4
		c-0.9,0-1.7,0.2-2.3,0.5c-0.6,0.3-0.9,0.9-0.9,1.6c0,0.7,0.3,1.3,1,1.6c0.6,0.4,1.6,0.7,2.9,1.1c1.2,0.4,2.3,0.7,3,1.1
		c0.8,0.4,1.5,0.9,2,1.6c0.6,0.7,0.8,1.6,0.8,2.8c0,1.7-0.6,3-1.9,3.8c-1.3,0.9-2.9,1.3-4.8,1.3c-1.3,0-2.6-0.2-3.9-0.6
		c-1.3-0.4-2.3-1-3.2-1.8l1.2-2.3c0.7,0.7,1.7,1.2,2.8,1.6c1.1,0.4,2.2,0.6,3.2,0.6c1,0,1.9-0.2,2.5-0.6s0.9-1,0.9-1.8
		c0-0.8-0.3-1.4-1-1.8c-0.7-0.4-1.7-0.8-3-1.2c-1.2-0.3-2.2-0.7-2.9-1c-0.8-0.3-1.4-0.9-1.9-1.5c-0.5-0.7-0.8-1.6-0.8-2.6
		c0-1.7,0.6-2.9,1.8-3.8c1.2-0.8,2.7-1.3,4.6-1.3c1.1,0,2.1,0.2,3.2,0.5c1,0.3,2,0.7,2.7,1.2l-1.1,2.4
		C434.7,301.7,433.8,301.4,432.9,301.1z M87.2,325c-1.2-0.4-2.3-0.6-3.3-0.6c-1.4,0-2.5,0.3-3.3,0.8c-0.8,0.6-1.2,1.3-1.2,2.3
		c0,0.9,0.3,1.6,0.8,2.1c0.5,0.6,1.2,1,1.9,1.3c0.7,0.3,1.8,0.7,3.1,1.1c1.6,0.5,3,1,4,1.5c1,0.5,1.9,1.2,2.6,2.1
		c0.7,0.9,1.1,2.2,1.2,3.7c0.1,1.4-0.3,2.7-1,3.7c-0.7,1.1-1.7,1.9-3,2.5c-1.3,0.6-2.8,0.9-4.6,0.9c-1.7,0-3.5-0.3-5.2-1.1
		c-1.7-0.7-3.2-1.7-4.4-2.8l1.4-2.9c1.2,1.2,2.5,2.1,3.9,2.7c1.4,0.6,2.8,0.9,4.2,0.9c1.6,0,2.8-0.3,3.7-1c0.9-0.7,1.3-1.5,1.3-2.6
		c0-0.9-0.3-1.6-0.8-2.2c-0.5-0.6-1.2-1-1.9-1.4c-0.8-0.3-1.8-0.7-3.1-1.1c-1.6-0.5-2.9-1-3.9-1.5c-1-0.5-1.9-1.2-2.6-2.1
		s-1.1-2.1-1.2-3.7c0-1.3,0.3-2.5,0.9-3.5c0.7-1,1.6-1.8,2.9-2.3c1.3-0.5,2.7-0.8,4.4-0.8c1.4,0,2.8,0.2,4.2,0.7
		c1.4,0.4,2.6,1,3.7,1.8l-1.2,3.1C89.6,325.9,88.4,325.4,87.2,325z M119.6,330.2c1.2,1.2,1.8,2.9,1.8,5.1v11h-3.1v-10.2
		c0-1.5-0.4-2.7-1.3-3.5c-0.8-0.8-2-1.3-3.5-1.3c-1.7,0-3.1,0.6-4.1,1.7c-1,1.1-1.5,2.6-1.5,4.4v8.7h-3.1v-25h3.1v11
		c1.2-2.6,3.5-3.9,6.8-3.9C116.8,328.4,118.5,329,119.6,330.2z M147.7,346.3l0-11.7c0-2-0.6-3.5-1.8-4.6c-1.2-1.1-2.9-1.6-5.1-1.6
		c-1.5,0-2.8,0.2-3.9,0.6c-1.1,0.4-2.3,1-3.5,1.8l1.3,2.1c1.9-1.3,3.7-1.9,5.5-1.9c1.5,0,2.6,0.3,3.4,1c0.8,0.7,1.2,1.7,1.2,2.9v0.8
		h-5.6c-2.1,0-3.7,0.5-4.9,1.4c-1.2,0.9-1.8,2.2-1.8,3.8c0,1,0.3,2,0.8,2.8c0.5,0.8,1.2,1.5,2.1,2s2,0.7,3.2,0.7
		c2.8,0,4.9-0.9,6.2-2.6v2.5H147.7z M144.6,340c-0.2,1.2-0.8,2.1-1.8,2.8c-1,0.7-2.3,1.1-3.7,1c-1.2,0-2.1-0.3-2.8-0.8
		c-0.7-0.5-1-1.3-1-2.2c0-0.9,0.3-1.6,1-2c0.7-0.4,1.7-0.6,3.1-0.6h5.2V340z M165.6,329.4c1.1-0.7,2.4-1,3.8-1v3
		c-1.8-0.1-3.3,0.4-4.4,1.4s-1.8,2.4-1.9,4.1v9.4H160v-17.8h3.1v3.8C163.7,331.1,164.6,330.1,165.6,329.4z M195.1,337.6
		c0-2.9-0.7-5.2-2.1-6.8c-1.4-1.6-3.5-2.4-6.2-2.4c-1.7,0-3.3,0.4-4.6,1.2c-1.4,0.8-2.4,1.8-3.1,3.2c-0.7,1.4-1.1,2.9-1.1,4.7
		c0,1.7,0.4,3.3,1.1,4.7c0.7,1.4,1.8,2.4,3.2,3.2s2.9,1.1,4.7,1.1c1.5,0,2.9-0.3,4.1-0.8c1.2-0.5,2.3-1.2,3.2-2.2l-1.7-1.8
		c-0.7,0.7-1.5,1.2-2.4,1.6c-0.9,0.4-1.9,0.6-2.9,0.6c-1.6,0-2.9-0.5-4-1.4c-1.1-0.9-1.8-2.2-2-3.8h14.1
		C195.1,338.4,195.1,338.1,195.1,337.6z M181,336.2c0.2-1.6,0.8-2.9,1.9-3.8c1-0.9,2.4-1.4,3.9-1.4c1.6,0,2.9,0.5,3.9,1.4
		c1,0.9,1.5,2.2,1.6,3.8H181z M219.6,321.3V332c-0.7-1.2-1.5-2.1-2.7-2.7c-1.1-0.6-2.5-0.9-4-0.9c-1.7,0-3.1,0.4-4.4,1.1
		c-1.3,0.8-2.3,1.8-3,3.2s-1.1,2.9-1.1,4.7c0,1.8,0.4,3.4,1.1,4.7c0.7,1.4,1.7,2.5,3,3.2c1.3,0.8,2.8,1.2,4.5,1.2c1.5,0,2.8-0.3,4-1
		c1.1-0.6,2-1.5,2.7-2.7v3.5h3.1v-25v0H219.6z M218.8,340.7c-0.5,1-1.2,1.7-2.1,2.3c-0.9,0.5-1.9,0.8-3.1,0.8
		c-1.2,0-2.2-0.3-3.1-0.8c-0.9-0.5-1.6-1.3-2.1-2.3c-0.5-1-0.8-2.1-0.8-3.3s0.3-2.3,0.8-3.3c0.5-1,1.2-1.7,2.1-2.3
		c0.9-0.5,1.9-0.8,3.1-0.8s2.2,0.3,3.1,0.8c0.9,0.5,1.6,1.3,2.1,2.3c0.5,1,0.8,2.1,0.8,3.3C219.5,338.7,219.3,339.8,218.8,340.7z
		 M260.4,346.3l-5.5-8c1.7-0.6,2.9-1.5,3.8-2.8c0.9-1.3,1.3-2.9,1.3-4.8c0-2.5-0.8-4.5-2.4-5.9c-1.6-1.4-3.9-2.1-6.9-2.1h-9.2v23.5
		h3.2V339h6c0.3,0,0.8,0,1.3-0.1l4.7,7.4v0H260.4z M250.7,336L250.7,336l-6,0v-10.4h6c2,0,3.6,0.4,4.6,1.3c1.1,0.9,1.6,2.1,1.6,3.8
		c0,1.7-0.5,3-1.6,3.9C254.2,335.6,252.7,336,250.7,336z M287.7,337.6c0-2.9-0.7-5.2-2.1-6.8c-1.4-1.6-3.5-2.4-6.2-2.4
		c-1.7,0-3.3,0.4-4.6,1.2c-1.4,0.8-2.4,1.8-3.1,3.2s-1.1,2.9-1.1,4.7c0,1.7,0.4,3.3,1.1,4.7c0.7,1.4,1.8,2.4,3.2,3.2
		s2.9,1.1,4.7,1.1c1.5,0,2.9-0.3,4.1-0.8c1.2-0.5,2.3-1.2,3.2-2.2l-1.7-1.8c-0.7,0.7-1.5,1.2-2.4,1.6c-0.9,0.4-1.9,0.6-2.9,0.6
		c-1.6,0-2.9-0.5-4-1.4c-1.1-0.9-1.8-2.2-2-3.8h14.1C287.7,338.4,287.7,338.1,287.7,337.6z M273.6,336.2c0.2-1.6,0.8-2.9,1.9-3.8
		c1-0.9,2.4-1.4,3.9-1.4c1.6,0,2.9,0.5,3.9,1.4s1.5,2.2,1.6,3.8H273.6z M306,331.4c-0.9-0.3-1.7-0.4-2.5-0.4c-0.9,0-1.7,0.2-2.3,0.5
		s-0.9,0.9-0.9,1.6s0.3,1.3,1,1.6c0.6,0.4,1.6,0.7,2.9,1.1c1.2,0.4,2.2,0.7,3,1.1s1.4,0.9,2,1.6c0.6,0.7,0.8,1.6,0.8,2.8
		c0,1.7-0.6,3-1.9,3.8c-1.3,0.9-2.8,1.3-4.7,1.3c-1.3,0-2.6-0.2-3.8-0.6c-1.2-0.4-2.3-1-3.1-1.8l1.2-2.3c0.7,0.7,1.7,1.2,2.7,1.6
		c1.1,0.4,2.1,0.6,3.2,0.6c1,0,1.9-0.2,2.5-0.6c0.6-0.4,0.9-1,0.9-1.7c0-0.8-0.3-1.4-1-1.8c-0.7-0.4-1.7-0.8-3-1.2
		c-1.2-0.3-2.2-0.7-2.9-1c-0.7-0.3-1.4-0.9-1.9-1.5s-0.8-1.5-0.8-2.6c0-1.7,0.6-2.9,1.8-3.7c1.2-0.8,2.7-1.2,4.5-1.2
		c1.1,0,2.1,0.2,3.2,0.5c1,0.3,1.9,0.7,2.7,1.2l-1.1,2.4C307.7,332,306.9,331.6,306,331.4z M336.3,332.7c-0.8-1.4-1.9-2.4-3.2-3.2
		c-1.4-0.8-3-1.1-4.7-1.1c-1.8,0-3.4,0.4-4.8,1.1c-1.4,0.8-2.5,1.8-3.2,3.2c-0.8,1.4-1.2,2.9-1.2,4.7c0,1.8,0.4,3.3,1.2,4.7
		c0.8,1.4,1.9,2.4,3.2,3.2c1.4,0.8,3,1.1,4.8,1.1c1.8,0,3.4-0.4,4.7-1.1c1.4-0.8,2.5-1.8,3.2-3.2c0.8-1.4,1.2-2.9,1.2-4.7
		S337,334.1,336.3,332.7z M333.5,340.7c-0.5,1-1.2,1.7-2.1,2.2c-0.9,0.5-1.9,0.8-3.1,0.8c-1.2,0-2.2-0.3-3.1-0.8
		c-0.9-0.5-1.6-1.3-2.1-2.2s-0.8-2.1-0.8-3.3c0-1.2,0.3-2.3,0.8-3.2c0.5-1,1.2-1.7,2.1-2.2c0.9-0.5,1.9-0.8,3.1-0.8
		c1.1,0,2.2,0.3,3.1,0.8c0.9,0.5,1.6,1.3,2.1,2.2c0.5,1,0.8,2,0.8,3.2C334.3,338.7,334,339.8,333.5,340.7z M364.3,328.5v17.8h-3.2
		v-3.8c-1.2,2.5-3.4,3.8-6.6,3.9c-2.1,0-3.7-0.6-4.8-1.8c-1.2-1.2-1.7-2.9-1.7-5.1v-11h3.2v10.2c0,1.5,0.4,2.7,1.2,3.5
		c0.8,0.8,1.9,1.3,3.4,1.3c1.7,0,3-0.6,4-1.8c1-1.2,1.5-2.6,1.5-4.4v-8.7L364.3,328.5L364.3,328.5z M382.7,329.4
		c1.1-0.7,2.4-1,3.8-1v3c-1.8-0.1-3.3,0.4-4.4,1.4c-1.1,1-1.8,2.4-1.9,4.1v9.4h-3.1v-17.8h3.1v3.8
		C380.8,331.1,381.6,330.1,382.7,329.4z M404.1,331.2c-1.2,0-2.2,0.3-3.1,0.8c-0.9,0.5-1.6,1.2-2.1,2.2c-0.5,0.9-0.8,2-0.8,3.3
		s0.3,2.3,0.8,3.3c0.5,0.9,1.2,1.7,2.1,2.2c0.9,0.5,1.9,0.8,3,0.8s2.2-0.2,3.1-0.6c0.9-0.4,1.7-0.9,2.3-1.7l1.8,1.8
		c-0.8,1-1.8,1.8-3.1,2.3c-1.2,0.5-2.7,0.8-4.2,0.8c-1.7,0-3.3-0.4-4.6-1.1c-1.4-0.8-2.4-1.8-3.1-3.2c-0.7-1.4-1.1-2.9-1.1-4.7
		c0-1.7,0.4-3.3,1.1-4.7c0.7-1.4,1.8-2.4,3.1-3.2c1.3-0.8,2.9-1.1,4.6-1.1c1.5,0,2.8,0.2,4.1,0.7c1.2,0.5,2.2,1.1,3,2l-1.7,2.1
		C407.7,331.9,406,331.2,404.1,331.2z M437,337.6c0-2.9-0.7-5.2-2.1-6.8c-1.4-1.6-3.5-2.4-6.2-2.4c-1.7,0-3.3,0.4-4.6,1.2
		c-1.4,0.8-2.4,1.8-3.1,3.2c-0.7,1.4-1.1,2.9-1.1,4.7c0,1.7,0.4,3.3,1.1,4.7c0.7,1.4,1.8,2.4,3.2,3.2c1.4,0.7,2.9,1.1,4.7,1.1
		c1.5,0,2.9-0.3,4.1-0.8c1.2-0.5,2.3-1.2,3.2-2.2l-1.7-1.8c-0.7,0.7-1.5,1.2-2.4,1.6c-0.9,0.4-1.9,0.6-2.9,0.6c-1.6,0-2.9-0.5-4-1.4
		c-1.1-0.9-1.8-2.2-2-3.8H437C437,338.4,437,338.1,437,337.6z M422.9,336.2c0.2-1.6,0.8-2.9,1.9-3.8c1-0.9,2.4-1.4,3.9-1.4
		c1.6,0,2.9,0.5,3.9,1.4s1.5,2.2,1.6,3.8H422.9z"/>
</g>
<g id="_x3C_binaryRing_x3E_">
	<path class="st0" d="M72.2,93.8c1.1,1.5,2.3,2.8,3.6,4c1.2,1.2,2.6,2.3,4.1,3.4c1.5,1.1,3.1,1.9,4.8,2.5c1.1,0.4,2.3,0.6,3.4,0.6
		c0.5,0,1.1,0,1.6-0.1c1.7-0.3,3.3-1.2,4.8-2.7c1.5-1.5,2.3-3.2,2.5-4.9c0.2-1.7,0-3.4-0.7-5c-0.6-1.6-1.5-3.2-2.7-4.7
		c-1.1-1.5-2.4-2.8-3.6-4c-1.2-1.2-2.6-2.3-4.1-3.4c-1.5-1.1-3.1-1.9-4.8-2.5c-1.7-0.6-3.4-0.7-5-0.5c-1.7,0.3-3.3,1.2-4.8,2.7
		c-1.5,1.5-2.3,3.2-2.5,4.9c-0.2,1.7,0,3.4,0.7,5C70.1,90.8,71,92.3,72.2,93.8z M76.3,84.1c0.3-0.4,0.8-0.5,1.3-0.4
		c0.7,0.1,1.4,0.4,2.2,0.9c0.8,0.5,1.6,1.1,2.5,1.8c0.8,0.7,1.6,1.4,2.4,2.1c0.7,0.7,1.4,1.4,2.2,2.2c0.7,0.8,1.4,1.6,1.9,2.4
		c0.5,0.8,0.8,1.5,1,2.2c0.1,0.6,0,1-0.3,1.3c-0.3,0.4-0.8,0.5-1.3,0.4c-0.7-0.1-1.4-0.4-2.2-0.9c-0.8-0.5-1.7-1.1-2.5-1.8
		c-0.9-0.7-1.6-1.4-2.3-2.1c-0.7-0.7-1.5-1.4-2.2-2.3c-0.7-0.8-1.4-1.6-1.9-2.4c-0.5-0.8-0.8-1.5-1-2.1C75.9,84.8,76,84.4,76.3,84.1
		z"/>
	<polygon class="st0" points="80.9,115.9 81.3,105.1 74.4,104.1 74.3,109.2 57.5,95.9 52.7,101.9 76.8,121 	"/>
	<path class="st0" d="M41.8,126.6c0.9,1.5,2.1,2.8,3.5,4.1c1.4,1.2,2.8,2.3,4.2,3.2c1.4,0.9,3,1.8,4.7,2.6c1.7,0.8,3.4,1.3,5.1,1.5
		c0.5,0.1,1,0.1,1.6,0.1c1.2,0,2.4-0.2,3.5-0.6c1.6-0.6,3-1.8,4.2-3.5c1.2-1.8,1.7-3.6,1.6-5.3c-0.1-1.7-0.7-3.3-1.6-4.8
		c-0.9-1.5-2.1-2.8-3.5-4.1c-1.4-1.2-2.8-2.3-4.2-3.2c-1.4-0.9-3-1.8-4.7-2.6c-1.7-0.8-3.4-1.3-5.1-1.6c-1.7-0.2-3.4-0.1-5,0.5
		c-1.6,0.6-3,1.8-4.2,3.5c-1.2,1.8-1.7,3.6-1.6,5.3C40.3,123.5,40.8,125.1,41.8,126.6z M62.7,130.2c-0.3,0.4-0.7,0.6-1.2,0.6
		c-0.7,0-1.5-0.2-2.3-0.5c-0.9-0.3-1.8-0.8-2.8-1.3c-1-0.5-1.9-1.1-2.7-1.6c-0.8-0.5-1.7-1.2-2.6-1.8c-0.9-0.6-1.6-1.3-2.3-2
		c-0.6-0.7-1.1-1.3-1.4-1.9c-0.2-0.5-0.2-1,0-1.4s0.7-0.6,1.2-0.6c0.7,0,1.5,0.2,2.3,0.5c0.9,0.3,1.8,0.7,2.7,1.3
		c1,0.5,1.9,1.1,2.7,1.6c0.8,0.5,1.7,1.1,2.6,1.8c0.9,0.6,1.6,1.3,2.3,2c0.6,0.7,1.1,1.3,1.4,1.9C63,129.4,63,129.8,62.7,130.2z"/>
	<path class="st0" d="M30.6,147.1c1,1.4,2.3,2.6,3.9,3.7c1.5,1.1,3,2,4.5,2.8c1.5,0.8,3.1,1.5,4.9,2.1c1.8,0.6,3.5,1,5.3,1.1
		c0.2,0,0.4,0,0.5,0c1.6,0,3.1-0.3,4.4-1c1.6-0.7,2.9-2,3.8-3.9c1-1.9,1.3-3.7,1.1-5.4c-0.3-1.7-1-3.2-2-4.6c-1-1.4-2.3-2.6-3.9-3.7
		c-1.5-1.1-3-2-4.5-2.8c-1.5-0.8-3.1-1.5-4.9-2.1c-1.8-0.6-3.5-1-5.3-1.1c-1.7-0.1-3.4,0.2-5,0.9c-1.6,0.7-2.8,2-3.8,3.9
		s-1.3,3.7-1.1,5.4C28.9,144.2,29.5,145.7,30.6,147.1z M51.8,148.8c-0.2,0.4-0.6,0.7-1.2,0.7c-0.7,0.1-1.5,0-2.4-0.3
		c-0.9-0.2-1.9-0.6-2.9-1c-1-0.5-2-0.9-2.8-1.4c-0.9-0.5-1.8-1-2.7-1.6c-0.9-0.6-1.8-1.2-2.5-1.8c-0.7-0.6-1.2-1.2-1.5-1.8
		c-0.3-0.5-0.3-0.9-0.1-1.4c0.2-0.4,0.6-0.7,1.2-0.7c0.1,0,0.3,0,0.4,0c0.6,0,1.2,0.1,2,0.3c0.9,0.2,1.9,0.6,2.9,1
		c1,0.4,2,0.9,2.8,1.4c0.9,0.5,1.8,1,2.7,1.5c0.9,0.6,1.8,1.2,2.5,1.8c0.7,0.6,1.2,1.2,1.6,1.8C52,147.9,52.1,148.3,51.8,148.8z"/>
	<polygon class="st3" points="48.9,169.7 46.4,159.2 39.4,160.1 40.7,165.1 20.9,157 18,164 46.5,175.7 	"/>
	<path class="st3" d="M14.3,190.8c1.3,1.2,2.8,2.2,4.5,3c1.7,0.8,3.4,1.4,5,1.9c1.6,0.5,3.4,0.9,5.2,1.2c1,0.2,2,0.2,2.9,0.2
		c0.8,0,1.6-0.1,2.4-0.2c1.7-0.2,3.3-0.9,4.7-1.9c1.4-1,2.4-2.5,3-4.6c0.6-2,0.6-3.9,0-5.5c-0.6-1.6-1.5-3-2.9-4.2
		c-1.3-1.2-2.8-2.1-4.5-2.9c-1.7-0.8-3.4-1.4-5-1.9c-1.6-0.5-3.4-0.9-5.2-1.2c-1.9-0.3-3.7-0.3-5.4-0.1c-1.7,0.2-3.3,0.9-4.7,1.9
		c-1.4,1-2.4,2.5-3,4.6c-0.6,2-0.6,3.9,0,5.5C12,188.2,13,189.6,14.3,190.8z M18.1,183.2c0.1-0.5,0.5-0.8,1-0.9
		c0.5-0.1,1.1-0.2,1.7-0.2c0.2,0,0.4,0,0.6,0c0.9,0.1,1.9,0.2,3,0.5c1.1,0.3,2.1,0.5,3.1,0.8c0.9,0.3,1.9,0.6,3,1
		c1,0.4,2,0.8,2.8,1.3c0.8,0.5,1.4,1,1.9,1.5c0.4,0.4,0.5,0.9,0.3,1.3c-0.1,0.5-0.5,0.8-1,0.9c-0.7,0.2-1.5,0.2-2.4,0.2
		c-0.9-0.1-2-0.2-3-0.5c-1.1-0.3-2.1-0.5-3-0.8h0c-0.9-0.3-1.9-0.6-3-1c-1-0.4-1.9-0.8-2.7-1.3c-0.8-0.5-1.4-1-1.9-1.5
		C18.1,184.1,18,183.7,18.1,183.2z"/>
	<path class="st3" d="M9.3,213.6c1.4,1,3,1.9,4.7,2.5c1.7,0.6,3.5,1.1,5.1,1.5c1.7,0.3,3.4,0.6,5.3,0.7c0.4,0,0.8,0,1.2,0
		c1.5,0,2.9-0.2,4.2-0.5c1.7-0.4,3.2-1.2,4.5-2.3c1.3-1.1,2.2-2.8,2.6-4.8s0.3-3.9-0.5-5.5c-0.7-1.5-1.8-2.8-3.2-3.9
		c-1.4-1-3-1.9-4.8-2.5c-1.7-0.6-3.5-1.1-5.1-1.4c-1.7-0.3-3.4-0.6-5.3-0.7c-1.9-0.1-3.7,0-5.4,0.4c-1.7,0.4-3.2,1.2-4.5,2.3
		c-1.3,1.1-2.2,2.8-2.6,4.8c-0.4,2.1-0.3,3.9,0.5,5.5C6.8,211.3,7.9,212.6,9.3,213.6z M12.4,205.7c0.1-0.5,0.4-0.8,0.9-1
		c0.6-0.2,1.4-0.4,2.3-0.4c0.2,0,0.3,0,0.5,0c0.8,0,1.7,0.1,2.5,0.2c1.1,0.2,2.1,0.3,3.1,0.5c1,0.2,2,0.4,3,0.7c1.1,0.3,2,0.6,2.9,1
		c0.8,0.4,1.5,0.8,2,1.3c0.4,0.4,0.6,0.8,0.5,1.3c-0.1,0.5-0.4,0.8-0.9,1c-0.6,0.2-1.4,0.4-2.4,0.4c-1,0-2,0-3-0.2
		c-1.1-0.2-2.1-0.3-3.1-0.5c-1-0.2-2-0.4-3.1-0.7c-1.1-0.3-2-0.6-2.9-1c-0.8-0.4-1.5-0.8-2-1.3C12.4,206.6,12.3,206.2,12.4,205.7z"
		/>
	<path class="st4" d="M6.5,236.8c1.5,0.9,3.1,1.6,5,2.1c1.8,0.5,3.6,0.8,5.2,1c1.2,0.1,2.5,0.2,3.9,0.2c0.5,0,1,0,1.5,0
		c1.9-0.1,3.7-0.4,5.3-0.9c1.7-0.6,3.1-1.5,4.3-2.7c1.2-1.2,1.9-2.9,2.1-5.1c0.2-2.1-0.1-3.9-1-5.4c-0.9-1.4-2.1-2.6-3.6-3.6
		c-1.5-0.9-3.1-1.6-5-2.1c-1.8-0.5-3.6-0.8-5.2-1c-1.7-0.2-3.5-0.2-5.3-0.2c-1.9,0.1-3.7,0.4-5.3,0.9c-1.7,0.6-3.1,1.5-4.3,2.7
		c-1.2,1.2-1.9,2.9-2.1,5.1c-0.2,2.1,0.1,3.9,1,5.4C3.8,234.7,5,235.9,6.5,236.8z M8.8,228.6c0.1-0.5,0.3-0.8,0.8-1.1
		c0.6-0.3,1.4-0.5,2.3-0.6c0.9-0.1,1.9-0.2,3-0.1c1.1,0.1,2.2,0.1,3.2,0.2c1,0.1,2,0.3,3.1,0.4c1.1,0.2,2.1,0.4,3,0.8
		c0.9,0.3,1.6,0.7,2.1,1.1c0.4,0.4,0.6,0.8,0.6,1.2c-0.1,0.5-0.3,0.8-0.8,1.1c-0.6,0.3-1.4,0.5-2.3,0.6c-0.9,0.1-2,0.1-3.1,0.1
		c-1.1-0.1-2.2-0.1-3.1-0.2c-1-0.1-2-0.3-3.1-0.4c-1.1-0.2-2.1-0.4-2.9-0.8c-0.9-0.3-1.6-0.7-2.1-1.1C8.9,229.5,8.7,229.1,8.8,228.6
		z"/>
	<path class="st4" d="M6.1,268.8c1.6,0.7,3.3,1.2,5.2,1.4c1.6,0.2,3.2,0.3,4.8,0.3c0.2,0,0.4,0,0.6,0c1.7,0,3.5-0.2,5.3-0.5
		c1.9-0.3,3.6-0.8,5.1-1.6c1.6-0.8,2.9-1.9,3.9-3.2c1-1.4,1.5-3.2,1.5-5.3c0-2.1-0.6-3.9-1.7-5.2c-1-1.3-2.4-2.4-4-3.1
		c-1.6-0.7-3.3-1.2-5.2-1.4c-1.8-0.2-3.6-0.3-5.3-0.3c-1.7,0-3.5,0.2-5.3,0.5c-1.9,0.3-3.6,0.8-5.1,1.6c-1.6,0.8-2.9,1.9-3.9,3.2
		c-1,1.4-1.5,3.2-1.5,5.3c0,2.1,0.6,3.9,1.7,5.2C3.1,267.1,4.5,268.1,6.1,268.8z M17.1,257.7c0.7,0,1.5,0,2.3,0.1
		c1.1,0,2.1,0.2,3,0.4c0.9,0.2,1.7,0.5,2.2,0.8c0.5,0.3,0.7,0.7,0.7,1.2c0,0.5-0.2,0.9-0.7,1.2c-0.6,0.4-1.3,0.7-2.2,0.9
		c-0.9,0.2-1.9,0.4-3,0.5c-1.1,0.1-2.1,0.1-3.1,0.2c-1,0-2,0-3.2,0c-1.1,0-2.1-0.2-3-0.4c-0.9-0.2-1.6-0.5-2.2-0.8
		c-0.5-0.3-0.7-0.7-0.7-1.2c0-0.5,0.2-0.9,0.7-1.2c0.6-0.4,1.3-0.7,2.2-0.9c0.9-0.2,1.9-0.4,3-0.5c1.1-0.1,2.2-0.1,3.2-0.2
		C16.6,257.7,16.9,257.7,17.1,257.7z"/>
	<polygon class="st4" points="33,279.7 25.7,271.8 20.1,275.9 23.6,279.7 2.3,282 3.1,289.6 33.7,286.2 	"/>
	<polygon class="st5" points="36.1,300.4 28.2,293.2 22.9,297.8 26.8,301.2 5.8,305.5 7.3,313 37.4,306.8 	"/>
	<polygon class="st5" points="41.2,320.7 32.6,314.2 27.8,319.3 32,322.4 11.5,328.6 13.7,335.9 43.1,326.9 	"/>
	<path class="st5" d="M38.3,356.8c1.6-0.6,3.2-1.5,4.8-2.4c1.6-1,3-2.1,4.2-3.4c1.2-1.3,2-2.8,2.4-4.4c0.4-1.7,0.3-3.5-0.5-5.5
		c-0.8-2-2-3.4-3.5-4.3c-1.5-0.8-3.1-1.3-4.8-1.4c-1.7-0.1-3.5,0.1-5.3,0.6c-1.8,0.5-3.5,1-5.1,1.7c-1.6,0.6-3.2,1.4-4.8,2.4
		c-1.6,1-3,2.1-4.2,3.4c-1.2,1.3-2,2.8-2.4,4.4c-0.4,1.7-0.3,3.5,0.5,5.5c0.8,2,2,3.4,3.5,4.3c1.5,0.8,3.1,1.3,4.8,1.4
		c0.3,0,0.5,0,0.8,0c1.5,0,3-0.2,4.6-0.6C35,358,36.7,357.4,38.3,356.8z M40.8,346.8c-0.8,0.6-1.7,1.1-2.6,1.6c-1,0.5-2,0.9-2.8,1.3
		c-0.9,0.4-1.9,0.7-3,1.1c-1,0.4-2,0.6-2.9,0.7c-0.9,0.1-1.7,0.2-2.4,0c-0.6-0.1-0.9-0.4-1.1-0.8c-0.2-0.5-0.1-0.9,0.2-1.4
		c0.4-0.6,1-1.1,1.7-1.6c0.8-0.5,1.6-1.1,2.6-1.5c1-0.5,2-0.9,2.9-1.3c0.9-0.4,1.9-0.7,2.9-1.1c1-0.4,2-0.6,3-0.8
		c0.5-0.1,1-0.1,1.4-0.1c0.3,0,0.7,0,1,0.1c0.6,0.1,0.9,0.4,1.1,0.8c0.2,0.5,0.1,0.9-0.2,1.4C42.1,345.7,41.5,346.2,40.8,346.8z"/>
	<polygon class="st6" points="56.9,359.4 47.3,354.6 43.5,360.6 48.2,362.8 29.2,372.7 32.8,379.5 60,365.2 	"/>
	<path class="st6" d="M60.8,395.4c1.4-0.9,2.8-2,4.2-3.2c1.4-1.2,2.6-2.6,3.5-4.1c0.9-1.5,1.5-3.1,1.6-4.8c0.1-1.7-0.4-3.5-1.6-5.3
		c-1.2-1.8-2.6-3-4.2-3.5c-1.6-0.6-3.3-0.7-5-0.5c-1.7,0.2-3.4,0.8-5.1,1.6c-1.7,0.8-3.2,1.7-4.7,2.6c-1.4,0.9-2.8,2-4.2,3.2
		c-1.4,1.2-2.6,2.6-3.5,4.1c-0.9,1.5-1.5,3.1-1.6,4.8c-0.1,1.7,0.4,3.5,1.6,5.3c1.2,1.8,2.6,3,4.2,3.5c1.1,0.4,2.3,0.6,3.5,0.6
		c0.5,0,1,0,1.6-0.1c1.7-0.2,3.4-0.8,5.2-1.5C57.8,397.2,59.4,396.3,60.8,395.4z M47.6,391.7c-0.3-0.4-0.3-0.9,0-1.4
		c0.3-0.6,0.7-1.3,1.4-1.9c0.6-0.7,1.4-1.3,2.3-2c0.9-0.7,1.8-1.3,2.6-1.8c0.8-0.5,1.7-1.1,2.7-1.6c0.9-0.5,1.9-1,2.8-1.3
		c0.9-0.3,1.7-0.5,2.3-0.5c0,0,0,0,0,0c0.5,0,0.9,0.2,1.2,0.6c0.3,0.4,0.3,0.9,0,1.4c-0.3,0.6-0.8,1.3-1.4,1.9
		c-0.7,0.7-1.4,1.4-2.3,2c-0.9,0.7-1.8,1.3-2.6,1.8c-0.8,0.5-1.7,1.1-2.7,1.6c-1,0.5-1.9,1-2.7,1.3c-0.9,0.3-1.6,0.5-2.3,0.5
		C48.2,392.3,47.8,392.1,47.6,391.7z"/>
	<polygon class="st6" points="79.6,394.5 69.2,391.6 66.6,398.1 71.6,399.4 54.8,412.8 59.6,418.7 83.6,399.6 	"/>
	<path class="st7" d="M99.7,430.9c1.1-1.5,1.9-3.1,2.5-4.8c0.6-1.7,0.7-3.3,0.5-5c-0.2-1.7-1.1-3.3-2.7-4.8
		c-1.5-1.5-3.2-2.3-4.9-2.5c-1.7-0.2-3.4,0-5,0.6c-1.6,0.6-3.2,1.5-4.7,2.7c-1.5,1.1-2.8,2.3-4,3.5c-1.2,1.2-2.3,2.6-3.4,4.1
		c-1.1,1.5-2,3.1-2.5,4.7c-0.6,1.7-0.7,3.4-0.5,5c0.2,1.7,1.1,3.3,2.7,4.8c1.5,1.5,3.2,2.3,4.9,2.5c0.4,0,0.8,0.1,1.2,0.1
		c1.3,0,2.5-0.2,3.8-0.7c1.6-0.6,3.2-1.5,4.7-2.6c1.5-1.1,2.8-2.3,4-3.5C97.5,433.7,98.6,432.4,99.7,430.9z M95.6,422.6
		c-0.1,0.7-0.5,1.4-0.9,2.2c-0.5,0.8-1.1,1.6-1.8,2.5c-0.7,0.9-1.4,1.6-2.1,2.3c-0.7,0.7-1.4,1.4-2.3,2.2c-0.8,0.7-1.6,1.4-2.4,1.9
		c-0.8,0.5-1.5,0.8-2.2,1c-0.6,0.1-1,0-1.3-0.3c-0.4-0.3-0.5-0.8-0.3-1.3c0.1-0.7,0.5-1.4,0.9-2.2c0.5-0.8,1.1-1.6,1.8-2.5
		c0.7-0.8,1.4-1.6,2.1-2.3c0.7-0.7,1.4-1.4,2.2-2.2c0.8-0.7,1.6-1.4,2.4-1.9c0.8-0.5,1.5-0.8,2.2-1c0.2,0,0.3-0.1,0.4-0.1
		c0.3,0,0.6,0.1,0.9,0.4C95.6,421.6,95.7,422,95.6,422.6z"/>
	<polygon class="st7" points="114.4,429.9 103.7,429.4 102.6,436.3 107.8,436.5 94.3,453.2 100.2,458 119.5,434.1 	"/>
	<polygon class="st7" points="131.2,442.4 120.5,442.9 120.1,449.9 125.2,449.6 113.4,467.4 119.7,471.6 136.7,446 	"/>
	<path class="st8" d="M154.3,457.1c-0.7-1.6-2-2.9-3.9-3.9c-1.9-1-3.7-1.4-5.4-1.1c-1.7,0.3-3.2,0.9-4.6,2c-1.4,1-2.7,2.3-3.8,3.8
		c-1.1,1.5-2.1,3-2.9,4.5c-0.8,1.5-1.5,3.1-2.2,4.9c-0.7,1.8-1,3.5-1.1,5.3c-0.1,1.8,0.2,3.4,0.9,5c0.7,1.6,2,2.9,3.9,3.9
		c1.5,0.8,2.9,1.2,4.3,1.2c0.4,0,0.7,0,1.1-0.1c1.7-0.3,3.2-0.9,4.6-2c1.4-1,2.7-2.3,3.8-3.8c1.1-1.5,2.1-3,2.9-4.5
		c0.8-1.5,1.5-3.1,2.2-4.9c0.6-1.8,1-3.5,1.1-5.3C155.3,460.3,155,458.6,154.3,457.1z M147.8,460.5c0,0.7-0.1,1.5-0.3,2.4
		c-0.2,0.9-0.6,1.9-1.1,2.9c-0.5,1-0.9,1.9-1.4,2.8c-0.5,0.9-1,1.8-1.6,2.7c-0.6,0.9-1.2,1.7-1.8,2.4c-0.6,0.7-1.2,1.2-1.8,1.5
		c-0.5,0.3-0.9,0.3-1.4,0.1c-0.4-0.2-0.7-0.6-0.7-1.2c0-0.7,0-1.5,0.3-2.4c0.2-0.9,0.6-1.9,1-2.8c0.5-1,0.9-2,1.4-2.8
		c0.5-0.9,1-1.8,1.6-2.7c0.6-0.9,1.2-1.8,1.8-2.5c0.6-0.7,1.2-1.2,1.8-1.5c0.3-0.2,0.5-0.2,0.8-0.2c0.2,0,0.4,0.1,0.6,0.2
		C147.6,459.5,147.8,459.9,147.8,460.5z"/>
	<polygon class="st8" points="157.5,464.8 158.4,471.8 163.4,470.5 155,490.2 162.1,493.2 174,464.9 167.9,462.3 	"/>
	<polygon class="st8" points="177.4,473.1 178.9,479.9 183.7,478.2 177.3,498.6 184.6,500.9 193.8,471.6 187.5,469.6 	"/>
	<polygon class="st9" points="197.9,479.4 200.1,486.1 204.7,484 200.3,504.9 207.7,506.5 214.1,476.4 207.7,475.1 	"/>
	<path class="st9" d="M234.5,480.3c-1.2-1.2-2.9-1.9-5-2.2c-2.1-0.2-3.9,0.1-5.4,0.9c-1.4,0.9-2.7,2.1-3.6,3.5
		c-0.9,1.5-1.6,3.1-2.1,5c-0.5,1.8-0.8,3.6-1,5.2c-0.2,1.7-0.3,3.5-0.2,5.3c0,1.9,0.3,3.7,0.9,5.3c0.6,1.7,1.5,3.1,2.7,4.3
		c1.2,1.2,2.9,1.9,5,2.2c0.5,0.1,0.9,0.1,1.3,0.1c1.5,0,2.9-0.3,4.1-1c1.4-0.9,2.7-2.1,3.6-3.5c0.9-1.5,1.6-3.1,2.1-4.9
		c0.5-1.8,0.8-3.5,1-5.2c0.2-1.7,0.3-3.5,0.2-5.3c-0.1-1.9-0.4-3.7-0.9-5.3C236.6,482.9,235.7,481.4,234.5,480.3z M230.4,491.2
		c-0.1,1.1-0.2,2.2-0.3,3.1h0c-0.1,1-0.3,2-0.5,3.1c-0.2,1.1-0.5,2.1-0.8,2.9c-0.3,0.9-0.7,1.6-1.1,2.1c-0.4,0.4-0.8,0.6-1.3,0.6
		c-0.5-0.1-0.8-0.3-1.1-0.8c-0.3-0.6-0.5-1.4-0.6-2.3c-0.1-0.9-0.1-1.9-0.1-3c0.1-1.1,0.1-2.2,0.3-3.2c0.1-1,0.3-2,0.5-3.1
		c0.2-1.1,0.5-2.1,0.8-3c0.3-0.9,0.7-1.6,1.1-2.1c0.3-0.4,0.7-0.6,1.1-0.6c0.1,0,0.1,0,0.2,0c0.5,0.1,0.8,0.3,1.1,0.8
		c0.3,0.6,0.5,1.4,0.6,2.3C230.5,489,230.5,490.1,230.4,491.2z"/>
	<path class="st9" d="M266.7,485c-0.8-1.6-1.9-2.9-3.2-3.9c-1.4-1-3.2-1.5-5.3-1.5c-2.1,0-3.9,0.6-5.2,1.7c-1.3,1-2.4,2.4-3.1,4
		c-0.7,1.6-1.2,3.3-1.4,5.2c-0.2,1.8-0.3,3.6-0.3,5.3c0,1.7,0.2,3.5,0.5,5.3c0.3,1.9,0.8,3.6,1.6,5.1c0.8,1.6,1.9,2.9,3.2,3.9
		c1.3,1,3,1.5,5.1,1.5c0.1,0,0.1,0,0.2,0c2.1,0,3.9-0.6,5.2-1.7c1.3-1,2.4-2.4,3.1-4c0.7-1.6,1.2-3.3,1.4-5.2
		c0.2-1.8,0.3-3.6,0.3-5.3c0-1.7-0.2-3.5-0.5-5.3C268,488.3,267.4,486.6,266.7,485z M257.4,504c-0.4-0.6-0.7-1.3-0.9-2.2
		c-0.2-0.9-0.4-1.9-0.5-3c-0.1-1.1-0.1-2.2-0.2-3.2c0-1,0-2,0.1-3.1c0.1-1.1,0.2-2.1,0.4-3c0.2-0.9,0.5-1.7,0.8-2.2
		c0.3-0.5,0.7-0.7,1.2-0.7c0,0,0,0,0,0c0.5,0,0.9,0.2,1.2,0.7c0.4,0.6,0.7,1.3,0.9,2.2c0.2,0.9,0.4,1.9,0.5,3
		c0.1,1.1,0.1,2.1,0.2,3.1c0,1,0,2.1-0.1,3.2c-0.1,1.1-0.2,2.1-0.4,3c-0.2,0.9-0.5,1.6-0.8,2.2c-0.3,0.5-0.7,0.7-1.2,0.7
		C258.1,504.7,257.7,504.5,257.4,504z"/>
	<polygon class="st10" points="278.1,479.2 270.1,486.4 274.2,492.1 278,488.6 280.1,509.9 287.7,509.1 284.6,478.5 	"/>
	<polygon class="st10" points="298.8,476.2 291.5,484.1 296.1,489.4 299.5,485.5 303.7,506.6 311.2,505.1 305.2,474.9 	"/>
	<polygon class="st10" points="319.1,471.3 312.6,479.8 317.7,484.7 320.7,480.5 326.8,501 334.1,498.9 325.4,469.4 	"/>
	<path class="st11" d="M355.2,474.5L355.2,474.5c-0.6-1.6-1.4-3.2-2.4-4.8c-1-1.6-2.1-3-3.3-4.2c-1.3-1.2-2.8-2-4.4-2.5
		c-1.7-0.5-3.5-0.3-5.5,0.5c-2,0.8-3.4,1.9-4.3,3.4c-0.9,1.5-1.3,3.1-1.4,4.8c-0.1,1.7,0.1,3.5,0.5,5.3c0.4,1.8,1,3.5,1.6,5.1
		c0.6,1.6,1.4,3.2,2.3,4.8c0.9,1.6,2.1,3.1,3.3,4.2c1.3,1.2,2.8,2,4.4,2.5c0.6,0.2,1.2,0.3,1.9,0.3c1.1,0,2.3-0.3,3.6-0.8
		c2-0.8,3.4-1.9,4.3-3.4c0.9-1.5,1.3-3.1,1.4-4.8c0.1-1.7-0.1-3.5-0.5-5.4C356.4,477.7,355.8,476,355.2,474.5z M341.4,471
		c0.1-0.6,0.4-0.9,0.8-1.1c0.2-0.1,0.3-0.1,0.5-0.1c0.3,0,0.6,0.1,0.9,0.3c0.6,0.4,1.1,1,1.6,1.7c0.5,0.8,1.1,1.7,1.5,2.6
		c0.5,1,0.9,2,1.3,2.9c0.4,0.9,0.7,1.9,1.1,3c0.3,1,0.6,2,0.7,2.9c0.1,0.9,0.1,1.7,0,2.4c-0.1,0.6-0.4,0.9-0.8,1.1
		c-0.5,0.2-0.9,0.1-1.4-0.2c-0.6-0.4-1.1-1-1.6-1.7c-0.5-0.8-1.1-1.6-1.5-2.6c-0.5-1-0.9-2-1.3-2.9c-0.4-0.9-0.7-1.9-1.1-2.9
		c-0.3-1-0.6-2-0.7-3C341.3,472.5,341.3,471.7,341.4,471z"/>
	<polygon class="st11" points="357.9,455.9 353.1,465.5 359,469.3 361.2,464.6 371.1,483.6 377.8,480.1 363.7,452.8 	"/>
	<path class="st11" d="M396.5,456.9c-0.8-1.7-1.6-3.3-2.5-4.7v0c-0.9-1.4-2-2.9-3.2-4.3c-1.2-1.4-2.6-2.6-4.1-3.5
		c-1.5-0.9-3.1-1.5-4.8-1.6c-1.7-0.1-3.5,0.4-5.3,1.5c-1.8,1.1-3,2.5-3.6,4.2c-0.6,1.6-0.7,3.3-0.5,5c0.2,1.7,0.7,3.4,1.5,5.2
		c0.8,1.7,1.6,3.3,2.5,4.7c0.9,1.4,2,2.9,3.2,4.3c1.2,1.4,2.6,2.6,4,3.5c1.5,0.9,3.1,1.5,4.8,1.6c0.2,0,0.4,0,0.6,0
		c1.5,0,3.1-0.5,4.7-1.5c1.8-1.1,3-2.5,3.6-4.2c0.6-1.6,0.7-3.3,0.5-5C397.8,460.4,397.3,458.6,396.5,456.9z M390.8,464.2
		c0,0.6-0.2,1-0.6,1.2c-0.4,0.3-0.9,0.3-1.4,0c-0.6-0.3-1.3-0.8-1.9-1.4c-0.7-0.6-1.3-1.4-2-2.3c-0.7-0.9-1.3-1.8-1.8-2.6
		c-0.5-0.8-1.1-1.7-1.6-2.7c-0.5-0.9-1-1.9-1.3-2.8c-0.3-0.9-0.5-1.7-0.5-2.3c0-0.6,0.2-1,0.6-1.2c0.2-0.1,0.4-0.2,0.7-0.2
		c0.2,0,0.4,0.1,0.7,0.2c0.6,0.3,1.3,0.8,1.9,1.4c0.7,0.7,1.3,1.4,2,2.3c0.7,0.9,1.3,1.8,1.8,2.6c0.5,0.8,1.1,1.7,1.6,2.7
		c0.5,0.9,1,1.9,1.3,2.8C390.6,462.8,390.8,463.5,390.8,464.2z"/>
	<path class="st12" d="M414.6,443c-0.9-1.6-1.9-3.1-3-4.4c-1-1.3-2.3-2.7-3.6-3.9c-1.4-1.3-2.8-2.3-4.4-3.1
		c-1.6-0.8-3.2-1.2-4.9-1.2c-1.7,0-3.4,0.7-5.1,2s-2.7,2.8-3.2,4.5c-0.4,1.6-0.4,3.3,0,5c0.4,1.7,1.1,3.4,2,5c0.9,1.6,1.9,3.1,3,4.4
		c1,1.3,2.2,2.7,3.6,4c1.4,1.3,2.8,2.4,4.4,3.1c1.5,0.8,3.2,1.2,4.8,1.2c0,0,0.1,0,0.1,0c1.7,0,3.4-0.7,5.1-2s2.7-2.8,3.2-4.5
		c0.4-1.6,0.4-3.3,0-5C416.2,446.3,415.5,444.6,414.6,443z M403.5,440.9c0.7,0.8,1.4,1.6,2,2.4c0.6,0.8,1.2,1.6,1.9,2.6
		c0.6,0.9,1.1,1.8,1.5,2.6c0.4,0.8,0.6,1.6,0.7,2.3c0.1,0.6-0.1,1-0.5,1.3c-0.4,0.3-0.8,0.4-1.4,0.2c-0.6-0.2-1.3-0.6-2-1.2
		c-0.7-0.6-1.5-1.3-2.2-2.1c-0.7-0.8-1.4-1.6-2-2.4c-0.6-0.8-1.2-1.6-1.8-2.5c-0.6-0.9-1.1-1.8-1.5-2.6c-0.4-0.8-0.6-1.6-0.7-2.3
		c-0.1-0.6,0.1-1,0.5-1.3c0.2-0.2,0.5-0.3,0.8-0.3c0.2,0,0.4,0,0.6,0.1c0.6,0.2,1.3,0.6,2.1,1.2
		C402.1,439.4,402.8,440.1,403.5,440.9z"/>
	<path class="st12" d="M437.3,421c-1.1-1.5-2.3-2.8-3.5-4l0,0c-1.2-1.2-2.6-2.3-4.1-3.5c-1.5-1.1-3.1-2-4.7-2.5
		c-1.7-0.6-3.3-0.8-5-0.5c-1.7,0.2-3.3,1.1-4.8,2.6c-1.5,1.5-2.4,3.1-2.6,4.8c-0.2,1.7,0,3.4,0.6,5c0.6,1.6,1.5,3.2,2.6,4.7
		c1.1,1.5,2.3,2.8,3.5,4c1.2,1.2,2.6,2.4,4.1,3.5c1.5,1.1,3.1,2,4.7,2.6c1.2,0.4,2.4,0.6,3.6,0.6c0.5,0,0.9,0,1.4-0.1
		c1.7-0.2,3.3-1.1,4.8-2.6c1.5-1.5,2.4-3.1,2.6-4.8c0.2-1.7,0-3.4-0.6-5C439.3,424.1,438.4,422.5,437.3,421z M433,430.7
		c-0.4,0.4-0.8,0.5-1.3,0.3c-0.7-0.1-1.4-0.5-2.2-0.9c-0.8-0.5-1.6-1.1-2.4-1.8c-0.8-0.7-1.6-1.4-2.3-2.1c-0.7-0.7-1.4-1.4-2.1-2.3
		c-0.7-0.8-1.3-1.6-1.9-2.4c-0.5-0.8-0.8-1.5-1-2.2c-0.1-0.6,0-1,0.3-1.3c0.3-0.3,0.6-0.4,0.9-0.4c0.1,0,0.3,0,0.4,0
		c0.7,0.2,1.4,0.5,2.2,0.9c0.8,0.5,1.6,1.1,2.5,1.8c0.8,0.7,1.6,1.4,2.3,2.1c0.7,0.7,1.4,1.5,2.2,2.3c0.7,0.8,1.3,1.6,1.8,2.4
		c0.5,0.8,0.8,1.5,1,2.2C433.4,430,433.3,430.4,433,430.7z"/>
	<polygon class="st12" points="428.9,398.8 428.3,409.6 435.2,410.7 435.4,405.6 452,419.1 456.8,413.2 433.1,393.8 	"/>
	<polygon class="st13" points="445.1,376.7 441.5,382.1 441.9,392.9 448.9,393.4 448.6,388.2 466.4,400.2 470.6,393.9 445.6,377 	
		"/>
	<polygon class="st13" points="452.4,364.3 453.8,375 460.8,374.8 460.1,369.7 478.9,380 482.6,373.3 455.6,358.6 	"/>
	<path class="st14" d="M489.2,347.1c-1.1-1.3-2.5-2.4-4.1-3.4c-1.6-1-3.2-1.8-4.7-2.5c-1.6-0.7-3.3-1.3-5-1.7
		c-1.8-0.5-3.6-0.7-5.3-0.6c-1.8,0.1-3.4,0.5-4.9,1.3c-1.5,0.8-2.7,2.3-3.5,4.2c-0.8,2-1.1,3.8-0.6,5.5c0.4,1.6,1.2,3.1,2.4,4.4
		c1.1,1.3,2.5,2.4,4.2,3.4c1.6,1,3.2,1.8,4.7,2.5c1.6,0.7,3.3,1.3,5,1.7c1.6,0.4,3.2,0.7,4.8,0.7c0.2,0,0.4,0,0.5,0
		c1.8-0.1,3.4-0.5,4.9-1.3c1.5-0.8,2.7-2.3,3.5-4.2c0.8-2,1.1-3.8,0.6-5.5C491.1,349.9,490.3,348.4,489.2,347.1z M484.6,354.2
		c-0.2,0.5-0.6,0.7-1.1,0.8c-0.7,0.1-1.5,0.1-2.4-0.1c-0.9-0.2-1.9-0.4-2.9-0.8c-1-0.4-2-0.8-2.9-1.2c-0.9-0.4-1.8-0.8-2.8-1.3
		c-1-0.5-1.8-1-2.6-1.6c-0.7-0.5-1.3-1.1-1.7-1.7c-0.3-0.5-0.4-0.9-0.2-1.4c0.2-0.5,0.6-0.7,1.1-0.8c0.3,0,0.6-0.1,0.9-0.1
		c0.5,0,1,0,1.5,0.1c0.9,0.2,1.9,0.4,2.9,0.8c1,0.4,2,0.8,2.9,1.1c0.9,0.4,1.9,0.8,2.9,1.3c1,0.5,1.8,1,2.6,1.6
		c0.7,0.5,1.3,1.1,1.7,1.7C484.7,353.3,484.8,353.8,484.6,354.2z"/>
	<path class="st15" d="M496.6,324.9c-1.3-1.2-2.8-2.2-4.4-3c-1.7-0.8-3.3-1.5-4.9-2c-1.6-0.5-3.4-0.9-5.2-1.2
		c-1.9-0.3-3.7-0.4-5.4-0.1c-1.7,0.2-3.3,0.8-4.7,1.8c-1.4,1-2.5,2.5-3.1,4.5c-0.7,2-0.7,3.9-0.1,5.5c0.6,1.6,1.5,3,2.8,4.2
		c1.3,1.2,2.8,2.2,4.5,3c1.7,0.8,3.3,1.5,4.9,2s3.4,0.9,5.2,1.3c1.1,0.2,2.2,0.3,3.3,0.3c0.7,0,1.4,0,2.1-0.1
		c1.7-0.2,3.3-0.8,4.7-1.8c1.4-1,2.5-2.5,3.1-4.5c0.7-2,0.7-3.9,0.1-5.5C498.9,327.6,497.9,326.1,496.6,324.9z M492.7,332.5
		c-0.2,0.5-0.5,0.8-1,0.9c-0.7,0.2-1.5,0.2-2.4,0.1c-0.9-0.1-1.9-0.2-3-0.5c-1.1-0.3-2.1-0.6-3-0.9c-0.9-0.3-1.9-0.7-2.9-1.1
		c-1-0.4-1.9-0.8-2.7-1.3c-0.8-0.5-1.4-1-1.8-1.5c-0.4-0.4-0.5-0.9-0.3-1.3c0.2-0.5,0.5-0.8,1-0.9c0.5-0.1,1-0.2,1.6-0.2
		c0.3,0,0.5,0,0.8,0c0.9,0.1,2,0.3,3,0.5c1.1,0.3,2.1,0.6,3,0.9h0c0.9,0.3,2,0.7,3,1.1c1,0.4,1.9,0.8,2.7,1.3c0.8,0.5,1.4,1,1.8,1.5
		C492.8,331.6,492.9,332,492.7,332.5z"/>
	<polygon class="st15" points="474.7,305.9 479,315.7 485.7,313.6 483.6,308.9 504.5,313.6 506.1,306.1 476.1,299.5 	"/>
	<polygon class="st16" points="478.4,285.3 483.6,294.7 490,292 487.5,287.5 508.7,290.2 509.7,282.6 479.2,278.8 	"/>
	<path class="st17" d="M510,249.8c-1-1.3-2.4-2.4-4-3.1c-1.6-0.7-3.3-1.2-5.2-1.4c-1.8-0.2-3.6-0.3-5.3-0.3c-1.7,0-3.5,0.2-5.3,0.5
		c-1.9,0.3-3.6,0.8-5.1,1.6c-1.6,0.8-2.9,1.9-3.9,3.2c-1,1.4-1.5,3.2-1.5,5.3c0,2.1,0.6,3.9,1.7,5.2c1,1.3,2.4,2.4,4,3.1
		c1.6,0.7,3.3,1.2,5.2,1.4c1.6,0.2,3.2,0.3,4.8,0.3c0.2,0,0.4,0,0.5,0c1.7,0,3.5-0.2,5.3-0.5c1.9-0.3,3.6-0.8,5.1-1.6
		c1.6-0.8,2.9-1.9,3.9-3.2c1-1.4,1.5-3.2,1.5-5.3C511.6,252.9,511,251.2,510,249.8z M492.6,257.8c-1.1-0.1-2.1-0.2-3-0.4
		c-0.9-0.2-1.7-0.5-2.2-0.8c-0.5-0.3-0.7-0.7-0.7-1.2c0-0.5,0.2-0.9,0.7-1.2c0.6-0.4,1.3-0.7,2.2-0.9c0.9-0.2,1.9-0.4,3-0.5
		c1.1-0.1,2.2-0.1,3.1-0.2c1,0,2,0,3.2,0.1c1.1,0.1,2.1,0.2,3,0.4c0.9,0.2,1.6,0.5,2.2,0.8c0.5,0.3,0.7,0.7,0.7,1.2
		c0,0.5-0.2,0.9-0.7,1.2c-0.6,0.4-1.3,0.7-2.2,0.9c-0.9,0.2-1.9,0.4-3,0.5c-1.1,0.1-2.2,0.1-3.2,0.2
		C494.7,257.9,493.6,257.9,492.6,257.8z"/>
	<polygon class="st17" points="479.3,235.6 486.5,243.6 492.2,239.5 488.7,235.7 510,233.7 509.3,226.1 478.7,229 	"/>
	<polygon class="st18" points="476.5,214.8 484.3,222.2 489.7,217.6 485.8,214.1 506.9,210.1 505.5,202.6 475.3,208.4 	"/>
	<path class="st19" d="M488.5,178.2c-1.8,0.3-3.6,0.6-5.2,1.1c-1.6,0.5-3.3,1.1-5,1.9c-1.7,0.8-3.2,1.8-4.5,2.9
		c-1.3,1.2-2.3,2.5-2.9,4.1c-0.6,1.6-0.6,3.4,0,5.5c0.6,2,1.6,3.6,3,4.6c1.4,1,2.9,1.6,4.7,1.9c0.9,0.1,1.7,0.2,2.6,0.2
		c0.9,0,1.8-0.1,2.7-0.2c1.8-0.3,3.6-0.6,5.2-1.1c1.6-0.5,3.3-1.1,5-1.8c1.7-0.8,3.2-1.7,4.5-2.9c1.3-1.2,2.3-2.5,2.9-4.1
		c0.6-1.6,0.6-3.4,0-5.5c-0.6-2-1.6-3.6-3-4.6c-1.4-1-2.9-1.6-4.7-1.9C492.2,177.9,490.4,177.9,488.5,178.2z M494.6,188
		c-0.5,0.5-1.1,1-1.9,1.4c-0.8,0.5-1.7,0.9-2.8,1.2c-1,0.4-2.1,0.7-3,1c-0.9,0.3-1.9,0.5-3,0.8c-1.1,0.2-2.1,0.4-3,0.4
		c-0.9,0-1.7,0-2.4-0.2c-0.5-0.2-0.9-0.5-1-0.9c-0.1-0.5,0-0.9,0.4-1.3c0.5-0.5,1.1-1,1.9-1.5c0.8-0.5,1.8-0.9,2.8-1.3
		c1-0.4,2-0.7,3-1c1-0.3,2-0.5,3.1-0.8c1.1-0.2,2.1-0.4,3-0.4c0.9,0,1.7,0,2.4,0.2c0.5,0.2,0.9,0.5,1,0.9
		C495,187.1,494.9,187.5,494.6,188z"/>
	<polygon class="st19" points="465.1,174.7 474.1,180.4 478.5,174.9 474.1,172.2 494,164.4 491.2,157.3 462.7,168.6 	"/>
	<polygon class="st19" points="456.6,155.6 466.1,160.4 470,154.5 465.4,152.3 484.5,142.6 481,135.8 453.6,149.7 	"/>
	<path class="st20" d="M453.2,119.5c-1.4,0.9-2.9,2-4.3,3.2c-1.4,1.2-2.6,2.6-3.6,4c-0.9,1.5-1.5,3.1-1.7,4.8
		c-0.2,1.7,0.3,3.5,1.5,5.3c1.1,1.8,2.5,3,4.1,3.6c1.2,0.4,2.4,0.6,3.6,0.6c0.5,0,0.9,0,1.4-0.1c1.7-0.2,3.5-0.7,5.2-1.5
		c1.7-0.8,3.3-1.6,4.7-2.5c1.4-0.9,2.9-2,4.3-3.2c1.4-1.2,2.6-2.6,3.6-4c0.9-1.5,1.5-3.1,1.7-4.8c0.2-1.7-0.3-3.5-1.5-5.3
		c-1.1-1.8-2.5-3-4.1-3.6c-1.6-0.6-3.3-0.8-5-0.5c-1.7,0.2-3.5,0.7-5.2,1.5C456.3,117.7,454.7,118.6,453.2,119.5z M466.4,123.4
		c0.3,0.4,0.3,0.9,0,1.4c-0.3,0.6-0.8,1.3-1.4,1.9c-0.6,0.7-1.4,1.3-2.3,2c-0.9,0.6-1.8,1.2-2.6,1.8c-0.8,0.5-1.7,1.1-2.7,1.6
		c-1,0.5-1.9,0.9-2.8,1.3c-0.9,0.3-1.7,0.5-2.3,0.5c0,0,0,0,0,0c-0.6,0-1-0.2-1.2-0.6c-0.3-0.4-0.3-0.9,0-1.4
		c0.3-0.6,0.8-1.3,1.4-1.9c0.7-0.7,1.4-1.3,2.3-2c0.9-0.7,1.8-1.2,2.6-1.8c0.8-0.5,1.8-1.1,2.7-1.6c1-0.5,1.9-0.9,2.8-1.2
		c0.9-0.3,1.6-0.4,2.3-0.4C465.8,122.7,466.2,122.9,466.4,123.4z"/>
	<polygon class="st20" points="434.4,120.1 444.7,123.1 447.4,116.7 442.5,115.3 459.4,102.2 454.8,96.2 430.4,114.9 	"/>
	<path class="st21" d="M418.3,79.4c-1.2,1.2-2.4,2.6-3.5,4c-1.1,1.5-2,3.1-2.6,4.7c-0.6,1.7-0.8,3.3-0.6,5c0.2,1.7,1.1,3.3,2.6,4.8
		c1.5,1.5,3.1,2.4,4.8,2.6c0.5,0.1,0.9,0.1,1.4,0.1c1.2,0,2.4-0.2,3.7-0.7c1.6-0.6,3.2-1.5,4.7-2.6c1.5-1.1,2.8-2.3,4-3.5
		c1.2-1.2,2.4-2.6,3.5-4c1.1-1.5,2-3.1,2.6-4.7c0.6-1.7,0.8-3.3,0.6-5c-0.2-1.7-1.1-3.3-2.6-4.8c-1.5-1.5-3.1-2.4-4.8-2.6
		c-1.7-0.2-3.4,0-5,0.6c-1.6,0.6-3.2,1.4-4.7,2.6C420.9,77,419.5,78.2,418.3,79.4L418.3,79.4z M418.8,91.8c0.2-0.7,0.5-1.4,1-2.2
		c0.5-0.8,1.1-1.6,1.8-2.4c0.7-0.8,1.5-1.6,2.1-2.3v0c0.7-0.7,1.5-1.4,2.3-2.2c0.8-0.7,1.6-1.3,2.4-1.8c0.8-0.5,1.5-0.8,2.2-0.9
		c0.2,0,0.3-0.1,0.4-0.1c0.4,0,0.7,0.1,0.9,0.4c0.4,0.4,0.5,0.8,0.3,1.3c-0.2,0.7-0.5,1.4-0.9,2.2c-0.5,0.8-1.1,1.6-1.8,2.4
		c-0.7,0.8-1.5,1.6-2.2,2.3c-0.7,0.7-1.5,1.4-2.3,2.1c-0.8,0.7-1.6,1.3-2.4,1.8c-0.8,0.5-1.5,0.8-2.2,1c-0.6,0.1-1,0-1.3-0.3
		C418.8,92.8,418.7,92.3,418.8,91.8z"/>
	<polygon class="st22" points="400.1,84.2 410.8,84.8 412,77.9 406.9,77.7 420.6,61.2 414.7,56.3 395.1,80 	"/>
	<polygon class="st23" points="383.5,71.5 394.2,71.1 394.8,64.1 389.6,64.4 401.7,46.7 395.4,42.4 378.1,67.7 	"/>
	<path class="st24" d="M361,46.2c-0.7,1.8-1.1,3.5-1.2,5.2c-0.1,1.8,0.2,3.4,0.8,5c0.7,1.6,2,2.9,3.8,3.9c1.5,0.8,3,1.3,4.4,1.3
		c0.3,0,0.7,0,1-0.1c1.7-0.2,3.2-0.9,4.7-1.9c1.4-1,2.7-2.3,3.8-3.8c1.1-1.5,2.1-3,2.9-4.5c0.8-1.5,1.6-3.1,2.2-4.8
		c0.7-1.8,1.1-3.5,1.2-5.2c0.1-1.8-0.2-3.4-0.8-5c-0.7-1.6-2-2.9-3.8-3.9c-1.9-1-3.7-1.4-5.4-1.2c-1.7,0.2-3.2,0.9-4.7,1.9
		c-1.4,1-2.7,2.3-3.8,3.8c-1.1,1.5-2.1,3-2.9,4.5C362.4,42.9,361.7,44.5,361,46.2z M367.2,53.1c0-0.7,0.1-1.5,0.3-2.4
		c0.3-0.9,0.6-1.9,1.1-2.9c0.5-1,1-1.9,1.4-2.8l0,0c0.5-0.9,1-1.8,1.6-2.7c0.6-0.9,1.2-1.7,1.8-2.4c0.6-0.7,1.2-1.2,1.8-1.5
		c0.3-0.1,0.5-0.2,0.8-0.2c0.2,0,0.4,0.1,0.6,0.2c0.4,0.2,0.7,0.6,0.7,1.2c0,0.7-0.1,1.5-0.3,2.3c-0.2,0.9-0.6,1.8-1.1,2.8
		c-0.5,1-1,1.9-1.4,2.8c-0.5,0.8-1,1.7-1.6,2.7c-0.6,0.9-1.2,1.7-1.8,2.4c-0.6,0.7-1.2,1.2-1.8,1.5c-0.5,0.3-0.9,0.3-1.4,0
		C367.4,54.1,367.2,53.7,367.2,53.1z"/>
	<path class="st25" d="M340.3,42.7c0,1.8,0.5,3.4,1.3,4.9c0.8,1.5,2.2,2.7,4.2,3.6c1.3,0.6,2.6,0.9,3.8,0.9c0.6,0,1.1-0.1,1.7-0.2
		c1.6-0.4,3.1-1.2,4.5-2.3c1.3-1.1,2.5-2.5,3.4-4.1c1-1.6,1.8-3.2,2.5-4.7c0.7-1.6,1.3-3.2,1.8-5c0.5-1.8,0.7-3.6,0.7-5.3
		c0-1.8-0.5-3.4-1.3-4.9c-0.8-1.5-2.2-2.7-4.2-3.6c-1.9-0.9-3.8-1.1-5.4-0.7c-1.6,0.4-3.1,1.2-4.5,2.3c-1.3,1.1-2.5,2.5-3.5,4.1
		c-1,1.6-1.8,3.2-2.5,4.7c-0.7,1.5-1.3,3.2-1.8,5C340.5,39.2,340.3,41,340.3,42.7z M355.9,28.2c0.5,0.2,0.7,0.6,0.8,1.1
		c0.1,0.7,0.1,1.5-0.1,2.4c-0.2,0.9-0.4,1.9-0.8,2.9c-0.4,1-0.8,2-1.2,2.9c-0.4,0.9-0.8,1.8-1.3,2.8c-0.5,1-1,1.8-1.6,2.6
		c-0.6,0.7-1.1,1.3-1.7,1.7c-0.5,0.3-0.9,0.4-1.4,0.2c-0.5-0.2-0.7-0.6-0.8-1.1c-0.1-0.7-0.1-1.5,0.1-2.4c0.2-0.9,0.4-1.9,0.8-2.9
		c0.4-1,0.8-2,1.2-2.9c0.4-0.9,0.9-1.9,1.4-2.9c0.5-1,1-1.8,1.6-2.6c0.5-0.7,1.1-1.3,1.7-1.7C355,28,355.4,28,355.9,28.2z"/>
	<path class="st26" d="M320.1,35.8c0.2,1.7,0.8,3.3,1.7,4.7c1,1.4,2.5,2.5,4.5,3.1c1.1,0.4,2.1,0.5,3.1,0.5c0.8,0,1.6-0.1,2.4-0.4
		c1.6-0.6,3-1.5,4.2-2.8c1.2-1.3,2.2-2.7,3-4.4c0.8-1.7,1.5-3.3,2-4.9c0.5-1.6,1-3.3,1.3-5.2c0.3-1.8,0.4-3.7,0.2-5.4
		c-0.2-1.7-0.8-3.3-1.7-4.7c-1-1.4-2.5-2.5-4.5-3.1c-2-0.7-3.9-0.7-5.5-0.2c-1.6,0.6-3,1.5-4.2,2.8c-1.2,1.3-2.2,2.7-3.1,4.4
		c-0.8,1.7-1.5,3.3-2.1,4.9v0c-0.5,1.6-1,3.4-1.3,5.2C320,32.2,319.9,34.1,320.1,35.8z M335.1,20.9c0.2,0.7,0.2,1.5,0.1,2.4
		c-0.1,0.9-0.3,1.9-0.5,3c-0.3,1.1-0.6,2.1-0.9,3c-0.3,0.9-0.7,1.9-1.1,2.9c-0.4,1-0.9,1.9-1.4,2.7c-0.5,0.8-1,1.4-1.5,1.8
		c-0.4,0.4-0.9,0.5-1.3,0.3c-0.5-0.2-0.8-0.5-0.9-1c-0.2-0.7-0.2-1.5-0.1-2.4c0.1-0.9,0.3-2,0.5-3c0.3-1.1,0.6-2.1,0.9-3
		c0.3-0.9,0.7-1.9,1.1-3c0.4-1,0.9-1.9,1.4-2.7c0.5-0.8,1-1.4,1.5-1.8c0.4-0.4,0.9-0.5,1.3-0.3C334.7,20,335,20.3,335.1,20.9z"/>
	<path class="st27" d="M315.7,34.5c1.1-1.4,1.9-2.9,2.6-4.7c0.7-1.7,1.2-3.4,1.6-5.1c0.4-1.6,0.7-3.4,0.8-5.3
		c0.2-1.9,0.1-3.7-0.3-5.4c-0.4-1.7-1.1-3.2-2.2-4.5c-1.1-1.3-2.7-2.2-4.8-2.7c-2.1-0.5-3.9-0.4-5.5,0.4c-1.5,0.7-2.9,1.8-3.9,3.1
		c-1.1,1.4-2,2.9-2.6,4.7c-0.7,1.7-1.2,3.4-1.6,5.1c-0.4,1.6-0.6,3.4-0.8,5.3c-0.2,1.9,0,3.7,0.3,5.4c0.4,1.7,1.1,3.2,2.2,4.5
		c1.1,1.3,2.7,2.2,4.8,2.7c0.8,0.2,1.6,0.3,2.4,0.3c1.1,0,2.2-0.2,3.1-0.6C313.3,37,314.6,35.9,315.7,34.5z M311.9,13.6
		c0.5,0.1,0.8,0.4,1,1c0.2,0.6,0.3,1.4,0.4,2.3c0,0.9-0.1,1.9-0.3,3c-0.2,1.1-0.4,2.1-0.6,3.1c-0.2,0.9-0.5,2-0.8,3
		c-0.3,1-0.7,2-1.1,2.9c-0.4,0.8-0.9,1.5-1.3,2c-0.4,0.4-0.8,0.5-1.3,0.4c-0.5-0.1-0.8-0.4-1-1c-0.2-0.6-0.3-1.4-0.3-2.4
		c0-0.9,0.1-2,0.3-3c0.2-1.1,0.4-2.1,0.6-3.1v0c0.2-0.9,0.5-2,0.8-3.1c0.3-1,0.7-2,1.1-2.8c0.4-0.8,0.9-1.5,1.3-2
		c0.3-0.3,0.6-0.5,1-0.5C311.7,13.6,311.8,13.6,311.9,13.6z"/>
	<polygon class="st28" points="296.3,28.7 293.7,22.2 289.2,24.7 292,3.5 284.4,2.5 280.4,33 286.9,33.8 	"/>
	<path class="st29" d="M251.6,30.7c1.3,1.1,3.1,1.6,5.2,1.7c0.1,0,0.1,0,0.2,0c2,0,3.7-0.5,5.1-1.5c1.4-1,2.4-2.3,3.2-3.9
		c0.8-1.6,1.3-3.3,1.6-5.1c0.3-1.8,0.4-3.6,0.5-5.3c0-1.7-0.1-3.5-0.3-5.3c-0.2-1.9-0.7-3.6-1.4-5.2c-0.7-1.6-1.8-2.9-3.1-4
		c-1.3-1.1-3.1-1.6-5.2-1.7c-2.1,0-3.9,0.5-5.3,1.5c-1.4,1-2.4,2.3-3.2,3.9c-0.8,1.5-1.3,3.3-1.6,5.1c-0.3,1.8-0.5,3.6-0.5,5.3
		c0,1.7,0.1,3.5,0.3,5.3c0.2,1.9,0.7,3.6,1.4,5.2C249.3,28.3,250.3,29.7,251.6,30.7z M259.6,19.5c-0.1,1.1-0.2,2.1-0.5,3
		c-0.2,0.9-0.5,1.6-0.9,2.2c-0.3,0.5-0.7,0.7-1.2,0.7c-0.5,0-0.9-0.2-1.2-0.7c-0.4-0.6-0.6-1.3-0.8-2.2c-0.2-0.9-0.3-1.9-0.4-3
		c-0.1-1.1-0.1-2.2-0.1-3.1c0-1,0.1-2.1,0.2-3.2c0.1-1.1,0.2-2.1,0.5-3c0.2-0.9,0.5-1.6,0.9-2.2c0.3-0.5,0.7-0.7,1.2-0.7
		c0,0,0,0,0,0c0.5,0,0.9,0.2,1.2,0.7c0.4,0.6,0.6,1.3,0.8,2.2c0.2,0.9,0.3,1.9,0.4,3c0.1,1.1,0.1,2.2,0.1,3.2
		C259.7,17.4,259.6,18.4,259.6,19.5z"/>
	<polygon class="st30" points="237.5,23.1 235.6,1.8 228,2.5 230.7,33.1 237.2,32.5 245.3,25.4 241.3,19.7 	"/>
	<polygon class="st31" points="219.3,22.1 215.8,25.8 212,4.8 204.5,6.1 210,36.4 216.5,35.2 223.9,27.4 	"/>
	<path class="st31" d="M199.8,37.8c1-1.3,1.7-2.9,2-4.6c0.3-1.7,0.3-3.5,0-5.4c-0.3-1.8-0.6-3.6-1.1-5.2c-0.5-1.6-1.1-3.3-1.8-5
		c-0.8-1.7-1.7-3.3-2.8-4.6c-1.2-1.3-2.5-2.3-4.1-2.9c-1.6-0.6-3.4-0.7-5.5-0.1c-2,0.6-3.6,1.6-4.6,2.9c-1,1.3-1.7,2.9-2,4.6
		c-0.3,1.7-0.3,3.5-0.1,5.4c0.2,1.8,0.6,3.6,1.1,5.2c0.5,1.6,1.1,3.3,1.8,5c0.8,1.7,1.7,3.2,2.9,4.6c1.2,1.3,2.5,2.3,4.1,2.9
		c0.8,0.3,1.7,0.5,2.7,0.5c0.9,0,1.8-0.1,2.8-0.4C197.2,40.1,198.8,39.2,199.8,37.8z M193.3,34.1c-0.5,0.1-0.9,0-1.3-0.4
		c-0.5-0.5-1-1.1-1.4-1.9c-0.5-0.8-0.9-1.8-1.2-2.8c-0.4-1-0.7-2-0.9-3c-0.3-0.9-0.5-2-0.8-3.1c-0.2-1.1-0.4-2.1-0.4-3
		c0-0.9,0-1.7,0.2-2.4c0.2-0.5,0.5-0.9,0.9-1c0.5-0.1,0.9,0,1.3,0.4c0.5,0.5,1,1.1,1.4,1.9c0.5,0.8,0.9,1.7,1.2,2.8
		c0.4,1,0.7,2.1,1,3c0.3,0.9,0.5,2,0.7,3c0.2,1.1,0.4,2.1,0.4,3c0,0.9,0,1.7-0.2,2.4C194.1,33.6,193.8,33.9,193.3,34.1z"/>
	<polygon class="st31" points="176.6,32.9 173.8,37.3 166.1,17.3 159,20 170.1,48.7 176.2,46.3 182,37.3 	"/>
	<polygon class="st32" points="157,54.7 162,45.2 156.1,41.3 153.8,45.9 144.3,26.7 137.4,30.1 151.2,57.6 	"/>
	<polygon class="st33" points="138.7,64.8 142.8,54.8 136.6,51.5 134.7,56.3 123.4,38.1 116.9,42.2 133.2,68.3 	"/>
	<path class="st34" d="M100.2,66.7c0.9,1.6,1.9,3.1,2.9,4.5c1,1.4,2.2,2.7,3.5,4c1.3,1.3,2.8,2.4,4.3,3.2c1.6,0.8,3.2,1.2,4.9,1.2
		c0,0,0,0,0,0c1.7,0,3.4-0.6,5.1-1.9c1.7-1.3,2.8-2.8,3.2-4.4c0.4-1.6,0.5-3.3,0.1-5c-0.4-1.7-1-3.4-1.9-5c-0.9-1.6-1.9-3.1-2.9-4.5
		c-1-1.4-2.2-2.7-3.5-4c-1.3-1.3-2.8-2.4-4.3-3.2c-1.6-0.8-3.2-1.2-4.9-1.2c-1.7,0-3.4,0.6-5.1,1.9c-1.7,1.3-2.8,2.8-3.2,4.4
		c-0.4,1.6-0.5,3.3-0.1,5C98.6,63.4,99.3,65.1,100.2,66.7z M116.8,72.2c-0.4,0.3-0.8,0.4-1.4,0.1c-0.6-0.2-1.3-0.7-2-1.2
		c-0.7-0.6-1.5-1.3-2.2-2.1c-0.7-0.8-1.4-1.7-2-2.4c-0.6-0.8-1.2-1.7-1.8-2.6c-0.6-0.9-1.1-1.8-1.5-2.7c-0.4-0.8-0.6-1.6-0.6-2.3
		c-0.1-0.6,0.1-1,0.5-1.3c0.4-0.3,0.8-0.3,1.4-0.1c0.6,0.2,1.3,0.7,2,1.2c0.7,0.6,1.4,1.3,2.2,2.1c0.7,0.8,1.4,1.7,2,2.5
		c0.6,0.8,1.2,1.6,1.8,2.5c0.6,0.9,1.1,1.8,1.5,2.7c0.4,0.8,0.6,1.6,0.7,2.3C117.3,71.5,117.2,71.9,116.8,72.2z"/>
	<animateTransform attributeType="xml" attributeName="transform" type="rotate" from="0 256 256" to="360 256 256" dur="2.0s" repeatCount="indefinite"/>
</g>
</svg>
