<?xml version="1.0" encoding="utf-8"?>
<svg version="1.1" id="Layer_1" xmlns="http://www.w3.org/2000/svg" xmlns:xlink="http://www.w3.org/1999/xlink" x="0px" y="0px"
	 viewBox="0 0 512 512" style="enable-background:new 0 0 512 512;" xml:space="preserve">
<path d="M142.5,211.8h31.1v110.3h-31.1v-14.4c-9.5,11.9-21.4,17.8-36,17.8c-31.1,0-54.2-25.4-54.2-58.7c0-32.9,23-58.5,53.6-58.5
	c14.4,0,26.6,6.1,36.7,17.8V211.8z M115,236.1c-17.3,0-30.8,13.7-30.8,30.8c0,17.1,13.5,30.8,30.8,30.8c16.4,0,30.8-14,30.8-30.6
	C145.9,250,131.9,236.1,115,236.1z M202.8,211.8h31.1v13.7c9-11.5,20.5-17.3,34.4-17.3c22.3,0,41,12.8,41,42.5v71.3h-31.1v-60.5
	c0-18.5-5.2-27-20.9-27c-15.5,0-23.4,9.7-23.4,30.4v57.2h-31.1V211.8z M422.8,156.4h31.1v165.6h-31.1v-14.4
	c-9.5,11.9-21.4,17.8-36,17.8c-31.1,0-54.2-25-54.2-58.7c0-32.9,23.2-58.5,53.6-58.5c14.4,0,26.6,6.1,36.7,17.8V156.4z M395.4,236.1
	c-16.9,0-30.8,14-30.8,30.8c0,16.9,14,30.8,30.8,30.8c16.4,0,30.8-14,30.8-30.6C426.2,250,412.3,236.1,395.4,236.1z"/>
</svg>
