<svg version="1.1" id="Layer_1" xmlns="http://www.w3.org/2000/svg" xmlns:xlink="http://www.w3.org/1999/xlink" x="0px" y="0px"
	 viewBox="0 0 512 512" style="enable-background:new 0 0 512 512;" xml:space="preserve">
<path d="M40,252.5c-0.04-0.8-0.02-1.54,0.05-2.22c0.07-0.68,0.19-1.3,0.36-1.86c0.17-0.56,0.4-1.06,0.67-1.51
	c0.28-0.44,0.6-0.82,0.98-1.14c0.59-0.5,1.27-0.84,2-1.05c0.74-0.21,1.53-0.29,2.33-0.26c0.8,0.02,1.62,0.15,2.42,0.34
	c0.79,0.19,1.56,0.45,2.27,0.75c0.09,0.04,0.18,0.08,0.26,0.11c0.09,0.04,0.17,0.08,0.26,0.12c0.09,0.04,0.18,0.08,0.27,0.13
	c0.09,0.04,0.18,0.09,0.27,0.14l0.15,0.07c0.95,0.41,1.91,0.85,2.87,1.33c0.97,0.48,1.94,1,2.92,1.55c0.98,0.55,1.97,1.14,2.96,1.77
	c0.99,0.62,1.99,1.28,2.98,1.97c0.01,0.87,0.03,1.68,0.03,2.45c0,0.77-0.01,1.5-0.05,2.22c-0.03,0.72-0.08,1.43-0.17,2.15
	c-0.08,0.72-0.19,1.46-0.34,2.24c-0.24,0.97-0.68,2.04-1.37,3.04c-0.69,1-1.63,1.92-2.84,2.59c-1.22,0.67-2.72,1.09-4.54,1.09
	c-1.82,0-3.96-0.42-6.46-1.45c-0.04-0.01-0.08-0.03-0.12-0.04c-0.04-0.01-0.08-0.03-0.12-0.04c-0.04-0.02-0.08-0.03-0.12-0.05
	c-0.04-0.02-0.08-0.03-0.11-0.05c-0.55-0.24-1.09-0.53-1.61-0.87c-0.52-0.34-1.02-0.74-1.49-1.19c-0.47-0.44-0.92-0.94-1.35-1.47
	c-0.42-0.54-0.81-1.11-1.17-1.73c-0.38-0.66-0.72-1.36-1.01-2.07c-0.29-0.72-0.53-1.46-0.72-2.21c-0.19-0.75-0.33-1.51-0.41-2.26
	c-0.08-0.75-0.11-1.5-0.08-2.24l0.01-0.18L40,252.5z M512,132.65v246.7c0,27-17,51.2-42.5,60.3l-192,68.6c-13.9,5-29.1,5-43.1,0
	l-192-68.6C17,430.55,0,406.45,0,379.35v-246.7c0-27,17-51.2,42.5-60.3l192-68.6c13.9-5,29.1-5,43.1,0l192,68.6
	C495,81.45,512,105.55,512,132.65z M22.15,245.87c-0.04,2.07,0.06,4.11,0.28,6.1c0.23,2,0.59,3.96,1.09,5.87
	c0.5,1.92,1.13,3.79,1.89,5.62c0.76,1.83,1.66,3.62,2.69,5.35c1.27,2.14,2.67,4.08,4.13,5.82c1.46,1.74,2.98,3.27,4.49,4.61
	c1.51,1.33,3.01,2.46,4.41,3.37c1.41,0.92,2.73,1.63,3.89,2.13c0.07,0.03,0.13,0.06,0.2,0.08c0.06,0.03,0.12,0.05,0.18,0.07
	c0.06,0.02,0.11,0.04,0.17,0.06c0.05,0.02,0.1,0.04,0.14,0.05c0.03,0.02,0.07,0.03,0.1,0.05c0.03,0.02,0.07,0.03,0.1,0.05
	c0.03,0.02,0.07,0.03,0.1,0.04c0.03,0.01,0.07,0.03,0.1,0.04c1.98,0.85,3.94,1.44,5.86,1.77c1.92,0.33,3.79,0.41,5.58,0.22
	c1.8-0.18,3.52-0.62,5.15-1.31c1.63-0.69,3.15-1.63,4.56-2.82c0.67,1.86,1.35,3.52,2.01,4.98c0.67,1.46,1.33,2.73,1.99,3.8
	c0.66,1.07,1.31,1.94,1.96,2.62c0.65,0.67,1.29,1.15,1.92,1.42c0.02,0.01,0.05,0.02,0.07,0.03c0.02,0.01,0.05,0.02,0.07,0.03
	c0.02,0.01,0.05,0.02,0.07,0.03c0.02,0.01,0.05,0.02,0.07,0.02c0.3,0.11,0.59,0.19,0.88,0.24c0.29,0.05,0.57,0.08,0.85,0.07
	c0.28,0,0.55-0.04,0.81-0.1c0.26-0.06,0.51-0.15,0.75-0.27l4.44-2.16c0.36-0.13,0.69-0.32,0.98-0.56c0.29-0.25,0.55-0.55,0.76-0.91
	c0.22-0.36,0.39-0.76,0.52-1.21s0.22-0.94,0.25-1.47l0.01-0.22l-0.01-0.24c-0.02-0.43-0.07-0.86-0.15-1.29
	c-0.08-0.44-0.19-0.88-0.32-1.34c-0.13-0.46-0.28-0.93-0.44-1.41c-0.16-0.48-0.34-0.98-0.52-1.49c-0.29-0.83-0.61-1.74-0.92-2.73
	c-0.31-0.99-0.62-2.07-0.89-3.24c-0.27-1.17-0.5-2.43-0.66-3.79c-0.16-1.36-0.24-2.82-0.23-4.39l-0.41-32.14
	c0.11-2.36,0.02-4.81-0.25-7.3c-0.27-2.49-0.72-5.02-1.34-7.54c-0.62-2.53-1.42-5.05-2.38-7.53c-0.96-2.48-2.08-4.91-3.35-7.25
	l-0.27-0.44c-1.37-2.03-2.82-3.92-4.34-5.67c-1.51-1.74-3.08-3.34-4.7-4.77c-1.62-1.43-3.28-2.7-4.97-3.8
	c-1.69-1.1-3.41-2.02-5.15-2.75c-0.21-0.09-0.43-0.18-0.64-0.26c-0.21-0.08-0.43-0.17-0.64-0.25c-0.21-0.08-0.43-0.15-0.64-0.23
	c-0.21-0.07-0.43-0.14-0.64-0.21c-0.03-0.01-0.05-0.02-0.08-0.03c-0.03-0.01-0.05-0.02-0.08-0.03c-0.03-0.01-0.05-0.02-0.08-0.03
	c-0.03-0.01-0.05-0.02-0.08-0.03c-1.21-0.51-2.46-0.97-3.74-1.37c-1.27-0.4-2.57-0.74-3.87-1.02c-1.3-0.28-2.61-0.5-3.91-0.65
	c-1.3-0.15-2.6-0.24-3.87-0.26c-1.19-0.02-2.29,0.02-3.31,0.12c-1.01,0.09-1.93,0.24-2.74,0.44c-0.81,0.2-1.51,0.45-2.09,0.75
	c-0.58,0.3-1.04,0.65-1.36,1.04l-0.1,0.12l-0.17,0.3c-0.17,0.36-0.35,1.11-0.5,2.1c-0.15,0.99-0.26,2.22-0.31,3.54
	c-0.04,1.32-0.01,2.74,0.15,4.09c0.15,1.36,0.43,2.66,0.87,3.75c0.18,0.46,0.4,0.9,0.63,1.29c0.24,0.4,0.49,0.76,0.77,1.08
	c0.28,0.32,0.57,0.61,0.87,0.84c0.31,0.24,0.62,0.43,0.95,0.57c0.02,0.01,0.04,0.02,0.06,0.02c0.02,0.01,0.04,0.02,0.06,0.02
	c0.02,0.01,0.04,0.02,0.06,0.03c0.02,0.01,0.04,0.02,0.06,0.03c0.03,0.01,0.06,0.03,0.08,0.04c0.03,0.01,0.05,0.02,0.08,0.04
	c0.03,0.01,0.05,0.02,0.08,0.04c0.03,0.01,0.05,0.02,0.08,0.03c0.27,0.12,0.54,0.21,0.82,0.28c0.28,0.07,0.57,0.12,0.89,0.14
	c0.32,0.02,0.68,0.02,1.08-0.02c0.41-0.03,0.86-0.09,1.39-0.19c1.36-0.14,2.72-0.19,4.07-0.17c1.34,0.02,2.67,0.12,3.96,0.29
	c1.29,0.17,2.55,0.42,3.75,0.74c1.21,0.32,2.36,0.71,3.45,1.17l0.38,0.15c0.16,0.05,0.32,0.1,0.48,0.15
	c0.16,0.05,0.32,0.1,0.47,0.16c0.16,0.06,0.31,0.11,0.47,0.17c0.15,0.06,0.31,0.12,0.46,0.19c0.87,0.37,1.7,0.81,2.49,1.31
	s1.54,1.08,2.26,1.73c0.71,0.64,1.38,1.35,2,2.12c0.62,0.77,1.2,1.6,1.72,2.49c0.61,1.03,1.14,2.12,1.58,3.26
	c0.44,1.14,0.81,2.32,1.08,3.53c0.27,1.21,0.46,2.46,0.56,3.72c0.1,1.26,0.11,2.53,0.02,3.81l0.04,3.64
	c-1.78-1.23-3.39-2.28-4.85-3.19c-1.46-0.91-2.77-1.67-3.94-2.32c-1.17-0.65-2.21-1.18-3.12-1.62c-0.91-0.44-1.7-0.79-2.39-1.09
	c-0.13-0.07-0.27-0.13-0.4-0.2c-0.13-0.06-0.27-0.13-0.4-0.19c-0.13-0.06-0.27-0.12-0.4-0.18c-0.13-0.06-0.27-0.12-0.4-0.17
	c-1.89-0.81-3.77-1.38-5.59-1.71c-1.82-0.34-3.59-0.44-5.27-0.31s-3.28,0.49-4.76,1.09c-1.48,0.6-2.83,1.42-4.04,2.48
	c-1.09,0.95-2.03,2.07-2.83,3.33c-0.8,1.26-1.46,2.67-1.97,4.22c-0.51,1.55-0.88,3.23-1.09,5.04
	C22.13,241.88,22.07,243.82,22.15,245.87z M83.14,211.16c0.04,0.41,0.08,0.82,0.14,1.23c0.05,0.41,0.12,0.82,0.19,1.23
	c0.07,0.41,0.15,0.82,0.23,1.23c0.09,0.41,0.18,0.81,0.28,1.21l18.8,84.16c0.21,1.2,0.52,2.34,0.92,3.39
	c0.4,1.05,0.9,2.03,1.47,2.89c0.57,0.86,1.21,1.62,1.91,2.25c0.7,0.63,1.46,1.12,2.26,1.47c0.05,0.02,0.1,0.04,0.15,0.06
	c0.05,0.02,0.1,0.04,0.15,0.06c0.05,0.02,0.1,0.04,0.15,0.05c0.05,0.02,0.1,0.03,0.15,0.05l6.31,2.71c0.06,0.03,0.13,0.07,0.19,0.1
	c0.06,0.03,0.12,0.06,0.18,0.09c0.06,0.03,0.12,0.06,0.18,0.09c0.06,0.03,0.12,0.05,0.18,0.08c0.99,0.43,1.85,0.55,2.6,0.44
	c0.74-0.11,1.36-0.45,1.87-0.95c0.51-0.5,0.91-1.17,1.2-1.92c0.3-0.75,0.49-1.59,0.59-2.45l8.83-46.87l10.1,55.06
	c0.12,0.93,0.34,1.93,0.66,2.94c0.32,1.01,0.74,2.03,1.27,2.98c0.53,0.95,1.17,1.85,1.93,2.61c0.76,0.76,1.63,1.39,2.64,1.82
	c0.06,0.02,0.11,0.05,0.17,0.07c0.06,0.02,0.11,0.05,0.17,0.07c0.06,0.02,0.12,0.04,0.18,0.06c0.06,0.02,0.12,0.04,0.18,0.06
	l6.53,2.8c0.05,0.03,0.1,0.05,0.15,0.08c0.05,0.02,0.1,0.05,0.15,0.07c0.05,0.02,0.1,0.05,0.15,0.07c0.05,0.02,0.1,0.04,0.15,0.06
	c0.81,0.35,1.57,0.51,2.27,0.48c0.7-0.02,1.33-0.23,1.88-0.61c0.55-0.38,1.03-0.94,1.41-1.66c0.38-0.72,0.67-1.61,0.86-2.66
	l11.46-44.53c1.7-6.61,2.98-11.58,3.94-15.31c0.96-3.73,1.6-6.23,2.03-7.92c0.43-1.69,0.65-2.56,0.76-3.04
	c0.12-0.48,0.13-0.56,0.14-0.68l0.04-0.32c0.04-0.67,0.05-1.31,0.01-1.92c-0.04-0.62-0.12-1.21-0.23-1.77
	c-0.12-0.57-0.28-1.1-0.48-1.62c-0.2-0.51-0.44-1-0.72-1.45c-0.18-0.3-0.38-0.58-0.6-0.84c-0.21-0.26-0.43-0.5-0.67-0.71
	c-0.23-0.21-0.47-0.4-0.72-0.57c-0.25-0.16-0.5-0.3-0.76-0.41c-0.04-0.02-0.07-0.03-0.11-0.04c-0.04-0.01-0.07-0.03-0.11-0.04
	c-0.04-0.01-0.07-0.03-0.11-0.04c-0.04-0.01-0.07-0.02-0.11-0.03l-6.89-2.92c-0.05-0.03-0.11-0.06-0.16-0.08
	c-0.05-0.03-0.11-0.05-0.16-0.08c-0.05-0.03-0.11-0.05-0.16-0.07c-0.05-0.02-0.11-0.05-0.16-0.07c-0.81-0.34-1.57-0.49-2.27-0.46
	c-0.7,0.03-1.33,0.25-1.88,0.64s-1.03,0.96-1.41,1.69c-0.38,0.73-0.67,1.63-0.85,2.69l-10.27,49.56l-10.36-58.11
	c-0.18-1.46-0.52-2.75-0.97-3.9c-0.45-1.14-1-2.14-1.62-2.98c-0.62-0.85-1.3-1.54-1.99-2.11c-0.7-0.56-1.41-0.98-2.09-1.27
	c-0.04-0.02-0.09-0.04-0.13-0.05c-0.04-0.02-0.09-0.03-0.13-0.05c-0.04-0.02-0.09-0.03-0.13-0.05c-0.04-0.02-0.08-0.03-0.13-0.04
	l-6.01-2.54c-0.05-0.03-0.11-0.05-0.16-0.08c-0.05-0.03-0.1-0.05-0.16-0.08c-0.05-0.02-0.1-0.05-0.15-0.07
	c-0.05-0.02-0.1-0.04-0.15-0.07c-1.02-0.43-1.9-0.56-2.66-0.47c-0.76,0.1-1.4,0.42-1.92,0.9c-0.52,0.48-0.93,1.11-1.23,1.83
	c-0.3,0.72-0.5,1.52-0.6,2.33l-9,48.9l-11.01-57.42c-0.2-1.23-0.51-2.4-0.9-3.47c-0.4-1.07-0.88-2.05-1.44-2.91
	s-1.19-1.62-1.89-2.24s-1.45-1.11-2.25-1.45c-0.05-0.02-0.1-0.04-0.16-0.06c-0.05-0.02-0.1-0.04-0.16-0.06
	c-0.05-0.02-0.11-0.04-0.16-0.06c-0.05-0.02-0.11-0.04-0.16-0.05c-1.13-0.48-2.1-0.89-2.93-1.24c-0.83-0.35-1.52-0.64-2.09-0.89
	c-0.58-0.24-1.04-0.44-1.4-0.6c-0.37-0.16-0.65-0.28-0.86-0.37l-0.03-0.01l-0.02-0.14l-0.93-0.22c-0.55-0.12-1.06-0.09-1.5,0.08
	c-0.44,0.17-0.83,0.47-1.13,0.88c-0.31,0.41-0.53,0.93-0.66,1.53C83.09,209.72,83.06,210.41,83.14,211.16z M204.91,417.46
	c7.35-1.4,14.17-3.67,20.23-6.81c0.8-0.41,1.41-0.98,1.86-1.65c0.45-0.67,0.73-1.44,0.87-2.27c0.14-0.83,0.14-1.7,0.03-2.58
	c-0.11-0.88-0.34-1.76-0.66-2.59c-0.25-0.66-0.56-1.31-0.93-1.93c-0.37-0.62-0.79-1.22-1.25-1.77c-0.46-0.55-0.97-1.04-1.52-1.47
	c-0.54-0.43-1.12-0.78-1.73-1.04c-0.23-0.1-0.46-0.18-0.7-0.26c-0.24-0.07-0.48-0.13-0.72-0.17c-0.24-0.04-0.49-0.06-0.73-0.07
	c-0.25-0.01-0.5,0-0.75,0.03c-6.88,0.76-13.85,1.02-20.9,0.79c-7.05-0.23-14.18-0.96-21.37-2.18c-7.19-1.22-14.45-2.92-21.77-5.11
	c-7.31-2.19-14.68-4.86-22.1-8.02l-0.14-0.06c-9.85-4.26-19.66-9.34-29.38-15.18c-9.71-5.83-19.32-12.43-28.77-19.73
	c-9.44-7.3-18.72-15.31-27.78-23.98c-9.05-8.66-17.88-17.99-26.43-27.92c-0.25-0.28-0.49-0.54-0.73-0.77
	c-0.24-0.23-0.48-0.44-0.71-0.62c-0.23-0.18-0.46-0.34-0.69-0.48c-0.22-0.14-0.44-0.25-0.66-0.34c-0.39-0.17-0.77-0.27-1.12-0.3
	c-0.35-0.04-0.68-0.01-0.98,0.07c-0.3,0.08-0.58,0.21-0.82,0.38c-0.24,0.17-0.46,0.39-0.64,0.64c-0.27,0.39-0.49,0.89-0.61,1.47
	c-0.13,0.59-0.17,1.27-0.11,2.01c0.06,0.75,0.23,1.56,0.54,2.42c0.3,0.86,0.73,1.76,1.32,2.68c7.91,12.47,16.37,24.17,25.27,34.99
	c8.91,10.83,18.26,20.77,27.95,29.73c9.69,8.97,19.72,16.95,29.96,23.84c10.25,6.9,20.72,12.7,31.3,17.29
	c0.1,0.04,0.19,0.08,0.29,0.12c0.1,0.04,0.19,0.08,0.28,0.12c0.09,0.04,0.19,0.08,0.28,0.12c0.09,0.04,0.19,0.08,0.28,0.12
	c8.5,3.69,17.13,6.55,25.68,8.57c8.56,2.02,17.03,3.2,25.2,3.52C189.7,419.39,197.57,418.86,204.91,417.46z M220.51,332.54
	c-0.06,0.56-0.16,1.07-0.3,1.53c-0.14,0.46-0.33,0.87-0.55,1.23c-0.22,0.36-0.49,0.66-0.79,0.91c-0.3,0.25-0.64,0.43-1.01,0.56
	l-0.14,0.04c-0.67,0.2-1.39,0.31-2.14,0.35c-0.76,0.04-1.55,0-2.39-0.12c-0.84-0.12-1.72-0.31-2.64-0.59
	c-0.92-0.27-1.88-0.62-2.89-1.05c-0.66-0.28-1.33-0.6-2.03-0.95c-0.69-0.35-1.4-0.73-2.13-1.15c-0.73-0.42-1.47-0.86-2.23-1.35
	c-0.76-0.48-1.54-1-2.33-1.55c-0.9-0.62-1.72-1.21-2.48-1.79c-0.76-0.58-1.45-1.16-2.12-1.73c-0.67-0.58-1.31-1.16-1.96-1.76
	c-0.65-0.6-1.3-1.22-1.99-1.88l-0.1-0.1c-0.11-0.11-0.23-0.21-0.34-0.32c-0.12-0.11-0.23-0.22-0.35-0.33
	c-0.12-0.11-0.24-0.23-0.37-0.35c-0.12-0.12-0.25-0.24-0.38-0.36c-0.22-0.2-0.43-0.38-0.63-0.54c-0.2-0.16-0.4-0.31-0.59-0.44
	c-0.19-0.13-0.37-0.24-0.55-0.34c-0.18-0.1-0.35-0.18-0.51-0.25c-0.27-0.11-0.52-0.19-0.75-0.24s-0.45-0.07-0.65-0.07
	c-0.2,0-0.38,0.02-0.55,0.06c-0.17,0.04-0.32,0.09-0.45,0.15c-0.31,0.14-0.58,0.34-0.81,0.61c-0.23,0.26-0.42,0.59-0.58,0.97
	c-0.15,0.38-0.27,0.83-0.34,1.33c-0.07,0.5-0.11,1.06-0.1,1.69l0.05,4.99c0,0.92,0.11,1.85,0.31,2.79c0.2,0.93,0.5,1.86,0.87,2.76
	c0.38,0.9,0.84,1.76,1.36,2.56s1.13,1.54,1.78,2.19c2.09,2.26,4.27,4.25,6.41,5.98c2.14,1.74,4.26,3.23,6.23,4.49
	c1.97,1.26,3.8,2.28,5.36,3.1c1.57,0.81,2.88,1.41,3.83,1.82l0.03,0.01c0.05,0.03,0.12,0.06,0.19,0.09
	c0.07,0.03,0.15,0.07,0.25,0.11c0.09,0.04,0.19,0.09,0.3,0.14c0.11,0.05,0.23,0.1,0.36,0.16c1.13,0.49,2.94,1.18,5.1,1.73
	c2.17,0.55,4.71,0.96,7.3,0.89c2.6-0.08,5.26-0.65,7.67-2.06c2.41-1.41,4.58-3.67,6.2-7.12c0.56-1.24,1.11-2.91,1.52-4.93
	c0.41-2.02,0.68-4.39,0.68-7.02c0-2.63-0.27-5.52-0.95-8.59c-0.68-3.07-1.75-6.31-3.37-9.64l-0.07-0.14
	c-1.29-2.45-2.53-4.5-3.82-6.33c-1.29-1.83-2.63-3.43-4.14-4.99c-1.5-1.56-3.17-3.07-5.1-4.71c-1.94-1.64-4.14-3.4-6.72-5.47
	c-0.35-0.28-0.7-0.56-1.06-0.85c-0.36-0.29-0.73-0.59-1.11-0.89c-0.38-0.3-0.76-0.61-1.16-0.93c-0.4-0.32-0.8-0.64-1.21-0.98
	l-0.07-0.06c-0.53-0.41-1.37-1.08-2.32-1.94c-0.95-0.86-2.02-1.92-3.02-3.11s-1.93-2.51-2.61-3.9c-0.68-1.39-1.1-2.84-1.09-4.3
	l0-0.14l-0.01-0.14c-0.03-0.5-0.03-0.95,0.01-1.37c0.03-0.42,0.1-0.79,0.2-1.13c0.1-0.34,0.23-0.65,0.4-0.92
	c0.17-0.27,0.37-0.51,0.6-0.72c0.58-0.51,1.32-0.81,2.14-0.94c0.82-0.14,1.72-0.11,2.63,0c0.9,0.12,1.8,0.33,2.62,0.57
	c0.82,0.24,1.56,0.52,2.13,0.76c0.06,0.03,0.12,0.05,0.18,0.08c0.06,0.02,0.11,0.05,0.16,0.07c0.05,0.02,0.1,0.05,0.15,0.07
	c0.05,0.02,0.1,0.05,0.14,0.07l0.08,0.03l0.03,0.01c0.05,0.02,0.1,0.04,0.15,0.06c0.05,0.02,0.1,0.04,0.15,0.06
	c0.05,0.02,0.1,0.04,0.15,0.06c0.05,0.02,0.1,0.04,0.14,0.06c1.55,0.66,2.98,1.4,4.29,2.17c1.31,0.77,2.5,1.59,3.59,2.4
	c1.09,0.81,2.06,1.62,2.94,2.38c0.88,0.77,1.66,1.49,2.36,2.13c0.38,0.35,0.74,0.68,1.08,1c0.35,0.31,0.68,0.61,1,0.88
	c0.32,0.27,0.64,0.52,0.95,0.74c0.31,0.22,0.62,0.43,0.93,0.6l0.22,0.11c0.49,0.21,1,0.32,1.5,0.3c0.49-0.02,0.96-0.17,1.37-0.5
	c0.41-0.33,0.75-0.82,0.99-1.53c0.24-0.71,0.38-1.63,0.37-2.8l-0.04-4.67c0.01-0.45-0.01-0.91-0.05-1.38
	c-0.04-0.47-0.12-0.94-0.21-1.41c-0.1-0.47-0.22-0.95-0.37-1.43c-0.15-0.48-0.33-0.96-0.53-1.44l-0.11-0.26
	c-1.11-2.24-2.84-4.39-4.86-6.38c-2.02-1.99-4.33-3.81-6.62-5.4c-2.29-1.59-4.54-2.95-6.45-4c-1.91-1.05-3.47-1.8-4.36-2.18
	c-0.03-0.01-0.05-0.02-0.08-0.03c-0.02-0.01-0.05-0.02-0.08-0.03c-0.03-0.01-0.05-0.02-0.08-0.03c-0.03-0.01-0.05-0.02-0.08-0.03
	c-2.18-0.92-4.28-1.58-6.29-1.98c-2.01-0.4-3.93-0.54-5.73-0.43c-1.8,0.12-3.49,0.49-5.04,1.12c-1.55,0.63-2.97,1.51-4.23,2.65
	c-1,0.9-1.89,1.94-2.64,3.11c-0.76,1.16-1.39,2.45-1.89,3.85c-0.5,1.39-0.87,2.89-1.11,4.48c-0.23,1.59-0.33,3.26-0.29,5.01
	c0.03,2.14,0.23,4.27,0.6,6.4c0.37,2.13,0.92,4.25,1.64,6.34c0.71,2.09,1.6,4.16,2.64,6.19c1.04,2.03,2.25,4.02,3.62,5.96
	c1.06,1.51,2.13,2.86,3.15,4.05c1.02,1.19,1.99,2.22,2.85,3.08c0.86,0.86,1.61,1.55,2.2,2.06c0.59,0.51,1.01,0.85,1.21,1.01
	c0.61,0.51,1.2,1,1.77,1.47c0.57,0.47,1.11,0.92,1.64,1.35c0.53,0.43,1.03,0.85,1.52,1.25c0.49,0.4,0.96,0.79,1.41,1.16
	c1.94,1.59,3.5,2.87,4.79,3.96c1.29,1.09,2.31,1.98,3.17,2.79c0.86,0.82,1.56,1.56,2.22,2.35c0.66,0.79,1.27,1.63,1.95,2.63
	c0.26,0.48,0.49,0.98,0.68,1.51c0.19,0.52,0.35,1.07,0.46,1.62c0.12,0.55,0.19,1.11,0.22,1.66
	C220.57,331.47,220.56,332.01,220.51,332.54z M248.29,398.84c0.03-4.13-0.46-7.51-1.42-9.44c-0.58-1.17-1.53-2.37-2.73-3.56
	c-1.2-1.19-2.66-2.36-4.26-3.48c-1.6-1.12-3.34-2.19-5.12-3.16c-1.77-0.97-3.58-1.85-5.31-2.59c-0.07-0.03-0.14-0.06-0.21-0.09
	c-0.07-0.03-0.14-0.06-0.21-0.09c-0.07-0.03-0.14-0.06-0.21-0.09c-0.07-0.03-0.14-0.06-0.21-0.09c-1.5-0.62-3.35-1.31-5.4-1.92
	c-2.06-0.61-4.33-1.15-6.69-1.48c-2.36-0.33-4.81-0.44-7.24-0.21c-2.42,0.23-4.81,0.81-7.04,1.88c-0.52,0.25-0.96,0.59-1.32,0.99
	c-0.36,0.41-0.64,0.89-0.83,1.42c-0.19,0.53-0.3,1.12-0.31,1.74c-0.01,0.62,0.07,1.28,0.26,1.96c0.12,0.43,0.28,0.88,0.51,1.34
	c0.22,0.46,0.5,0.92,0.83,1.36c0.33,0.44,0.71,0.85,1.15,1.22c0.44,0.37,0.93,0.68,1.48,0.92c0.06,0.02,0.11,0.05,0.17,0.07
	c0.06,0.02,0.12,0.04,0.17,0.07c0.06,0.02,0.12,0.04,0.18,0.06c0.06,0.02,0.12,0.04,0.18,0.05l0.25,0.06
	c2.18,0.61,4.19,1.19,6.04,1.76c1.85,0.57,3.54,1.11,5.09,1.63c1.55,0.52,2.95,1.03,4.22,1.51c1.27,0.48,2.41,0.94,3.43,1.38
	c1.5,0.65,2.75,1.25,3.78,1.81c1.03,0.56,1.85,1.06,2.5,1.53c0.65,0.46,1.12,0.88,1.47,1.25c0.35,0.37,0.57,0.69,0.7,0.96
	c0.22,0.46,0.41,1.2,0.44,2.41c0.03,1.21-0.09,2.89-0.49,5.22c-0.4,2.33-1.06,5.3-2.12,9.1c-1.06,3.8-2.51,8.42-4.47,14.05
	l-0.12,0.34c-0.24,0.68-0.36,1.37-0.38,2.03c-0.02,0.67,0.05,1.32,0.18,1.93c0.13,0.61,0.34,1.19,0.57,1.7
	c0.24,0.52,0.51,0.98,0.8,1.36c0.16,0.22,0.33,0.42,0.51,0.61c0.18,0.19,0.36,0.36,0.55,0.52c0.19,0.16,0.39,0.3,0.59,0.43
	c0.2,0.13,0.41,0.23,0.61,0.32c0.31,0.13,0.62,0.23,0.94,0.28c0.31,0.05,0.63,0.07,0.94,0.04c0.31-0.03,0.62-0.09,0.92-0.2
	c0.3-0.11,0.6-0.25,0.88-0.44c3.62-2.34,6.56-6.02,8.88-10.34c2.32-4.33,4.02-9.3,5.15-14.22
	C247.71,407.84,248.26,402.96,248.29,398.84z M429.7,125.95l-173.7-62l-173.7,62l173.7,62L429.7,125.95z M448,187.55l-160,57.1
	v191.9l160-57.1V187.55z"/>
</svg>
