<?xml version="1.0" encoding="utf-8"?>
<svg version="1.1" id="Layer_1" xmlns="http://www.w3.org/2000/svg" xmlns:xlink="http://www.w3.org/1999/xlink" x="0px" y="0px"
	 viewBox="0 0 512 512" style="enable-background:new 0 0 512 512;" xml:space="preserve">
<path d="M457.1,0H54.9C24.6,0,0,24.6,0,54.9v402.3C0,487.4,24.6,512,54.9,512h402.3c30.3,0,54.9-24.6,54.9-54.9V54.9
	C512,24.6,487.4,0,457.1,0z M356.1,474.7h-200c-55.2,0-100-44.8-100-100c0-55.2,44.8-100,100-100h200c55.2,0,100,44.8,100,100
	C456.1,429.9,411.3,474.7,356.1,474.7z M356.1,237.3h-200c-55.2,0-100-44.8-100-100s44.8-100,100-100h200c55.2,0,100,44.8,100,100
	S411.3,237.3,356.1,237.3z M159.1,299.7c-41.5,0-75,33.6-75,75c0,41.5,33.6,75,75,75c41.5,0,75-33.6,75-75
	C234.1,333.2,200.6,299.7,159.1,299.7z M205.3,402.4c3.4,3.4,3.4,8.9,0,12.3l-6.2,6.2c-3.4,3.4-8.9,3.4-12.3,0l-27.7-27.7
	l-27.7,27.7c-3.4,3.4-8.9,3.4-12.3,0l-6.2-6.2c-3.4-3.4-3.4-8.9,0-12.3l27.7-27.7L113,347c-3.4-3.4-3.4-8.9,0-12.3l6.2-6.2
	c3.4-3.4,8.9-3.4,12.3,0l27.7,27.7l27.7-27.7c3.4-3.4,8.9-3.4,12.3,0l6.2,6.2c3.4,3.4,3.4,8.9,0,12.3l-27.7,27.7L205.3,402.4z
	 M353.1,62.3c-41.4,0-75,33.5-75,75c0,41.4,33.5,75,75,75c41.4,0,75-33.5,75-75C428.1,95.9,394.6,62.3,353.1,62.3z M345,180.4
	c-2.3,2.3-6,2.3-8.2,0l-37.9-37.9c-2.3-2.3-2.3-6,0-8.2l8.2-8.2c2.3-2.3,6-2.3,8.2,0l25.5,25.5L395.5,97c2.3-2.3,6-2.3,8.2,0
	l8.2,8.2c2.3,2.3,2.3,6,0,8.2L345,180.4z"/>
</svg>
