<?xml version="1.0" encoding="utf-8"?>
<!-- Generator: Adobe Illustrator 22.1.0, SVG Export Plug-In . SVG Version: 6.00 Build 0)  -->
<svg version="1.1" id="Layer_1" xmlns="http://www.w3.org/2000/svg" xmlns:xlink="http://www.w3.org/1999/xlink" x="0px" y="0px"
	 viewBox="0 0 512 512" style="enable-background:new 0 0 512 512;" xml:space="preserve">
<path d="M256,0l221.7,128v256L256,512L34.3,384V128L256,0z M477.7,34.3c-179.5,93.7-278,254.3-278,254.3L76.5,256l172,172
	C248.6,428,291.7,201.4,477.7,34.3z"/>
</svg>
