<?xml version="1.0" encoding="utf-8"?>
<svg version="1.1" id="Layer_1" xmlns="http://www.w3.org/2000/svg" xmlns:xlink="http://www.w3.org/1999/xlink" x="0px" y="0px"
	 viewBox="0 0 512 512" style="enable-background:new 0 0 512 512;" xml:space="preserve">
<path d="M464,128H272l-64-64H48C21.5,64,0,85.5,0,112v288c0,26.5,21.5,48,48,48h416c26.5,0,48-21.5,48-48V176
	C512,149.5,490.5,128,464,128z M349.5,371.4c-0.6,1.3-13.9,31.2-28.1,44.1c-1.2,1.1-2.8,1.7-4.5,1.7H168.6c-3.7,0-6.7-3-6.7-6.7
	c0-3.7,3-6.7,6.7-6.7c12.4,0,22.4-10.1,22.4-22.4V203c0-12.4-10.1-22.4-22.4-22.4c-3.7,0-6.7-3-6.7-6.7s3-6.7,6.7-6.7h148.5
	c3.7,0,6.7,3,6.7,6.7v43.3c0,3.7-3,6.7-6.7,6.7c-3.7,0-6.7-3-6.7-6.7c0-12.4-10.1-22.4-22.4-22.4h-55.2v83.7h37.6
	c7.7,0,13.8-6,13.8-13.8c0-3.7,3-6.7,6.7-6.7c3.7,0,6.7,3,6.7,6.7v55.1c0,3.7-3,6.7-6.7,6.7c-3.7,0-6.7-3-6.7-6.7
	c0-5.7-4.3-13.8-13.8-13.8h-37.6v73.8c1.3,2.1,12.9,10,50.1,10c30,0,42.4-6.3,55-24.9c1.9-2.9,5.7-3.8,8.7-2.1
	C349.7,364.5,350.9,368.2,349.5,371.4z"/>
</svg>
