<svg version="1.1" id="Layer_1" xmlns="http://www.w3.org/2000/svg" xmlns:xlink="http://www.w3.org/1999/xlink" x="0px" y="0px"
	 viewBox="0 0 512 512" style="enable-background:new 0 0 512 512;" xml:space="preserve">
<path d="M246.06,305.13c-0.37-2.08,0.72-4.15,2.64-5.03c1.92-0.88,4.2-0.35,5.53,1.29c6.14,7.55,12.98,10.35,18.27,9.15
	c4.76-1.07,8.53-6.35,10.61-14.85c0.52-2.13,2.44-3.61,4.66-3.54c2.19,0.07,4.04,1.67,4.42,3.83c2.84,16.1,4.81,33.87-2.06,43.59
	c-2.58,3.64-6.13,5.86-10.56,6.6c-1.1,0.18-2.18,0.27-3.25,0.27C262.17,346.45,250.74,331.66,246.06,305.13z M273.77,256
	c0-23.08,15.32-15.32,41.78-41.78c23.08,0,41.78,18.71,41.78,41.78s-18.71,41.78-41.78,41.78S273.77,279.08,273.77,256z
	 M327.44,252.09c-4.14,0-7.5,3.36-7.5,7.5c0,4.14,3.36,7.5,7.5,7.5c4.14,0,7.5-3.36,7.5-7.5
	C334.94,255.44,331.58,252.09,327.44,252.09z M295.8,240.42c0,8.28,6.72,15,15,15s15-6.72,15-15s-6.72-15-15-15
	S295.8,232.13,295.8,240.42z M79.99,163.51c8.07,50.36,17.11,106.82,25.48,159.06c2.12-0.81,10.54-4.46,12.44-4.94
	c4.6-1.16,9.35,0.46,12.71,4.34c4.15,4.8,7.07,15.56,7.89,24.72c16.49,5.99,34.94,9.12,54.99,10.27
	c-29.53-19.3-50.21-57.97-48.95-97.67c0.7-22,92.14-84.92,129.06-88.63c36.93-3.71,99.14,22.09,120.46,53.37
	c21.33,31.28,26.63,67.22,43.1,46.35c9.86-12.5,18.89-10.42,22.64-3.75c2.68,4.76,2.15,12.16,0,15c-2.07,2.74-6.53-14.03-11.25-5.28
	c-2.91,5.39-8.58,32.76-19.73,41.81c-24.45,19.87-47.93,0-58.9,2.12c-11.47,2.22-32.36,18.09-42.09,30.7
	c5.04,10,6.74,25.81,3.73,42.89c-3.57,20.25-12.75,36.57-22.82,42.59c4.27,22.46,16.75,41.13,39.79,47.24
	c14.45,3.83,49.62,1.96,51.01-7.84c1.16-8.17-13.23-11.23-14.18-24.93c-0.19-2.72,0.65-5.44,1.73-7.88
	c1.54-3.29,4.97-2.29,3.95,1.16c-0.79,2.91,0.43,8.83,1.88,9.26c2.99,0.88,17.16-15.09,11.84-33c-0.46-1.56,1.21-2.89,2.4-1.75
	c7.01,6.76,10.42,19.24,4.94,28c-3.55,5.69-5.5,14.3-1.58,22.94s4.05,19.73-12.53,27.34c-21.99,10.1-63.07,14.89-100.7,15
	c-54.01,0.15-100.9-9.35-73.99-26.68c-15.85-25.83-12.67-49-17.6-50.35c-4.33-1.18-37.41,12.74-80.9,8.29
	c5.9,36.82,9.67,60.39,9.67,60.39c0.63,3.93-2.04,7.62-5.97,8.25c-3.85,0.62-7.48-1.95-8.21-5.75l-15.04-78.13
	c-3.81,0.6-22.06,1.2-26.66-3.42c-5.13-5.15-14.15-46.31-14.27-46.85c-3.09-0.81-5.23-2.75-6.65-4.69
	c-4.43-6.03-11.12-34.33-6.89-44.45c3.37-8.07,21.68-13.2,32.34-15.55L26.27,17.84c-1.57-8.14,3.76-16,11.9-17.57
	c8.29-1.61,16.33,4.02,17.65,12.36l0.02,0.1C326.31-31.31,461.86,48.5,486,170.65C389.16,65.02,199.68,92.2,79.99,163.51z
	 M280.67,346.98c54.39-9.59,92.65-50.43,85.46-91.23c-7.19-40.79-57.12-66.09-111.5-56.5c-54.39,9.59-92.65,50.43-85.46,91.23
	C176.36,331.28,226.28,356.57,280.67,346.98z M108.68,342.63c0.63,3.91,1.25,7.78,1.86,11.61c3.03-1.07,6.19-2.37,8.29-3.47
	c-0.14-3.1-0.87-7.75-1.79-11.32C114.56,340.51,111.7,341.66,108.68,342.63z M86.48,346c-6.27-0.03-12.2-0.84-17.05-1.81
	c0.56,4.17,1.65,9.11,2.76,12.76c1.77,0.02,3.53,0.51,5.07,1.45c2.29,1.39,3.93,3.64,4.55,6.25c0.67,2.85,1.49,6.4,2.38,10.28
	c2.02,8.81,5.82,25.44,8.14,33.26c2.51,0.19,5.78,0.2,9.1,0.02l-6.73-34.98c-1.69-1.6-3.96-4.36-6.94-19.73
	C87.2,350.63,86.79,348.15,86.48,346z M343.15,41.03l-9.07,9.4l6.12,0.83l-4.21,31.17l16.25,11.31l12.74-8.84l-18.16-2.45
	l1.73-12.82l12.95,1.75l6.17-6.38l-11.85-1.6l-6.88,3.33l1.9-14.04l11.92,1.61l7.38-7.53l-13.01-1.76l-6.1,6.32L343.15,41.03z
	 M295.98,42.85l22.7,1.02l-9.57,7.38l-1.28,28.39l10.02,10.96l9.46-11.66l-7.04-0.32l1.56-34.61l11.01,0.5l7.63-9.42l-36.86-1.66
	L295.98,42.85z M144.21,90.54l-10.54-50.08L112.7,29.6l-39.95,8.41l-7.72,16.9l26.89-5.66L78.18,64.36l9,42.76l33.79,9.22
	L144.21,90.54z M205.75,81.78l-29.3,4.32l-3.05-20.67l20.88-3.08l6.73-12.67L181.9,52.5l-9.19,8.25l-3.34-22.65l19.22-2.83
	l8.08-14.99l-20.98,3.09l-6.64,12.55l-16.81-12.49l-9.88,18.65l9.87-1.46l7.41,50.28l30.28,10.29L205.75,81.78z M255.74,77.24
	l-23.96,1.95l-4.57-56.05l-15.62,1.27l-8.09,13.05l9.09-0.74l3.73,45.83l25.88,11.14L255.74,77.24z M297.29,76.16l-23.95,0.96
	l-0.68-16.9l17.07-0.69l6.5-9.62l-15.63,0.63l-8.1,5.86l-0.75-18.52l15.71-0.63l7.79-11.37l-17.16,0.69l-6.42,9.53l-12.46-11.49
	l-9.55,14.17l8.07-0.32l1.65,41.11l23.49,10.88L297.29,76.16z M94.28,48.75l10.95,51.99l20.82-4.38L115.1,44.37L94.28,48.75z
	 M223.67,307.02c-19.23,0-34.82-15.59-34.82-34.82c0-19.23,15.59-34.82,34.82-34.82c21.61,21.61,34.82,15.59,34.82,34.82
	C258.49,291.43,242.9,307.02,223.67,307.02z M230.39,256.89c0-8.28-6.72-15-15-15c-8.28,0-15,6.72-15,15c0,8.28,6.72,15,15,15
	C223.68,271.89,230.39,265.17,230.39,256.89z M238.93,279.29c0-4.14-3.36-7.5-7.5-7.5s-7.5,3.36-7.5,7.5s3.36,7.5,7.5,7.5
	S238.93,283.44,238.93,279.29z"/>
</svg>
