<svg version="1.1" id="Layer_1" xmlns="http://www.w3.org/2000/svg" xmlns:xlink="http://www.w3.org/1999/xlink" x="0px" y="0px"
	 viewBox="0 0 512 512" style="enable-background:new 0 0 512 512;" xml:space="preserve">
<path d="M493,237c-2.86,0-471.01,0-474,0c-10.73,0-19,8.74-19,19c0,10.26,8.32,19,19,19c2.86,0,471.09,0,474,0
	c10.49,0,19-8.51,19-19C512,245.51,503.49,237,493,237z"/>
</svg>
