<svg version="1.1" id="Layer_1" xmlns="http://www.w3.org/2000/svg" xmlns:xlink="http://www.w3.org/1999/xlink" x="0px" y="0px"
	 viewBox="0 0 512 512" style="enable-background:new 0 0 512 512;" xml:space="preserve">
<path d="M167.3,367.7v-47.9c0-6.6,5.4-12,12-12c6.6,0,12,5.4,12,12v47.9c0,6.6-5.4,12-12,12C172.7,379.7,167.3,374.3,167.3,367.7z
	 M512,121.7v69.4c0,17.7-14.5,32.2-32.2,32.2h-5.7v246.8h0.3c6.6,0,12,5.4,12,12v18c0,6.6-5.4,12-12,12H37.6c-6.6,0-12-5.4-12-12
	v-18c0-6.5,5.3-11.9,11.9-12V223.3h-5.3C14.5,223.3,0,208.8,0,191.1v-69.4L76.5,0h359.1L512,121.7z M356.2,40.4l22.9,73h81.4
	l-41.5-73H356.2z M268,113.4h86.3l-19.6-73h-68.3L268,113.4z M267.5,182.6h89.8v-44.9h-89.8V182.6z M326.9,379.4V223.3H244v156.1
	H326.9z M157.7,113.4H244l1.5-73h-68.3L157.7,113.4z M154.2,182.6H244v-44.9h-89.8V182.6z M51.5,113.4h81.4l22.9-73H93L51.5,113.4z
	 M37.5,182.6h89.8v-44.9H37.5V182.6z M77.9,223.3v246.8h125.7V223.3H77.9z M433.7,223.3h-82.8v156.1h82.8V223.3z M474.5,137.7h-89.8
	v44.9h89.8V137.7z"/>
</svg>
